<?xml version="1.0" encoding="UTF-8"?>
<svg xmlns="http://www.w3.org/2000/svg" xmlns:xlink="http://www.w3.org/1999/xlink" width="587pt" height="375pt" viewBox="0 0 587 375" version="1.1">
<defs>
<g>
<symbol overflow="visible" id="glyph0-0">
<path style="stroke:none;" d="M 0.640625 2.265625 L 0.640625 -9.015625 L 7.03125 -9.015625 L 7.03125 2.265625 Z M 1.359375 1.546875 L 6.328125 1.546875 L 6.328125 -8.296875 L 1.359375 -8.296875 Z M 1.359375 1.546875 "/>
</symbol>
<symbol overflow="visible" id="glyph0-1">
<path style="stroke:none;" d="M 8.234375 -8.609375 L 8.234375 -7.28125 C 7.816406 -7.675781 7.363281 -7.96875 6.875 -8.15625 C 6.394531 -8.351562 5.882812 -8.453125 5.34375 -8.453125 C 4.28125 -8.453125 3.460938 -8.125 2.890625 -7.46875 C 2.328125 -6.820312 2.046875 -5.882812 2.046875 -4.65625 C 2.046875 -3.425781 2.328125 -2.484375 2.890625 -1.828125 C 3.460938 -1.179688 4.28125 -0.859375 5.34375 -0.859375 C 5.882812 -0.859375 6.394531 -0.953125 6.875 -1.140625 C 7.363281 -1.335938 7.816406 -1.632812 8.234375 -2.03125 L 8.234375 -0.71875 C 7.796875 -0.414062 7.328125 -0.1875 6.828125 -0.03125 C 6.335938 0.113281 5.820312 0.1875 5.28125 0.1875 C 3.863281 0.1875 2.75 -0.242188 1.9375 -1.109375 C 1.125 -1.972656 0.71875 -3.15625 0.71875 -4.65625 C 0.71875 -6.15625 1.125 -7.335938 1.9375 -8.203125 C 2.75 -9.066406 3.863281 -9.5 5.28125 -9.5 C 5.832031 -9.5 6.351562 -9.421875 6.84375 -9.265625 C 7.34375 -9.117188 7.804688 -8.898438 8.234375 -8.609375 Z M 8.234375 -8.609375 "/>
</symbol>
<symbol overflow="visible" id="glyph0-2">
<path style="stroke:none;" d="M 4.390625 -3.515625 C 3.460938 -3.515625 2.816406 -3.40625 2.453125 -3.1875 C 2.097656 -2.976562 1.921875 -2.617188 1.921875 -2.109375 C 1.921875 -1.703125 2.050781 -1.378906 2.3125 -1.140625 C 2.582031 -0.898438 2.953125 -0.78125 3.421875 -0.78125 C 4.054688 -0.78125 4.566406 -1.003906 4.953125 -1.453125 C 5.335938 -1.910156 5.53125 -2.515625 5.53125 -3.265625 L 5.53125 -3.515625 Z M 6.671875 -4 L 6.671875 0 L 5.53125 0 L 5.53125 -1.0625 C 5.269531 -0.632812 4.941406 -0.316406 4.546875 -0.109375 C 4.160156 0.0859375 3.679688 0.1875 3.109375 0.1875 C 2.390625 0.1875 1.816406 -0.015625 1.390625 -0.421875 C 0.972656 -0.828125 0.765625 -1.363281 0.765625 -2.03125 C 0.765625 -2.820312 1.023438 -3.414062 1.546875 -3.8125 C 2.078125 -4.21875 2.867188 -4.421875 3.921875 -4.421875 L 5.53125 -4.421875 L 5.53125 -4.53125 C 5.53125 -5.0625 5.351562 -5.46875 5 -5.75 C 4.65625 -6.039062 4.171875 -6.1875 3.546875 -6.1875 C 3.140625 -6.1875 2.75 -6.140625 2.375 -6.046875 C 2 -5.953125 1.632812 -5.8125 1.28125 -5.625 L 1.28125 -6.671875 C 1.695312 -6.835938 2.101562 -6.960938 2.5 -7.046875 C 2.894531 -7.128906 3.28125 -7.171875 3.65625 -7.171875 C 4.675781 -7.171875 5.429688 -6.90625 5.921875 -6.375 C 6.421875 -5.851562 6.671875 -5.0625 6.671875 -4 Z M 6.671875 -4 "/>
</symbol>
<symbol overflow="visible" id="glyph0-3">
<path style="stroke:none;" d="M 1.203125 -9.71875 L 2.359375 -9.71875 L 2.359375 0 L 1.203125 0 Z M 1.203125 -9.71875 "/>
</symbol>
<symbol overflow="visible" id="glyph0-4">
<path style="stroke:none;" d="M 6.25 -6.734375 L 6.25 -5.65625 C 5.914062 -5.832031 5.585938 -5.960938 5.265625 -6.046875 C 4.941406 -6.140625 4.613281 -6.1875 4.28125 -6.1875 C 3.53125 -6.1875 2.945312 -5.953125 2.53125 -5.484375 C 2.125 -5.015625 1.921875 -4.351562 1.921875 -3.5 C 1.921875 -2.644531 2.125 -1.976562 2.53125 -1.5 C 2.945312 -1.03125 3.53125 -0.796875 4.28125 -0.796875 C 4.613281 -0.796875 4.941406 -0.835938 5.265625 -0.921875 C 5.585938 -1.015625 5.914062 -1.148438 6.25 -1.328125 L 6.25 -0.265625 C 5.925781 -0.117188 5.59375 -0.0078125 5.25 0.0625 C 4.90625 0.144531 4.539062 0.1875 4.15625 0.1875 C 3.09375 0.1875 2.25 -0.144531 1.625 -0.8125 C 1.007812 -1.476562 0.703125 -2.375 0.703125 -3.5 C 0.703125 -4.632812 1.015625 -5.53125 1.640625 -6.1875 C 2.273438 -6.84375 3.132812 -7.171875 4.21875 -7.171875 C 4.570312 -7.171875 4.914062 -7.132812 5.25 -7.0625 C 5.59375 -6.988281 5.925781 -6.878906 6.25 -6.734375 Z M 6.25 -6.734375 "/>
</symbol>
<symbol overflow="visible" id="glyph0-5">
<path style="stroke:none;" d="M 1.09375 -2.765625 L 1.09375 -7 L 2.234375 -7 L 2.234375 -2.8125 C 2.234375 -2.144531 2.363281 -1.644531 2.625 -1.3125 C 2.882812 -0.976562 3.269531 -0.8125 3.78125 -0.8125 C 4.40625 -0.8125 4.894531 -1.007812 5.25 -1.40625 C 5.613281 -1.800781 5.796875 -2.34375 5.796875 -3.03125 L 5.796875 -7 L 6.953125 -7 L 6.953125 0 L 5.796875 0 L 5.796875 -1.078125 C 5.515625 -0.648438 5.191406 -0.332031 4.828125 -0.125 C 4.460938 0.0820312 4.035156 0.1875 3.546875 0.1875 C 2.742188 0.1875 2.132812 -0.0625 1.71875 -0.5625 C 1.300781 -1.0625 1.09375 -1.796875 1.09375 -2.765625 Z M 1.09375 -2.765625 "/>
</symbol>
<symbol overflow="visible" id="glyph0-6">
<path style="stroke:none;" d=""/>
</symbol>
<symbol overflow="visible" id="glyph0-7">
<path style="stroke:none;" d="M 0.375 -7 L 1.59375 -7 L 3.78125 -1.125 L 5.96875 -7 L 7.1875 -7 L 4.5625 0 L 3 0 Z M 0.375 -7 "/>
</symbol>
<symbol overflow="visible" id="glyph0-8">
<path style="stroke:none;" d="M 1.203125 -7 L 2.359375 -7 L 2.359375 0 L 1.203125 0 Z M 1.203125 -9.71875 L 2.359375 -9.71875 L 2.359375 -8.265625 L 1.203125 -8.265625 Z M 1.203125 -9.71875 "/>
</symbol>
<symbol overflow="visible" id="glyph0-9">
<path style="stroke:none;" d="M 2.34375 -8.984375 L 2.34375 -7 L 4.71875 -7 L 4.71875 -6.109375 L 2.34375 -6.109375 L 2.34375 -2.3125 C 2.34375 -1.738281 2.421875 -1.367188 2.578125 -1.203125 C 2.734375 -1.046875 3.050781 -0.96875 3.53125 -0.96875 L 4.71875 -0.96875 L 4.71875 0 L 3.53125 0 C 2.644531 0 2.03125 -0.164062 1.6875 -0.5 C 1.351562 -0.832031 1.1875 -1.4375 1.1875 -2.3125 L 1.1875 -6.109375 L 0.34375 -6.109375 L 0.34375 -7 L 1.1875 -7 L 1.1875 -8.984375 Z M 2.34375 -8.984375 "/>
</symbol>
<symbol overflow="visible" id="glyph0-10">
<path style="stroke:none;" d="M 7.1875 -3.78125 L 7.1875 -3.21875 L 1.90625 -3.21875 C 1.957031 -2.425781 2.195312 -1.820312 2.625 -1.40625 C 3.050781 -1 3.644531 -0.796875 4.40625 -0.796875 C 4.84375 -0.796875 5.269531 -0.847656 5.6875 -0.953125 C 6.101562 -1.066406 6.515625 -1.226562 6.921875 -1.4375 L 6.921875 -0.359375 C 6.515625 -0.179688 6.09375 -0.046875 5.65625 0.046875 C 5.21875 0.140625 4.78125 0.1875 4.34375 0.1875 C 3.21875 0.1875 2.328125 -0.132812 1.671875 -0.78125 C 1.023438 -1.4375 0.703125 -2.320312 0.703125 -3.4375 C 0.703125 -4.582031 1.007812 -5.488281 1.625 -6.15625 C 2.25 -6.832031 3.085938 -7.171875 4.140625 -7.171875 C 5.078125 -7.171875 5.816406 -6.863281 6.359375 -6.25 C 6.910156 -5.644531 7.1875 -4.820312 7.1875 -3.78125 Z M 6.046875 -4.125 C 6.035156 -4.75 5.859375 -5.25 5.515625 -5.625 C 5.171875 -6 4.71875 -6.1875 4.15625 -6.1875 C 3.507812 -6.1875 2.992188 -6.003906 2.609375 -5.640625 C 2.222656 -5.285156 2 -4.78125 1.9375 -4.125 Z M 6.046875 -4.125 "/>
</symbol>
<symbol overflow="visible" id="glyph0-11">
<path style="stroke:none;" d="M 5.671875 -6.796875 L 5.671875 -5.703125 C 5.347656 -5.867188 5.007812 -5.992188 4.65625 -6.078125 C 4.300781 -6.160156 3.9375 -6.203125 3.5625 -6.203125 C 3 -6.203125 2.570312 -6.113281 2.28125 -5.9375 C 2 -5.769531 1.859375 -5.507812 1.859375 -5.15625 C 1.859375 -4.882812 1.957031 -4.671875 2.15625 -4.515625 C 2.363281 -4.367188 2.773438 -4.226562 3.390625 -4.09375 L 3.78125 -4 C 4.601562 -3.832031 5.1875 -3.585938 5.53125 -3.265625 C 5.875 -2.941406 6.046875 -2.5 6.046875 -1.9375 C 6.046875 -1.28125 5.785156 -0.757812 5.265625 -0.375 C 4.753906 0 4.050781 0.1875 3.15625 0.1875 C 2.78125 0.1875 2.390625 0.148438 1.984375 0.078125 C 1.578125 0.00390625 1.144531 -0.101562 0.6875 -0.25 L 0.6875 -1.4375 C 1.113281 -1.21875 1.53125 -1.050781 1.9375 -0.9375 C 2.351562 -0.832031 2.765625 -0.78125 3.171875 -0.78125 C 3.710938 -0.78125 4.128906 -0.875 4.421875 -1.0625 C 4.710938 -1.25 4.859375 -1.507812 4.859375 -1.84375 C 4.859375 -2.15625 4.753906 -2.394531 4.546875 -2.5625 C 4.335938 -2.726562 3.875 -2.890625 3.15625 -3.046875 L 2.765625 -3.140625 C 2.046875 -3.285156 1.53125 -3.515625 1.21875 -3.828125 C 0.90625 -4.140625 0.75 -4.566406 0.75 -5.109375 C 0.75 -5.765625 0.976562 -6.269531 1.4375 -6.625 C 1.90625 -6.988281 2.570312 -7.171875 3.4375 -7.171875 C 3.851562 -7.171875 4.25 -7.140625 4.625 -7.078125 C 5 -7.015625 5.347656 -6.921875 5.671875 -6.796875 Z M 5.671875 -6.796875 "/>
</symbol>
<symbol overflow="visible" id="glyph0-12">
<path style="stroke:none;" d="M 1.25 -9.328125 L 3.140625 -9.328125 L 5.515625 -2.984375 L 7.90625 -9.328125 L 9.796875 -9.328125 L 9.796875 0 L 8.5625 0 L 8.5625 -8.1875 L 6.15625 -1.796875 L 4.890625 -1.796875 L 2.484375 -8.1875 L 2.484375 0 L 1.25 0 Z M 1.25 -9.328125 "/>
</symbol>
<symbol overflow="visible" id="glyph0-13">
<path style="stroke:none;" d="M 5.265625 -5.921875 C 5.128906 -5.992188 4.984375 -6.046875 4.828125 -6.078125 C 4.679688 -6.117188 4.519531 -6.140625 4.34375 -6.140625 C 3.6875 -6.140625 3.179688 -5.925781 2.828125 -5.5 C 2.484375 -5.082031 2.3125 -4.476562 2.3125 -3.6875 L 2.3125 0 L 1.15625 0 L 1.15625 -7 L 2.3125 -7 L 2.3125 -5.90625 C 2.5625 -6.332031 2.878906 -6.648438 3.265625 -6.859375 C 3.648438 -7.066406 4.117188 -7.171875 4.671875 -7.171875 C 4.753906 -7.171875 4.84375 -7.164062 4.9375 -7.15625 C 5.03125 -7.144531 5.132812 -7.128906 5.25 -7.109375 Z M 5.265625 -5.921875 "/>
</symbol>
<symbol overflow="visible" id="glyph0-14">
<path style="stroke:none;" d="M 2.3125 -1.046875 L 2.3125 2.65625 L 1.15625 2.65625 L 1.15625 -7 L 2.3125 -7 L 2.3125 -5.9375 C 2.5625 -6.351562 2.867188 -6.660156 3.234375 -6.859375 C 3.597656 -7.066406 4.039062 -7.171875 4.5625 -7.171875 C 5.40625 -7.171875 6.09375 -6.832031 6.625 -6.15625 C 7.15625 -5.476562 7.421875 -4.59375 7.421875 -3.5 C 7.421875 -2.394531 7.15625 -1.503906 6.625 -0.828125 C 6.09375 -0.148438 5.40625 0.1875 4.5625 0.1875 C 4.039062 0.1875 3.597656 0.0859375 3.234375 -0.109375 C 2.867188 -0.316406 2.5625 -0.628906 2.3125 -1.046875 Z M 6.234375 -3.5 C 6.234375 -4.34375 6.054688 -5.003906 5.703125 -5.484375 C 5.359375 -5.960938 4.882812 -6.203125 4.28125 -6.203125 C 3.664062 -6.203125 3.179688 -5.960938 2.828125 -5.484375 C 2.484375 -5.003906 2.3125 -4.34375 2.3125 -3.5 C 2.3125 -2.644531 2.484375 -1.976562 2.828125 -1.5 C 3.179688 -1.019531 3.664062 -0.78125 4.28125 -0.78125 C 4.882812 -0.78125 5.359375 -1.019531 5.703125 -1.5 C 6.054688 -1.976562 6.234375 -2.644531 6.234375 -3.5 Z M 6.234375 -3.5 "/>
</symbol>
<symbol overflow="visible" id="glyph0-15">
<path style="stroke:none;" d="M 0.53125 -7 L 1.6875 -7 L 3.125 -1.53125 L 4.5625 -7 L 5.90625 -7 L 7.34375 -1.53125 L 8.78125 -7 L 9.921875 -7 L 8.09375 0 L 6.734375 0 L 5.234375 -5.734375 L 3.71875 0 L 2.375 0 Z M 0.53125 -7 "/>
</symbol>
<symbol overflow="visible" id="glyph0-16">
<path style="stroke:none;" d="M 6.65625 -5.65625 C 6.9375 -6.164062 7.273438 -6.546875 7.671875 -6.796875 C 8.078125 -7.046875 8.550781 -7.171875 9.09375 -7.171875 C 9.820312 -7.171875 10.382812 -6.914062 10.78125 -6.40625 C 11.175781 -5.894531 11.375 -5.164062 11.375 -4.21875 L 11.375 0 L 10.21875 0 L 10.21875 -4.1875 C 10.21875 -4.851562 10.097656 -5.347656 9.859375 -5.671875 C 9.628906 -6.003906 9.269531 -6.171875 8.78125 -6.171875 C 8.1875 -6.171875 7.710938 -5.972656 7.359375 -5.578125 C 7.015625 -5.179688 6.84375 -4.640625 6.84375 -3.953125 L 6.84375 0 L 5.6875 0 L 5.6875 -4.1875 C 5.6875 -4.863281 5.566406 -5.363281 5.328125 -5.6875 C 5.097656 -6.007812 4.734375 -6.171875 4.234375 -6.171875 C 3.648438 -6.171875 3.179688 -5.96875 2.828125 -5.5625 C 2.484375 -5.164062 2.3125 -4.628906 2.3125 -3.953125 L 2.3125 0 L 1.15625 0 L 1.15625 -7 L 2.3125 -7 L 2.3125 -5.90625 C 2.582031 -6.332031 2.898438 -6.648438 3.265625 -6.859375 C 3.628906 -7.066406 4.0625 -7.171875 4.5625 -7.171875 C 5.070312 -7.171875 5.503906 -7.039062 5.859375 -6.78125 C 6.222656 -6.519531 6.488281 -6.144531 6.65625 -5.65625 Z M 6.65625 -5.65625 "/>
</symbol>
<symbol overflow="visible" id="glyph0-17">
<path style="stroke:none;" d="M 7.1875 -3.78125 L 7.1875 -3.21875 L 1.90625 -3.21875 C 1.957031 -2.425781 2.195312 -1.820312 2.625 -1.40625 C 3.050781 -1 3.644531 -0.796875 4.40625 -0.796875 C 4.84375 -0.796875 5.269531 -0.847656 5.6875 -0.953125 C 6.101562 -1.066406 6.515625 -1.226562 6.921875 -1.4375 L 6.921875 -0.359375 C 6.515625 -0.179688 6.09375 -0.046875 5.65625 0.046875 C 5.21875 0.140625 4.78125 0.1875 4.34375 0.1875 C 3.21875 0.1875 2.328125 -0.132812 1.671875 -0.78125 C 1.023438 -1.4375 0.703125 -2.320312 0.703125 -3.4375 C 0.703125 -4.582031 1.007812 -5.488281 1.625 -6.15625 C 2.25 -6.832031 3.085938 -7.171875 4.140625 -7.171875 C 5.078125 -7.171875 5.816406 -6.863281 6.359375 -6.25 C 6.910156 -5.644531 7.1875 -4.820312 7.1875 -3.78125 Z M 6.046875 -4.125 C 6.035156 -4.75 5.859375 -5.25 5.515625 -5.625 C 5.171875 -6 4.71875 -6.1875 4.15625 -6.1875 C 3.507812 -6.1875 2.992188 -6.003906 2.609375 -5.640625 C 2.222656 -5.285156 2 -4.78125 1.9375 -4.125 Z M 3.171875 -10.234375 L 4.9375 -7.890625 L 3.96875 -7.890625 L 1.9375 -10.234375 Z M 3.171875 -10.234375 "/>
</symbol>
<symbol overflow="visible" id="glyph0-18">
<path style="stroke:none;" d="M 7.609375 -1.328125 L 7.609375 -3.84375 L 5.5625 -3.84375 L 5.5625 -4.875 L 8.859375 -4.875 L 8.859375 -0.875 C 8.378906 -0.519531 7.84375 -0.253906 7.25 -0.078125 C 6.664062 0.0976562 6.039062 0.1875 5.375 0.1875 C 3.914062 0.1875 2.773438 -0.238281 1.953125 -1.09375 C 1.128906 -1.945312 0.71875 -3.132812 0.71875 -4.65625 C 0.71875 -6.175781 1.128906 -7.363281 1.953125 -8.21875 C 2.773438 -9.070312 3.914062 -9.5 5.375 -9.5 C 5.976562 -9.5 6.550781 -9.421875 7.09375 -9.265625 C 7.644531 -9.117188 8.15625 -8.898438 8.625 -8.609375 L 8.625 -7.265625 C 8.15625 -7.660156 7.65625 -7.957031 7.125 -8.15625 C 6.601562 -8.351562 6.054688 -8.453125 5.484375 -8.453125 C 4.335938 -8.453125 3.476562 -8.132812 2.90625 -7.5 C 2.332031 -6.863281 2.046875 -5.914062 2.046875 -4.65625 C 2.046875 -3.394531 2.332031 -2.445312 2.90625 -1.8125 C 3.476562 -1.175781 4.335938 -0.859375 5.484375 -0.859375 C 5.929688 -0.859375 6.328125 -0.894531 6.671875 -0.96875 C 7.023438 -1.050781 7.335938 -1.171875 7.609375 -1.328125 Z M 7.609375 -1.328125 "/>
</symbol>
<symbol overflow="visible" id="glyph0-19">
<path style="stroke:none;" d="M 3.921875 -6.1875 C 3.304688 -6.1875 2.816406 -5.945312 2.453125 -5.46875 C 2.097656 -4.988281 1.921875 -4.332031 1.921875 -3.5 C 1.921875 -2.65625 2.097656 -1.992188 2.453125 -1.515625 C 2.804688 -1.035156 3.296875 -0.796875 3.921875 -0.796875 C 4.535156 -0.796875 5.019531 -1.035156 5.375 -1.515625 C 5.726562 -2.003906 5.90625 -2.664062 5.90625 -3.5 C 5.90625 -4.320312 5.726562 -4.972656 5.375 -5.453125 C 5.019531 -5.941406 4.535156 -6.1875 3.921875 -6.1875 Z M 3.921875 -7.171875 C 4.921875 -7.171875 5.703125 -6.84375 6.265625 -6.1875 C 6.835938 -5.539062 7.125 -4.644531 7.125 -3.5 C 7.125 -2.351562 6.835938 -1.453125 6.265625 -0.796875 C 5.703125 -0.140625 4.921875 0.1875 3.921875 0.1875 C 2.910156 0.1875 2.117188 -0.140625 1.546875 -0.796875 C 0.984375 -1.453125 0.703125 -2.351562 0.703125 -3.5 C 0.703125 -4.644531 0.984375 -5.539062 1.546875 -6.1875 C 2.117188 -6.84375 2.910156 -7.171875 3.921875 -7.171875 Z M 3.921875 -7.171875 "/>
</symbol>
<symbol overflow="visible" id="glyph0-20">
<path style="stroke:none;" d="M 7.015625 -4.21875 L 7.015625 0 L 5.875 0 L 5.875 -4.1875 C 5.875 -4.851562 5.742188 -5.347656 5.484375 -5.671875 C 5.222656 -6.003906 4.835938 -6.171875 4.328125 -6.171875 C 3.703125 -6.171875 3.207031 -5.972656 2.84375 -5.578125 C 2.488281 -5.179688 2.3125 -4.640625 2.3125 -3.953125 L 2.3125 0 L 1.15625 0 L 1.15625 -7 L 2.3125 -7 L 2.3125 -5.90625 C 2.59375 -6.332031 2.914062 -6.648438 3.28125 -6.859375 C 3.65625 -7.066406 4.085938 -7.171875 4.578125 -7.171875 C 5.378906 -7.171875 5.984375 -6.921875 6.390625 -6.421875 C 6.804688 -5.921875 7.015625 -5.1875 7.015625 -4.21875 Z M 7.015625 -4.21875 "/>
</symbol>
<symbol overflow="visible" id="glyph0-21">
<path style="stroke:none;" d="M 5.8125 -5.9375 L 5.8125 -9.71875 L 6.953125 -9.71875 L 6.953125 0 L 5.8125 0 L 5.8125 -1.046875 C 5.570312 -0.628906 5.265625 -0.316406 4.890625 -0.109375 C 4.523438 0.0859375 4.082031 0.1875 3.5625 0.1875 C 2.71875 0.1875 2.03125 -0.148438 1.5 -0.828125 C 0.96875 -1.503906 0.703125 -2.394531 0.703125 -3.5 C 0.703125 -4.59375 0.96875 -5.476562 1.5 -6.15625 C 2.03125 -6.832031 2.71875 -7.171875 3.5625 -7.171875 C 4.082031 -7.171875 4.523438 -7.066406 4.890625 -6.859375 C 5.265625 -6.660156 5.570312 -6.351562 5.8125 -5.9375 Z M 1.890625 -3.5 C 1.890625 -2.644531 2.0625 -1.976562 2.40625 -1.5 C 2.757812 -1.019531 3.238281 -0.78125 3.84375 -0.78125 C 4.457031 -0.78125 4.9375 -1.019531 5.28125 -1.5 C 5.632812 -1.976562 5.8125 -2.644531 5.8125 -3.5 C 5.8125 -4.34375 5.632812 -5.003906 5.28125 -5.484375 C 4.9375 -5.960938 4.457031 -6.203125 3.84375 -6.203125 C 3.238281 -6.203125 2.757812 -5.960938 2.40625 -5.484375 C 2.0625 -5.003906 1.890625 -4.34375 1.890625 -3.5 Z M 1.890625 -3.5 "/>
</symbol>
<symbol overflow="visible" id="glyph0-22">
<path style="stroke:none;" d="M 7.015625 -7 L 4.5 -3.59375 L 7.15625 0 L 5.796875 0 L 3.765625 -2.75 L 1.71875 0 L 0.375 0 L 3.09375 -3.65625 L 0.59375 -7 L 1.953125 -7 L 3.8125 -4.5 L 5.671875 -7 Z M 7.015625 -7 "/>
</symbol>
<symbol overflow="visible" id="glyph0-23">
<path style="stroke:none;" d="M 2.296875 -9.328125 L 2.296875 -5.859375 L 1.234375 -5.859375 L 1.234375 -9.328125 Z M 2.296875 -9.328125 "/>
</symbol>
<symbol overflow="visible" id="glyph0-24">
<path style="stroke:none;" d="M 4.390625 -3.515625 C 3.460938 -3.515625 2.816406 -3.40625 2.453125 -3.1875 C 2.097656 -2.976562 1.921875 -2.617188 1.921875 -2.109375 C 1.921875 -1.703125 2.050781 -1.378906 2.3125 -1.140625 C 2.582031 -0.898438 2.953125 -0.78125 3.421875 -0.78125 C 4.054688 -0.78125 4.566406 -1.003906 4.953125 -1.453125 C 5.335938 -1.910156 5.53125 -2.515625 5.53125 -3.265625 L 5.53125 -3.515625 Z M 6.671875 -4 L 6.671875 0 L 5.53125 0 L 5.53125 -1.0625 C 5.269531 -0.632812 4.941406 -0.316406 4.546875 -0.109375 C 4.160156 0.0859375 3.679688 0.1875 3.109375 0.1875 C 2.390625 0.1875 1.816406 -0.015625 1.390625 -0.421875 C 0.972656 -0.828125 0.765625 -1.363281 0.765625 -2.03125 C 0.765625 -2.820312 1.023438 -3.414062 1.546875 -3.8125 C 2.078125 -4.21875 2.867188 -4.421875 3.921875 -4.421875 L 5.53125 -4.421875 L 5.53125 -4.53125 C 5.53125 -5.0625 5.351562 -5.46875 5 -5.75 C 4.65625 -6.039062 4.171875 -6.1875 3.546875 -6.1875 C 3.140625 -6.1875 2.75 -6.140625 2.375 -6.046875 C 2 -5.953125 1.632812 -5.8125 1.28125 -5.625 L 1.28125 -6.671875 C 1.695312 -6.835938 2.101562 -6.960938 2.5 -7.046875 C 2.894531 -7.128906 3.28125 -7.171875 3.65625 -7.171875 C 4.675781 -7.171875 5.429688 -6.90625 5.921875 -6.375 C 6.421875 -5.851562 6.671875 -5.0625 6.671875 -4 Z M 2.8125 -10.234375 L 4.578125 -7.890625 L 3.609375 -7.890625 L 1.578125 -10.234375 Z M 2.8125 -10.234375 "/>
</symbol>
<symbol overflow="visible" id="glyph0-25">
<path style="stroke:none;" d="M 1.203125 -7 L 2.359375 -7 L 2.359375 0.125 C 2.359375 1.019531 2.1875 1.664062 1.84375 2.0625 C 1.507812 2.457031 0.960938 2.65625 0.203125 2.65625 L -0.234375 2.65625 L -0.234375 1.6875 L 0.078125 1.6875 C 0.515625 1.6875 0.8125 1.582031 0.96875 1.375 C 1.125 1.175781 1.203125 0.757812 1.203125 0.125 Z M 1.203125 -9.71875 L 2.359375 -9.71875 L 2.359375 -8.265625 L 1.203125 -8.265625 Z M 1.203125 -9.71875 "/>
</symbol>
<symbol overflow="visible" id="glyph0-26">
<path style="stroke:none;" d="M 7.015625 -4.21875 L 7.015625 0 L 5.875 0 L 5.875 -4.1875 C 5.875 -4.851562 5.742188 -5.347656 5.484375 -5.671875 C 5.222656 -6.003906 4.835938 -6.171875 4.328125 -6.171875 C 3.703125 -6.171875 3.207031 -5.972656 2.84375 -5.578125 C 2.488281 -5.179688 2.3125 -4.640625 2.3125 -3.953125 L 2.3125 0 L 1.15625 0 L 1.15625 -9.71875 L 2.3125 -9.71875 L 2.3125 -5.90625 C 2.59375 -6.332031 2.914062 -6.648438 3.28125 -6.859375 C 3.65625 -7.066406 4.085938 -7.171875 4.578125 -7.171875 C 5.378906 -7.171875 5.984375 -6.921875 6.390625 -6.421875 C 6.804688 -5.921875 7.015625 -5.1875 7.015625 -4.21875 Z M 7.015625 -4.21875 "/>
</symbol>
<symbol overflow="visible" id="glyph0-27">
<path style="stroke:none;" d="M 7.1875 -3.78125 L 7.1875 -3.21875 L 1.90625 -3.21875 C 1.957031 -2.425781 2.195312 -1.820312 2.625 -1.40625 C 3.050781 -1 3.644531 -0.796875 4.40625 -0.796875 C 4.84375 -0.796875 5.269531 -0.847656 5.6875 -0.953125 C 6.101562 -1.066406 6.515625 -1.226562 6.921875 -1.4375 L 6.921875 -0.359375 C 6.515625 -0.179688 6.09375 -0.046875 5.65625 0.046875 C 5.21875 0.140625 4.78125 0.1875 4.34375 0.1875 C 3.21875 0.1875 2.328125 -0.132812 1.671875 -0.78125 C 1.023438 -1.4375 0.703125 -2.320312 0.703125 -3.4375 C 0.703125 -4.582031 1.007812 -5.488281 1.625 -6.15625 C 2.25 -6.832031 3.085938 -7.171875 4.140625 -7.171875 C 5.078125 -7.171875 5.816406 -6.863281 6.359375 -6.25 C 6.910156 -5.644531 7.1875 -4.820312 7.1875 -3.78125 Z M 6.046875 -4.125 C 6.035156 -4.75 5.859375 -5.25 5.515625 -5.625 C 5.171875 -6 4.71875 -6.1875 4.15625 -6.1875 C 3.507812 -6.1875 2.992188 -6.003906 2.609375 -5.640625 C 2.222656 -5.285156 2 -4.78125 1.9375 -4.125 Z M 4.9375 -10.234375 L 6.1875 -10.234375 L 4.15625 -7.890625 L 3.1875 -7.890625 Z M 4.9375 -10.234375 "/>
</symbol>
<symbol overflow="visible" id="glyph0-28">
<path style="stroke:none;" d="M 1.25 -9.328125 L 7.15625 -9.328125 L 7.15625 -8.265625 L 2.515625 -8.265625 L 2.515625 -5.5 L 6.953125 -5.5 L 6.953125 -4.4375 L 2.515625 -4.4375 L 2.515625 -1.0625 L 7.265625 -1.0625 L 7.265625 0 L 1.25 0 Z M 1.25 -9.328125 "/>
</symbol>
<symbol overflow="visible" id="glyph0-29">
<path style="stroke:none;" d="M 5.8125 -3.578125 C 5.8125 -4.410156 5.640625 -5.054688 5.296875 -5.515625 C 4.953125 -5.972656 4.46875 -6.203125 3.84375 -6.203125 C 3.226562 -6.203125 2.75 -5.972656 2.40625 -5.515625 C 2.0625 -5.054688 1.890625 -4.410156 1.890625 -3.578125 C 1.890625 -2.753906 2.0625 -2.113281 2.40625 -1.65625 C 2.75 -1.195312 3.226562 -0.96875 3.84375 -0.96875 C 4.46875 -0.96875 4.953125 -1.195312 5.296875 -1.65625 C 5.640625 -2.113281 5.8125 -2.753906 5.8125 -3.578125 Z M 6.953125 -0.875 C 6.953125 0.320312 6.6875 1.207031 6.15625 1.78125 C 5.632812 2.363281 4.828125 2.65625 3.734375 2.65625 C 3.328125 2.65625 2.945312 2.625 2.59375 2.5625 C 2.238281 2.507812 1.890625 2.421875 1.546875 2.296875 L 1.546875 1.171875 C 1.890625 1.359375 2.222656 1.492188 2.546875 1.578125 C 2.878906 1.671875 3.21875 1.71875 3.5625 1.71875 C 4.3125 1.71875 4.875 1.519531 5.25 1.125 C 5.625 0.726562 5.8125 0.132812 5.8125 -0.65625 L 5.8125 -1.234375 C 5.570312 -0.816406 5.265625 -0.503906 4.890625 -0.296875 C 4.523438 -0.0976562 4.082031 0 3.5625 0 C 2.707031 0 2.015625 -0.328125 1.484375 -0.984375 C 0.960938 -1.640625 0.703125 -2.503906 0.703125 -3.578125 C 0.703125 -4.660156 0.960938 -5.53125 1.484375 -6.1875 C 2.015625 -6.84375 2.707031 -7.171875 3.5625 -7.171875 C 4.082031 -7.171875 4.523438 -7.066406 4.890625 -6.859375 C 5.265625 -6.648438 5.570312 -6.34375 5.8125 -5.9375 L 5.8125 -7 L 6.953125 -7 Z M 6.953125 -0.875 "/>
</symbol>
<symbol overflow="visible" id="glyph0-30">
<path style="stroke:none;" d="M 3.921875 -6.1875 C 3.304688 -6.1875 2.816406 -5.945312 2.453125 -5.46875 C 2.097656 -4.988281 1.921875 -4.332031 1.921875 -3.5 C 1.921875 -2.65625 2.097656 -1.992188 2.453125 -1.515625 C 2.804688 -1.035156 3.296875 -0.796875 3.921875 -0.796875 C 4.535156 -0.796875 5.019531 -1.035156 5.375 -1.515625 C 5.726562 -2.003906 5.90625 -2.664062 5.90625 -3.5 C 5.90625 -4.320312 5.726562 -4.972656 5.375 -5.453125 C 5.019531 -5.941406 4.535156 -6.1875 3.921875 -6.1875 Z M 3.921875 -7.171875 C 4.921875 -7.171875 5.703125 -6.84375 6.265625 -6.1875 C 6.835938 -5.539062 7.125 -4.644531 7.125 -3.5 C 7.125 -2.351562 6.835938 -1.453125 6.265625 -0.796875 C 5.703125 -0.140625 4.921875 0.1875 3.921875 0.1875 C 2.910156 0.1875 2.117188 -0.140625 1.546875 -0.796875 C 0.984375 -1.453125 0.703125 -2.351562 0.703125 -3.5 C 0.703125 -4.644531 0.984375 -5.539062 1.546875 -6.1875 C 2.117188 -6.84375 2.910156 -7.171875 3.921875 -7.171875 Z M 3.453125 -10.234375 L 4.375 -10.234375 L 5.90625 -7.890625 L 5.046875 -7.890625 L 3.921875 -9.421875 L 2.796875 -7.890625 L 1.921875 -7.890625 Z M 3.453125 -10.234375 "/>
</symbol>
<symbol overflow="visible" id="glyph1-0">
<path style="stroke:none;" d="M 0.65625 2.265625 L 0.65625 -9.015625 L 7.046875 -9.015625 L 7.046875 2.265625 Z M 1.375 1.546875 L 6.34375 1.546875 L 6.34375 -8.296875 L 1.375 -8.296875 Z M 1.375 1.546875 "/>
</symbol>
<symbol overflow="visible" id="glyph1-1">
<path style="stroke:none;" d="M 2.3125 -4.453125 L 2.3125 -1.03125 L 3.796875 -1.03125 C 4.535156 -1.03125 5.0625 -1.160156 5.375 -1.421875 C 5.6875 -1.679688 5.84375 -2.101562 5.84375 -2.6875 C 5.84375 -3.289062 5.675781 -3.734375 5.34375 -4.015625 C 5.007812 -4.304688 4.492188 -4.453125 3.796875 -4.453125 Z M 2.3125 -8.296875 L 2.3125 -5.484375 L 3.78125 -5.484375 C 4.382812 -5.484375 4.820312 -5.597656 5.09375 -5.828125 C 5.363281 -6.066406 5.5 -6.441406 5.5 -6.953125 C 5.5 -7.429688 5.363281 -7.773438 5.09375 -7.984375 C 4.832031 -8.191406 4.394531 -8.296875 3.78125 -8.296875 Z M 1.03125 -9.328125 L 3.796875 -9.328125 C 4.753906 -9.328125 5.488281 -9.117188 6 -8.703125 C 6.519531 -8.296875 6.78125 -7.710938 6.78125 -6.953125 C 6.78125 -6.390625 6.644531 -5.941406 6.375 -5.609375 C 6.101562 -5.285156 5.691406 -5.082031 5.140625 -5 C 5.753906 -4.90625 6.234375 -4.640625 6.578125 -4.203125 C 6.929688 -3.773438 7.109375 -3.226562 7.109375 -2.5625 C 7.109375 -1.71875 6.828125 -1.078125 6.265625 -0.640625 C 5.710938 -0.210938 4.890625 0 3.796875 0 L 1.03125 0 Z M 1.03125 -9.328125 "/>
</symbol>
<symbol overflow="visible" id="glyph1-2">
<path style="stroke:none;" d="M 3.84375 -6.1875 C 3.257812 -6.1875 2.816406 -5.957031 2.515625 -5.5 C 2.222656 -5.050781 2.078125 -4.382812 2.078125 -3.5 C 2.078125 -2.601562 2.222656 -1.925781 2.515625 -1.46875 C 2.816406 -1.019531 3.257812 -0.796875 3.84375 -0.796875 C 4.4375 -0.796875 4.878906 -1.019531 5.171875 -1.46875 C 5.472656 -1.925781 5.625 -2.601562 5.625 -3.5 C 5.625 -4.382812 5.472656 -5.050781 5.171875 -5.5 C 4.878906 -5.957031 4.4375 -6.1875 3.84375 -6.1875 Z M 3.84375 -7.171875 C 4.820312 -7.171875 5.566406 -6.851562 6.078125 -6.21875 C 6.585938 -5.59375 6.84375 -4.6875 6.84375 -3.5 C 6.84375 -2.300781 6.585938 -1.382812 6.078125 -0.75 C 5.566406 -0.125 4.820312 0.1875 3.84375 0.1875 C 2.875 0.1875 2.132812 -0.125 1.625 -0.75 C 1.113281 -1.382812 0.859375 -2.300781 0.859375 -3.5 C 0.859375 -4.6875 1.113281 -5.59375 1.625 -6.21875 C 2.132812 -6.851562 2.875 -7.171875 3.84375 -7.171875 Z M 3.84375 -7.171875 "/>
</symbol>
<symbol overflow="visible" id="glyph1-3">
<path style="stroke:none;" d="M 1.21875 -2.65625 L 1.21875 -6.984375 L 2.375 -6.984375 L 2.375 -2.65625 C 2.375 -2.019531 2.484375 -1.550781 2.703125 -1.25 C 2.921875 -0.957031 3.265625 -0.8125 3.734375 -0.8125 C 4.273438 -0.8125 4.6875 -1.003906 4.96875 -1.390625 C 5.257812 -1.773438 5.40625 -2.320312 5.40625 -3.03125 L 5.40625 -6.984375 L 6.5625 -6.984375 L 6.5625 0 L 5.40625 0 L 5.40625 -1.046875 C 5.207031 -0.640625 4.929688 -0.332031 4.578125 -0.125 C 4.222656 0.0820312 3.8125 0.1875 3.34375 0.1875 C 2.625 0.1875 2.085938 -0.046875 1.734375 -0.515625 C 1.390625 -0.984375 1.21875 -1.695312 1.21875 -2.65625 Z M 1.21875 -2.65625 "/>
</symbol>
<symbol overflow="visible" id="glyph1-4">
<path style="stroke:none;" d="M 6.625 -0.359375 C 6.320312 -0.179688 6.003906 -0.046875 5.671875 0.046875 C 5.347656 0.140625 5.015625 0.1875 4.671875 0.1875 C 3.585938 0.1875 2.738281 -0.132812 2.125 -0.78125 C 1.519531 -1.4375 1.21875 -2.34375 1.21875 -3.5 C 1.21875 -4.644531 1.519531 -5.539062 2.125 -6.1875 C 2.738281 -6.84375 3.585938 -7.171875 4.671875 -7.171875 C 5.015625 -7.171875 5.34375 -7.125 5.65625 -7.03125 C 5.976562 -6.945312 6.300781 -6.8125 6.625 -6.625 L 6.625 -5.421875 C 6.320312 -5.691406 6.015625 -5.882812 5.703125 -6 C 5.398438 -6.125 5.054688 -6.1875 4.671875 -6.1875 C 3.953125 -6.1875 3.398438 -5.953125 3.015625 -5.484375 C 2.628906 -5.023438 2.4375 -4.363281 2.4375 -3.5 C 2.4375 -2.632812 2.628906 -1.96875 3.015625 -1.5 C 3.398438 -1.03125 3.953125 -0.796875 4.671875 -0.796875 C 5.078125 -0.796875 5.4375 -0.851562 5.75 -0.96875 C 6.0625 -1.09375 6.351562 -1.285156 6.625 -1.546875 Z M 6.625 -0.359375 "/>
</symbol>
<symbol overflow="visible" id="glyph1-5">
<path style="stroke:none;" d="M 4 -2.53125 C 4 -2.019531 4.09375 -1.628906 4.28125 -1.359375 C 4.46875 -1.097656 4.75 -0.96875 5.125 -0.96875 L 6.453125 -0.96875 L 6.453125 0 L 5 0 C 4.3125 0 3.78125 -0.21875 3.40625 -0.65625 C 3.03125 -1.101562 2.84375 -1.726562 2.84375 -2.53125 L 2.84375 -8.890625 L 1 -8.890625 L 1 -9.796875 L 4 -9.796875 Z M 4 -2.53125 "/>
</symbol>
<symbol overflow="visible" id="glyph1-6">
<path style="stroke:none;" d="M 6.953125 -3.78125 L 6.953125 -3.21875 L 1.96875 -3.21875 L 1.96875 -3.1875 C 1.96875 -2.425781 2.164062 -1.835938 2.5625 -1.421875 C 2.957031 -1.003906 3.519531 -0.796875 4.25 -0.796875 C 4.613281 -0.796875 4.992188 -0.851562 5.390625 -0.96875 C 5.796875 -1.082031 6.222656 -1.257812 6.671875 -1.5 L 6.671875 -0.359375 C 6.242188 -0.179688 5.828125 -0.046875 5.421875 0.046875 C 5.015625 0.140625 4.617188 0.1875 4.234375 0.1875 C 3.148438 0.1875 2.300781 -0.140625 1.6875 -0.796875 C 1.070312 -1.453125 0.765625 -2.351562 0.765625 -3.5 C 0.765625 -4.613281 1.0625 -5.503906 1.65625 -6.171875 C 2.257812 -6.835938 3.0625 -7.171875 4.0625 -7.171875 C 4.957031 -7.171875 5.660156 -6.867188 6.171875 -6.265625 C 6.691406 -5.660156 6.953125 -4.832031 6.953125 -3.78125 Z M 5.796875 -4.125 C 5.785156 -4.800781 5.628906 -5.3125 5.328125 -5.65625 C 5.023438 -6.007812 4.585938 -6.1875 4.015625 -6.1875 C 3.460938 -6.1875 3.003906 -6.003906 2.640625 -5.640625 C 2.285156 -5.273438 2.078125 -4.769531 2.015625 -4.125 Z M 5.796875 -4.125 "/>
</symbol>
<symbol overflow="visible" id="glyph1-7">
<path style="stroke:none;" d=""/>
</symbol>
<symbol overflow="visible" id="glyph1-8">
<path style="stroke:none;" d="M 2.34375 -0.875 L 2.34375 2.65625 L 1.1875 2.65625 L 1.1875 -7 L 2.34375 -7 L 2.34375 -6.109375 C 2.53125 -6.453125 2.785156 -6.710938 3.109375 -6.890625 C 3.429688 -7.078125 3.800781 -7.171875 4.21875 -7.171875 C 5.0625 -7.171875 5.722656 -6.84375 6.203125 -6.1875 C 6.679688 -5.53125 6.921875 -4.625 6.921875 -3.46875 C 6.921875 -2.332031 6.675781 -1.4375 6.1875 -0.78125 C 5.707031 -0.132812 5.050781 0.1875 4.21875 0.1875 C 3.789062 0.1875 3.414062 0.0976562 3.09375 -0.078125 C 2.78125 -0.265625 2.53125 -0.53125 2.34375 -0.875 Z M 5.71875 -3.5 C 5.71875 -4.382812 5.578125 -5.050781 5.296875 -5.5 C 5.015625 -5.957031 4.597656 -6.1875 4.046875 -6.1875 C 3.484375 -6.1875 3.054688 -5.957031 2.765625 -5.5 C 2.484375 -5.050781 2.34375 -4.382812 2.34375 -3.5 C 2.34375 -2.613281 2.484375 -1.941406 2.765625 -1.484375 C 3.054688 -1.023438 3.484375 -0.796875 4.046875 -0.796875 C 4.597656 -0.796875 5.015625 -1.019531 5.296875 -1.46875 C 5.578125 -1.925781 5.71875 -2.601562 5.71875 -3.5 Z M 5.71875 -3.5 "/>
</symbol>
<symbol overflow="visible" id="glyph1-9">
<path style="stroke:none;" d="M 7.21875 -5.5625 C 6.96875 -5.75 6.71875 -5.882812 6.46875 -5.96875 C 6.21875 -6.0625 5.9375 -6.109375 5.625 -6.109375 C 4.914062 -6.109375 4.367188 -5.878906 3.984375 -5.421875 C 3.609375 -4.972656 3.421875 -4.328125 3.421875 -3.484375 L 3.421875 0 L 2.265625 0 L 2.265625 -7 L 3.421875 -7 L 3.421875 -5.625 C 3.609375 -6.125 3.898438 -6.503906 4.296875 -6.765625 C 4.703125 -7.035156 5.175781 -7.171875 5.71875 -7.171875 C 6 -7.171875 6.257812 -7.132812 6.5 -7.0625 C 6.75 -6.988281 6.988281 -6.878906 7.21875 -6.734375 Z M 7.21875 -5.5625 "/>
</symbol>
<symbol overflow="visible" id="glyph1-10">
<path style="stroke:none;" d="M 1.59375 -7 L 4.546875 -7 L 4.546875 -0.890625 L 6.828125 -0.890625 L 6.828125 0 L 1.109375 0 L 1.109375 -0.890625 L 3.390625 -0.890625 L 3.390625 -6.109375 L 1.59375 -6.109375 Z M 3.390625 -9.71875 L 4.546875 -9.71875 L 4.546875 -8.265625 L 3.390625 -8.265625 Z M 3.390625 -9.71875 "/>
</symbol>
<symbol overflow="visible" id="glyph1-11">
<path style="stroke:none;" d="M 6.5625 -4.34375 L 6.5625 0 L 5.40625 0 L 5.40625 -4.34375 C 5.40625 -4.96875 5.296875 -5.425781 5.078125 -5.71875 C 4.859375 -6.019531 4.515625 -6.171875 4.046875 -6.171875 C 3.503906 -6.171875 3.085938 -5.976562 2.796875 -5.59375 C 2.515625 -5.21875 2.375 -4.671875 2.375 -3.953125 L 2.375 0 L 1.21875 0 L 1.21875 -7 L 2.375 -7 L 2.375 -5.953125 C 2.570312 -6.347656 2.84375 -6.648438 3.1875 -6.859375 C 3.539062 -7.066406 3.957031 -7.171875 4.4375 -7.171875 C 5.15625 -7.171875 5.6875 -6.9375 6.03125 -6.46875 C 6.382812 -6 6.5625 -5.289062 6.5625 -4.34375 Z M 6.5625 -4.34375 "/>
</symbol>
<symbol overflow="visible" id="glyph1-12">
<path style="stroke:none;" d="M 4.390625 -3.515625 L 4 -3.515625 C 3.332031 -3.515625 2.828125 -3.394531 2.484375 -3.15625 C 2.148438 -2.925781 1.984375 -2.578125 1.984375 -2.109375 C 1.984375 -1.691406 2.109375 -1.363281 2.359375 -1.125 C 2.617188 -0.894531 2.972656 -0.78125 3.421875 -0.78125 C 4.054688 -0.78125 4.550781 -1 4.90625 -1.4375 C 5.269531 -1.875 5.457031 -2.484375 5.46875 -3.265625 L 5.46875 -3.515625 Z M 6.609375 -4 L 6.609375 0 L 5.46875 0 L 5.46875 -1.03125 C 5.21875 -0.613281 4.90625 -0.304688 4.53125 -0.109375 C 4.15625 0.0859375 3.703125 0.1875 3.171875 0.1875 C 2.460938 0.1875 1.894531 -0.015625 1.46875 -0.421875 C 1.039062 -0.828125 0.828125 -1.363281 0.828125 -2.03125 C 0.828125 -2.8125 1.085938 -3.40625 1.609375 -3.8125 C 2.140625 -4.21875 2.910156 -4.421875 3.921875 -4.421875 L 5.46875 -4.421875 L 5.46875 -4.59375 C 5.457031 -5.15625 5.3125 -5.5625 5.03125 -5.8125 C 4.757812 -6.0625 4.316406 -6.1875 3.703125 -6.1875 C 3.304688 -6.1875 2.90625 -6.128906 2.5 -6.015625 C 2.101562 -5.910156 1.71875 -5.75 1.34375 -5.53125 L 1.34375 -6.671875 C 1.769531 -6.835938 2.175781 -6.960938 2.5625 -7.046875 C 2.957031 -7.128906 3.335938 -7.171875 3.703125 -7.171875 C 4.273438 -7.171875 4.765625 -7.082031 5.171875 -6.90625 C 5.585938 -6.738281 5.925781 -6.484375 6.1875 -6.140625 C 6.34375 -5.929688 6.453125 -5.671875 6.515625 -5.359375 C 6.578125 -5.054688 6.609375 -4.601562 6.609375 -4 Z M 6.609375 -4 "/>
</symbol>
</g>
</defs>
<g id="surface616">
<rect x="0" y="0" width="587" height="375" style="fill:rgb(100%,100%,100%);fill-opacity:1;stroke:none;"/>
<path style="fill-rule:evenodd;fill:rgb(100%,100%,100%);fill-opacity:1;stroke-width:0.1;stroke-linecap:butt;stroke-linejoin:miter;stroke:rgb(0%,0%,0%);stroke-opacity:1;stroke-miterlimit:10;" d="M 13.800078 1.2 C 13.303008 1.2 12.900078 1.60293 12.900078 2.1 C 12.900078 2.59707 13.303008 3 13.800078 3 L 17.417461 3 C 17.914531 3 18.317461 2.59707 18.317461 2.1 C 18.317461 1.60293 17.914531 1.2 17.417461 1.2 Z M 13.800078 1.2 " transform="matrix(20,0,0,20,-108.4,66)"/>
<g style="fill:rgb(0%,0%,0%);fill-opacity:1;">
  <use xlink:href="#glyph0-1" x="159.75" y="111.88878"/>
  <use xlink:href="#glyph0-2" x="168.638889" y="111.88878"/>
  <use xlink:href="#glyph0-3" x="176.416667" y="111.88878"/>
  <use xlink:href="#glyph0-4" x="180.027778" y="111.88878"/>
  <use xlink:href="#glyph0-5" x="186.972222" y="111.88878"/>
  <use xlink:href="#glyph0-3" x="195.027778" y="111.88878"/>
  <use xlink:href="#glyph0-6" x="198.638889" y="111.88878"/>
  <use xlink:href="#glyph0-7" x="202.805556" y="111.88878"/>
  <use xlink:href="#glyph0-8" x="210.305556" y="111.88878"/>
  <use xlink:href="#glyph0-9" x="213.916667" y="111.88878"/>
  <use xlink:href="#glyph0-10" x="218.916667" y="111.88878"/>
  <use xlink:href="#glyph0-11" x="226.694444" y="111.88878"/>
  <use xlink:href="#glyph0-11" x="233.361111" y="111.88878"/>
  <use xlink:href="#glyph0-10" x="240.027778" y="111.88878"/>
</g>
<path style="fill-rule:evenodd;fill:rgb(100%,100%,100%);fill-opacity:1;stroke-width:0.1;stroke-linecap:butt;stroke-linejoin:miter;stroke:rgb(0%,0%,0%);stroke-opacity:1;stroke-miterlimit:10;" d="M 6.42 5.8 C 5.92293 5.8 5.52 6.20293 5.52 6.7 C 5.52 7.19707 5.92293 7.6 6.42 7.6 L 10.615703 7.6 C 11.112773 7.6 11.515703 7.19707 11.515703 6.7 C 11.515703 6.20293 11.112773 5.8 10.615703 5.8 Z M 6.42 5.8 " transform="matrix(20,0,0,20,-108.4,66)"/>
<g style="fill:rgb(0%,0%,0%);fill-opacity:1;">
  <use xlink:href="#glyph0-12" x="12.25" y="203.88878"/>
  <use xlink:href="#glyph0-10" x="23.361111" y="203.88878"/>
  <use xlink:href="#glyph0-11" x="31.138889" y="203.88878"/>
  <use xlink:href="#glyph0-5" x="37.805556" y="203.88878"/>
  <use xlink:href="#glyph0-13" x="45.861111" y="203.88878"/>
  <use xlink:href="#glyph0-10" x="50.583333" y="203.88878"/>
  <use xlink:href="#glyph0-6" x="58.638889" y="203.88878"/>
  <use xlink:href="#glyph0-4" x="62.805556" y="203.88878"/>
  <use xlink:href="#glyph0-2" x="69.75" y="203.88878"/>
  <use xlink:href="#glyph0-14" x="77.527778" y="203.88878"/>
  <use xlink:href="#glyph0-9" x="85.583333" y="203.88878"/>
  <use xlink:href="#glyph0-10" x="90.583333" y="203.88878"/>
  <use xlink:href="#glyph0-5" x="98.361111" y="203.88878"/>
  <use xlink:href="#glyph0-13" x="106.416667" y="203.88878"/>
</g>
<path style="fill-rule:evenodd;fill:rgb(100%,100%,100%);fill-opacity:1;stroke-width:0.1;stroke-linecap:butt;stroke-linejoin:miter;stroke:rgb(0%,0%,0%);stroke-opacity:1;stroke-miterlimit:10;" d="M 6.439922 9.85 C 5.942852 9.85 5.539922 10.25293 5.539922 10.75 C 5.539922 11.24707 5.942852 11.65 6.439922 11.65 L 11.12 11.65 C 11.61707 11.65 12.02 11.24707 12.02 10.75 C 12.02 10.25293 11.61707 9.85 11.12 9.85 Z M 6.439922 9.85 " transform="matrix(20,0,0,20,-108.4,66)"/>
<g style="fill:rgb(0%,0%,0%);fill-opacity:1;">
  <use xlink:href="#glyph0-1" x="12.492188" y="284.88878"/>
  <use xlink:href="#glyph0-2" x="21.381076" y="284.88878"/>
  <use xlink:href="#glyph0-3" x="29.158854" y="284.88878"/>
  <use xlink:href="#glyph0-4" x="32.769965" y="284.88878"/>
  <use xlink:href="#glyph0-5" x="39.71441" y="284.88878"/>
  <use xlink:href="#glyph0-3" x="47.769965" y="284.88878"/>
  <use xlink:href="#glyph0-6" x="51.381076" y="284.88878"/>
  <use xlink:href="#glyph0-15" x="55.547743" y="284.88878"/>
  <use xlink:href="#glyph0-2" x="66.103299" y="284.88878"/>
  <use xlink:href="#glyph0-9" x="73.881076" y="284.88878"/>
  <use xlink:href="#glyph0-9" x="78.881076" y="284.88878"/>
  <use xlink:href="#glyph0-16" x="83.881076" y="284.88878"/>
  <use xlink:href="#glyph0-17" x="96.381076" y="284.88878"/>
  <use xlink:href="#glyph0-9" x="104.158854" y="284.88878"/>
  <use xlink:href="#glyph0-13" x="109.158854" y="284.88878"/>
  <use xlink:href="#glyph0-10" x="113.881076" y="284.88878"/>
</g>
<path style="fill-rule:evenodd;fill:rgb(100%,100%,100%);fill-opacity:1;stroke-width:0.1;stroke-linecap:butt;stroke-linejoin:miter;stroke:rgb(0%,0%,0%);stroke-opacity:1;stroke-miterlimit:10;" d="M 15.110039 13.55 C 14.612969 13.55 14.210039 13.95293 14.210039 14.45 C 14.210039 14.94707 14.612969 15.35 15.110039 15.35 L 26.237578 15.35 C 26.734648 15.35 27.137578 14.94707 27.137578 14.45 C 27.137578 13.95293 26.734648 13.55 26.237578 13.55 Z M 15.110039 13.55 " transform="matrix(20,0,0,20,-108.4,66)"/>
<g style="fill:rgb(0%,0%,0%);fill-opacity:1;">
  <use xlink:href="#glyph0-18" x="186.050781" y="358.88878"/>
  <use xlink:href="#glyph0-10" x="196.050781" y="358.88878"/>
  <use xlink:href="#glyph0-11" x="203.828559" y="358.88878"/>
  <use xlink:href="#glyph0-9" x="210.495226" y="358.88878"/>
  <use xlink:href="#glyph0-8" x="215.495226" y="358.88878"/>
  <use xlink:href="#glyph0-19" x="219.106337" y="358.88878"/>
  <use xlink:href="#glyph0-20" x="226.884115" y="358.88878"/>
  <use xlink:href="#glyph0-6" x="234.93967" y="358.88878"/>
  <use xlink:href="#glyph0-21" x="239.106337" y="358.88878"/>
  <use xlink:href="#glyph0-10" x="247.161892" y="358.88878"/>
  <use xlink:href="#glyph0-11" x="254.93967" y="358.88878"/>
  <use xlink:href="#glyph0-6" x="261.606337" y="358.88878"/>
  <use xlink:href="#glyph0-21" x="265.773003" y="358.88878"/>
  <use xlink:href="#glyph0-13" x="273.828559" y="358.88878"/>
  <use xlink:href="#glyph0-2" x="279.106337" y="358.88878"/>
  <use xlink:href="#glyph0-14" x="286.884115" y="358.88878"/>
  <use xlink:href="#glyph0-10" x="294.93967" y="358.88878"/>
  <use xlink:href="#glyph0-2" x="302.717448" y="358.88878"/>
  <use xlink:href="#glyph0-5" x="310.495226" y="358.88878"/>
  <use xlink:href="#glyph0-22" x="318.550781" y="358.88878"/>
  <use xlink:href="#glyph0-6" x="326.050781" y="358.88878"/>
  <use xlink:href="#glyph0-21" x="330.217448" y="358.88878"/>
  <use xlink:href="#glyph0-23" x="338.273003" y="358.88878"/>
  <use xlink:href="#glyph0-8" x="341.884115" y="358.88878"/>
  <use xlink:href="#glyph0-20" x="345.495226" y="358.88878"/>
  <use xlink:href="#glyph0-9" x="353.550781" y="358.88878"/>
  <use xlink:href="#glyph0-10" x="358.550781" y="358.88878"/>
  <use xlink:href="#glyph0-13" x="366.328559" y="358.88878"/>
  <use xlink:href="#glyph0-13" x="371.606337" y="358.88878"/>
  <use xlink:href="#glyph0-5" x="376.884115" y="358.88878"/>
  <use xlink:href="#glyph0-14" x="384.93967" y="358.88878"/>
  <use xlink:href="#glyph0-9" x="392.995226" y="358.88878"/>
  <use xlink:href="#glyph0-8" x="397.995226" y="358.88878"/>
  <use xlink:href="#glyph0-19" x="401.606337" y="358.88878"/>
  <use xlink:href="#glyph0-20" x="409.384115" y="358.88878"/>
  <use xlink:href="#glyph0-11" x="417.43967" y="358.88878"/>
</g>
<path style="fill-rule:evenodd;fill:rgb(100%,100%,100%);fill-opacity:1;stroke-width:0.1;stroke-linecap:butt;stroke-linejoin:miter;stroke:rgb(0%,0%,0%);stroke-opacity:1;stroke-miterlimit:10;" d="M 26.079961 9.8 C 25.582891 9.8 25.179961 10.20293 25.179961 10.7 C 25.179961 11.19707 25.582891 11.6 26.079961 11.6 L 33.810039 11.6 C 34.307109 11.6 34.710039 11.19707 34.710039 10.7 C 34.710039 10.20293 34.307109 9.8 33.810039 9.8 Z M 26.079961 9.8 " transform="matrix(20,0,0,20,-108.4,66)"/>
<g style="fill:rgb(0%,0%,0%);fill-opacity:1;">
  <use xlink:href="#glyph0-12" x="405.226562" y="283.88878"/>
  <use xlink:href="#glyph0-8" x="416.337674" y="283.88878"/>
  <use xlink:href="#glyph0-11" x="419.948785" y="283.88878"/>
  <use xlink:href="#glyph0-10" x="426.615451" y="283.88878"/>
  <use xlink:href="#glyph0-6" x="434.393229" y="283.88878"/>
  <use xlink:href="#glyph0-24" x="438.559896" y="283.88878"/>
  <use xlink:href="#glyph0-6" x="446.337674" y="283.88878"/>
  <use xlink:href="#glyph0-25" x="450.50434" y="283.88878"/>
  <use xlink:href="#glyph0-19" x="454.115451" y="283.88878"/>
  <use xlink:href="#glyph0-5" x="461.893229" y="283.88878"/>
  <use xlink:href="#glyph0-13" x="469.948785" y="283.88878"/>
  <use xlink:href="#glyph0-6" x="475.226562" y="283.88878"/>
  <use xlink:href="#glyph0-16" x="479.393229" y="283.88878"/>
  <use xlink:href="#glyph0-2" x="491.893229" y="283.88878"/>
  <use xlink:href="#glyph0-4" x="499.671007" y="283.88878"/>
  <use xlink:href="#glyph0-26" x="506.615451" y="283.88878"/>
  <use xlink:href="#glyph0-8" x="514.671007" y="283.88878"/>
  <use xlink:href="#glyph0-20" x="518.282118" y="283.88878"/>
  <use xlink:href="#glyph0-10" x="526.337674" y="283.88878"/>
  <use xlink:href="#glyph0-6" x="534.115451" y="283.88878"/>
  <use xlink:href="#glyph0-24" x="538.282118" y="283.88878"/>
  <use xlink:href="#glyph0-6" x="546.059896" y="283.88878"/>
  <use xlink:href="#glyph0-27" x="550.226562" y="283.88878"/>
  <use xlink:href="#glyph0-9" x="558.00434" y="283.88878"/>
  <use xlink:href="#glyph0-2" x="563.00434" y="283.88878"/>
  <use xlink:href="#glyph0-9" x="570.782118" y="283.88878"/>
</g>
<path style="fill:none;stroke-width:0.1;stroke-linecap:butt;stroke-linejoin:miter;stroke:rgb(0%,0%,0%);stroke-opacity:1;stroke-miterlimit:10;" d="M 10.693828 5.288477 L 14.145977 3.049023 " transform="matrix(20,0,0,20,-108.4,66)"/>
<path style="fill-rule:evenodd;fill:rgb(0%,0%,0%);fill-opacity:1;stroke-width:0.1;stroke-linecap:butt;stroke-linejoin:miter;stroke:rgb(0%,0%,0%);stroke-opacity:1;stroke-miterlimit:10;" d="M 10.557695 5.078711 L 10.022539 5.723828 L 10.829766 5.498242 Z M 10.557695 5.078711 " transform="matrix(20,0,0,20,-108.4,66)"/>
<path style="fill:none;stroke-width:0.1;stroke-linecap:butt;stroke-linejoin:miter;stroke:rgb(0%,0%,0%);stroke-opacity:1;stroke-miterlimit:10;" d="M 8.663555 8.952148 L 8.579375 7.649805 " transform="matrix(20,0,0,20,-108.4,66)"/>
<path style="fill-rule:evenodd;fill:rgb(0%,0%,0%);fill-opacity:1;stroke-width:0.1;stroke-linecap:butt;stroke-linejoin:miter;stroke:rgb(0%,0%,0%);stroke-opacity:1;stroke-miterlimit:10;" d="M 8.414141 8.968164 L 8.715312 9.750391 L 8.913164 8.935938 Z M 8.414141 8.968164 " transform="matrix(20,0,0,20,-108.4,66)"/>
<path style="fill:none;stroke-width:0.1;stroke-linecap:butt;stroke-linejoin:miter;stroke:rgb(0%,0%,0%);stroke-opacity:1;stroke-miterlimit:10;" d="M 16.813164 13.249023 L 11.828984 11.698438 " transform="matrix(20,0,0,20,-108.4,66)"/>
<path style="fill-rule:evenodd;fill:rgb(0%,0%,0%);fill-opacity:1;stroke-width:0.1;stroke-linecap:butt;stroke-linejoin:miter;stroke:rgb(0%,0%,0%);stroke-opacity:1;stroke-miterlimit:10;" d="M 16.738945 13.487695 L 17.577031 13.486719 L 16.887383 13.010352 Z M 16.738945 13.487695 " transform="matrix(20,0,0,20,-108.4,66)"/>
<path style="fill:none;stroke-width:0.1;stroke-linecap:butt;stroke-linejoin:miter;stroke:rgb(0%,0%,0%);stroke-opacity:1;stroke-miterlimit:10;" d="M 26.038555 11.899219 L 20.661211 13.55 " transform="matrix(20,0,0,20,-108.4,66)"/>
<path style="fill-rule:evenodd;fill:rgb(0%,0%,0%);fill-opacity:1;stroke-width:0.1;stroke-linecap:butt;stroke-linejoin:miter;stroke:rgb(0%,0%,0%);stroke-opacity:1;stroke-miterlimit:10;" d="M 26.111992 12.138281 L 26.803398 11.664453 L 25.965313 11.660156 Z M 26.111992 12.138281 " transform="matrix(20,0,0,20,-108.4,66)"/>
<path style="fill:none;stroke-width:0.1;stroke-linecap:butt;stroke-linejoin:miter;stroke:rgb(0%,0%,0%);stroke-opacity:1;stroke-miterlimit:10;" d="M 28.049883 6.523047 L 29.514336 9.750977 " transform="matrix(20,0,0,20,-108.4,66)"/>
<path style="fill-rule:evenodd;fill:rgb(0%,0%,0%);fill-opacity:1;stroke-width:0.1;stroke-linecap:butt;stroke-linejoin:miter;stroke:rgb(0%,0%,0%);stroke-opacity:1;stroke-miterlimit:10;" d="M 28.277422 6.419727 L 27.719219 5.794531 L 27.822148 6.626172 Z M 28.277422 6.419727 " transform="matrix(20,0,0,20,-108.4,66)"/>
<path style="fill-rule:evenodd;fill:rgb(100%,100%,100%);fill-opacity:1;stroke-width:0.1;stroke-linecap:butt;stroke-linejoin:miter;stroke:rgb(0%,0%,0%);stroke-opacity:1;stroke-miterlimit:10;" d="M 15.250078 -3.2 L 22.095 -3.2 L 22.695 -2.6 L 22.695 -1.5 L 15.250078 -1.5 Z M 15.250078 -3.2 " transform="matrix(20,0,0,20,-108.4,66)"/>
<path style="fill:none;stroke-width:0.05;stroke-linecap:butt;stroke-linejoin:miter;stroke:rgb(0%,0%,0%);stroke-opacity:1;stroke-miterlimit:10;" d="M 22.095 -3.2 L 22.095 -2.6 L 22.695 -2.6 " transform="matrix(20,0,0,20,-108.4,66)"/>
<g style="fill:rgb(0%,0%,0%);fill-opacity:1;">
  <use xlink:href="#glyph1-1" x="203.601563" y="26.88878"/>
  <use xlink:href="#glyph1-2" x="211.37934" y="26.88878"/>
  <use xlink:href="#glyph1-3" x="219.157118" y="26.88878"/>
  <use xlink:href="#glyph1-4" x="226.934896" y="26.88878"/>
  <use xlink:href="#glyph1-5" x="234.712674" y="26.88878"/>
  <use xlink:href="#glyph1-6" x="242.490451" y="26.88878"/>
  <use xlink:href="#glyph1-7" x="250.268229" y="26.88878"/>
  <use xlink:href="#glyph1-8" x="258.046007" y="26.88878"/>
  <use xlink:href="#glyph1-9" x="265.823785" y="26.88878"/>
  <use xlink:href="#glyph1-10" x="273.601562" y="26.88878"/>
  <use xlink:href="#glyph1-11" x="281.37934" y="26.88878"/>
  <use xlink:href="#glyph1-4" x="289.157118" y="26.88878"/>
  <use xlink:href="#glyph1-10" x="296.934896" y="26.88878"/>
  <use xlink:href="#glyph1-8" x="304.712674" y="26.88878"/>
  <use xlink:href="#glyph1-12" x="312.490451" y="26.88878"/>
  <use xlink:href="#glyph1-5" x="320.268229" y="26.88878"/>
  <use xlink:href="#glyph1-6" x="328.046007" y="26.88878"/>
</g>
<path style="fill-rule:evenodd;fill:rgb(100%,100%,100%);fill-opacity:1;stroke-width:0.1;stroke-linecap:butt;stroke-linejoin:miter;stroke:rgb(0%,0%,0%);stroke-opacity:1;stroke-miterlimit:10;" d="M 23.550078 3.1 C 22.997734 3.1 22.550078 3.547656 22.550078 4.1 L 22.550078 4.7 C 22.550078 5.252344 22.997734 5.7 23.550078 5.7 L 30.623125 5.7 C 31.175469 5.7 31.623125 5.252344 31.623125 4.7 L 31.623125 4.1 C 31.623125 3.547656 31.175469 3.1 30.623125 3.1 Z M 23.550078 3.1 " transform="matrix(20,0,0,20,-108.4,66)"/>
<g style="fill:rgb(0%,0%,0%);fill-opacity:1;">
  <use xlink:href="#glyph0-28" x="363.488281" y="149.88878"/>
  <use xlink:href="#glyph0-20" x="371.543837" y="149.88878"/>
  <use xlink:href="#glyph0-7" x="379.599392" y="149.88878"/>
  <use xlink:href="#glyph0-19" x="387.099392" y="149.88878"/>
  <use xlink:href="#glyph0-8" x="394.87717" y="149.88878"/>
  <use xlink:href="#glyph0-6" x="398.488281" y="149.88878"/>
  <use xlink:href="#glyph0-21" x="402.654948" y="149.88878"/>
  <use xlink:href="#glyph0-10" x="410.710503" y="149.88878"/>
  <use xlink:href="#glyph0-11" x="418.488281" y="149.88878"/>
  <use xlink:href="#glyph0-6" x="425.154948" y="149.88878"/>
  <use xlink:href="#glyph0-11" x="429.321615" y="149.88878"/>
  <use xlink:href="#glyph0-8" x="435.988281" y="149.88878"/>
  <use xlink:href="#glyph0-29" x="439.599392" y="149.88878"/>
  <use xlink:href="#glyph0-20" x="447.654948" y="149.88878"/>
  <use xlink:href="#glyph0-2" x="455.710503" y="149.88878"/>
  <use xlink:href="#glyph0-5" x="463.488281" y="149.88878"/>
  <use xlink:href="#glyph0-22" x="471.543837" y="149.88878"/>
  <use xlink:href="#glyph0-6" x="479.043837" y="149.88878"/>
  <use xlink:href="#glyph0-21" x="483.210503" y="149.88878"/>
  <use xlink:href="#glyph0-10" x="491.266059" y="149.88878"/>
  <use xlink:href="#glyph0-6" x="499.043837" y="149.88878"/>
</g>
<g style="fill:rgb(0%,0%,0%);fill-opacity:1;">
  <use xlink:href="#glyph0-4" x="352.921875" y="165.88878"/>
  <use xlink:href="#glyph0-19" x="359.866319" y="165.88878"/>
  <use xlink:href="#glyph0-16" x="367.644097" y="165.88878"/>
  <use xlink:href="#glyph0-16" x="380.144097" y="165.88878"/>
  <use xlink:href="#glyph0-2" x="392.644097" y="165.88878"/>
  <use xlink:href="#glyph0-20" x="400.421875" y="165.88878"/>
  <use xlink:href="#glyph0-21" x="408.477431" y="165.88878"/>
  <use xlink:href="#glyph0-10" x="416.532986" y="165.88878"/>
  <use xlink:href="#glyph0-6" x="424.310764" y="165.88878"/>
  <use xlink:href="#glyph0-2" x="428.477431" y="165.88878"/>
  <use xlink:href="#glyph0-5" x="436.255208" y="165.88878"/>
  <use xlink:href="#glyph0-6" x="444.310764" y="165.88878"/>
  <use xlink:href="#glyph0-4" x="448.477431" y="165.88878"/>
  <use xlink:href="#glyph0-19" x="455.421875" y="165.88878"/>
  <use xlink:href="#glyph0-20" x="463.199653" y="165.88878"/>
  <use xlink:href="#glyph0-9" x="471.255208" y="165.88878"/>
  <use xlink:href="#glyph0-13" x="476.255208" y="165.88878"/>
  <use xlink:href="#glyph0-30" x="480.977431" y="165.88878"/>
  <use xlink:href="#glyph0-3" x="489.032986" y="165.88878"/>
  <use xlink:href="#glyph0-10" x="492.644097" y="165.88878"/>
  <use xlink:href="#glyph0-5" x="500.421875" y="165.88878"/>
  <use xlink:href="#glyph0-13" x="508.477431" y="165.88878"/>
</g>
<path style="fill:none;stroke-width:0.1;stroke-linecap:butt;stroke-linejoin:miter;stroke:rgb(0%,0%,0%);stroke-opacity:1;stroke-miterlimit:10;" d="M 22.500664 3.481055 L 18.844219 2.748242 " transform="matrix(20,0,0,20,-108.4,66)"/>
<path style="fill-rule:evenodd;fill:rgb(0%,0%,0%);fill-opacity:1;stroke-width:0.1;stroke-linecap:butt;stroke-linejoin:miter;stroke:rgb(0%,0%,0%);stroke-opacity:1;stroke-miterlimit:10;" d="M 18.476445 2.674609 L 19.015898 2.527734 L 18.844219 2.748242 L 18.917656 3.017969 Z M 18.476445 2.674609 " transform="matrix(20,0,0,20,-108.4,66)"/>
</g>
</svg>
