<?xml version="1.0" encoding="UTF-8"?>
<svg xmlns="http://www.w3.org/2000/svg" xmlns:xlink="http://www.w3.org/1999/xlink" width="886pt" height="688pt" viewBox="0 0 886 688" version="1.1">
<defs>
<g>
<symbol overflow="visible" id="glyph0-0">
<path style="stroke:none;" d="M 0.640625 2.265625 L 0.640625 -9.015625 L 7.03125 -9.015625 L 7.03125 2.265625 Z M 1.359375 1.546875 L 6.328125 1.546875 L 6.328125 -8.296875 L 1.359375 -8.296875 Z M 1.359375 1.546875 "/>
</symbol>
<symbol overflow="visible" id="glyph0-1">
<path style="stroke:none;" d="M 1.25 -9.328125 L 7.15625 -9.328125 L 7.15625 -8.265625 L 2.515625 -8.265625 L 2.515625 -5.5 L 6.953125 -5.5 L 6.953125 -4.4375 L 2.515625 -4.4375 L 2.515625 -1.0625 L 7.265625 -1.0625 L 7.265625 0 L 1.25 0 Z M 1.25 -9.328125 "/>
</symbol>
<symbol overflow="visible" id="glyph0-2">
<path style="stroke:none;" d="M 2.34375 -8.984375 L 2.34375 -7 L 4.71875 -7 L 4.71875 -6.109375 L 2.34375 -6.109375 L 2.34375 -2.3125 C 2.34375 -1.738281 2.421875 -1.367188 2.578125 -1.203125 C 2.734375 -1.046875 3.050781 -0.96875 3.53125 -0.96875 L 4.71875 -0.96875 L 4.71875 0 L 3.53125 0 C 2.644531 0 2.03125 -0.164062 1.6875 -0.5 C 1.351562 -0.832031 1.1875 -1.4375 1.1875 -2.3125 L 1.1875 -6.109375 L 0.34375 -6.109375 L 0.34375 -7 L 1.1875 -7 L 1.1875 -8.984375 Z M 2.34375 -8.984375 "/>
</symbol>
<symbol overflow="visible" id="glyph0-3">
<path style="stroke:none;" d="M 4.390625 -3.515625 C 3.460938 -3.515625 2.816406 -3.40625 2.453125 -3.1875 C 2.097656 -2.976562 1.921875 -2.617188 1.921875 -2.109375 C 1.921875 -1.703125 2.050781 -1.378906 2.3125 -1.140625 C 2.582031 -0.898438 2.953125 -0.78125 3.421875 -0.78125 C 4.054688 -0.78125 4.566406 -1.003906 4.953125 -1.453125 C 5.335938 -1.910156 5.53125 -2.515625 5.53125 -3.265625 L 5.53125 -3.515625 Z M 6.671875 -4 L 6.671875 0 L 5.53125 0 L 5.53125 -1.0625 C 5.269531 -0.632812 4.941406 -0.316406 4.546875 -0.109375 C 4.160156 0.0859375 3.679688 0.1875 3.109375 0.1875 C 2.390625 0.1875 1.816406 -0.015625 1.390625 -0.421875 C 0.972656 -0.828125 0.765625 -1.363281 0.765625 -2.03125 C 0.765625 -2.820312 1.023438 -3.414062 1.546875 -3.8125 C 2.078125 -4.21875 2.867188 -4.421875 3.921875 -4.421875 L 5.53125 -4.421875 L 5.53125 -4.53125 C 5.53125 -5.0625 5.351562 -5.46875 5 -5.75 C 4.65625 -6.039062 4.171875 -6.1875 3.546875 -6.1875 C 3.140625 -6.1875 2.75 -6.140625 2.375 -6.046875 C 2 -5.953125 1.632812 -5.8125 1.28125 -5.625 L 1.28125 -6.671875 C 1.695312 -6.835938 2.101562 -6.960938 2.5 -7.046875 C 2.894531 -7.128906 3.28125 -7.171875 3.65625 -7.171875 C 4.675781 -7.171875 5.429688 -6.90625 5.921875 -6.375 C 6.421875 -5.851562 6.671875 -5.0625 6.671875 -4 Z M 6.671875 -4 "/>
</symbol>
<symbol overflow="visible" id="glyph0-4">
<path style="stroke:none;" d=""/>
</symbol>
<symbol overflow="visible" id="glyph0-5">
<path style="stroke:none;" d="M 1.59375 -1.0625 L 3.65625 -1.0625 L 3.65625 -8.171875 L 1.40625 -7.734375 L 1.40625 -8.875 L 3.640625 -9.328125 L 4.90625 -9.328125 L 4.90625 -1.0625 L 6.953125 -1.0625 L 6.953125 0 L 1.59375 0 Z M 1.59375 -1.0625 "/>
</symbol>
<symbol overflow="visible" id="glyph0-6">
<path style="stroke:none;" d="M 1.5 -1.59375 L 2.8125 -1.59375 L 2.8125 0 L 1.5 0 Z M 1.5 -6.609375 L 2.8125 -6.609375 L 2.8125 -5.03125 L 1.5 -5.03125 Z M 1.5 -6.609375 "/>
</symbol>
<symbol overflow="visible" id="glyph0-7">
<path style="stroke:none;" d="M 4.375 -8.078125 L 2.65625 -3.4375 L 6.09375 -3.4375 Z M 3.65625 -9.328125 L 5.09375 -9.328125 L 8.640625 0 L 7.328125 0 L 6.484375 -2.390625 L 2.28125 -2.390625 L 1.4375 0 L 0.09375 0 Z M 3.65625 -9.328125 "/>
</symbol>
<symbol overflow="visible" id="glyph0-8">
<path style="stroke:none;" d="M 7.1875 -3.78125 L 7.1875 -3.21875 L 1.90625 -3.21875 C 1.957031 -2.425781 2.195312 -1.820312 2.625 -1.40625 C 3.050781 -1 3.644531 -0.796875 4.40625 -0.796875 C 4.84375 -0.796875 5.269531 -0.847656 5.6875 -0.953125 C 6.101562 -1.066406 6.515625 -1.226562 6.921875 -1.4375 L 6.921875 -0.359375 C 6.515625 -0.179688 6.09375 -0.046875 5.65625 0.046875 C 5.21875 0.140625 4.78125 0.1875 4.34375 0.1875 C 3.21875 0.1875 2.328125 -0.132812 1.671875 -0.78125 C 1.023438 -1.4375 0.703125 -2.320312 0.703125 -3.4375 C 0.703125 -4.582031 1.007812 -5.488281 1.625 -6.15625 C 2.25 -6.832031 3.085938 -7.171875 4.140625 -7.171875 C 5.078125 -7.171875 5.816406 -6.863281 6.359375 -6.25 C 6.910156 -5.644531 7.1875 -4.820312 7.1875 -3.78125 Z M 6.046875 -4.125 C 6.035156 -4.75 5.859375 -5.25 5.515625 -5.625 C 5.171875 -6 4.71875 -6.1875 4.15625 -6.1875 C 3.507812 -6.1875 2.992188 -6.003906 2.609375 -5.640625 C 2.222656 -5.285156 2 -4.78125 1.9375 -4.125 Z M 6.046875 -4.125 "/>
</symbol>
<symbol overflow="visible" id="glyph0-9">
<path style="stroke:none;" d="M 7.015625 -4.21875 L 7.015625 0 L 5.875 0 L 5.875 -4.1875 C 5.875 -4.851562 5.742188 -5.347656 5.484375 -5.671875 C 5.222656 -6.003906 4.835938 -6.171875 4.328125 -6.171875 C 3.703125 -6.171875 3.207031 -5.972656 2.84375 -5.578125 C 2.488281 -5.179688 2.3125 -4.640625 2.3125 -3.953125 L 2.3125 0 L 1.15625 0 L 1.15625 -7 L 2.3125 -7 L 2.3125 -5.90625 C 2.59375 -6.332031 2.914062 -6.648438 3.28125 -6.859375 C 3.65625 -7.066406 4.085938 -7.171875 4.578125 -7.171875 C 5.378906 -7.171875 5.984375 -6.921875 6.390625 -6.421875 C 6.804688 -5.921875 7.015625 -5.1875 7.015625 -4.21875 Z M 7.015625 -4.21875 "/>
</symbol>
<symbol overflow="visible" id="glyph0-10">
<path style="stroke:none;" d="M 4.0625 -8.5 C 3.414062 -8.5 2.925781 -8.175781 2.59375 -7.53125 C 2.269531 -6.894531 2.109375 -5.9375 2.109375 -4.65625 C 2.109375 -3.375 2.269531 -2.410156 2.59375 -1.765625 C 2.925781 -1.128906 3.414062 -0.8125 4.0625 -0.8125 C 4.71875 -0.8125 5.207031 -1.128906 5.53125 -1.765625 C 5.863281 -2.410156 6.03125 -3.375 6.03125 -4.65625 C 6.03125 -5.9375 5.863281 -6.894531 5.53125 -7.53125 C 5.207031 -8.175781 4.71875 -8.5 4.0625 -8.5 Z M 4.0625 -9.5 C 5.113281 -9.5 5.914062 -9.082031 6.46875 -8.25 C 7.019531 -7.425781 7.296875 -6.226562 7.296875 -4.65625 C 7.296875 -3.082031 7.019531 -1.878906 6.46875 -1.046875 C 5.914062 -0.222656 5.113281 0.1875 4.0625 0.1875 C 3.019531 0.1875 2.222656 -0.222656 1.671875 -1.046875 C 1.117188 -1.878906 0.84375 -3.082031 0.84375 -4.65625 C 0.84375 -6.226562 1.117188 -7.425781 1.671875 -8.25 C 2.222656 -9.082031 3.019531 -9.5 4.0625 -9.5 Z M 4.0625 -9.5 "/>
</symbol>
<symbol overflow="visible" id="glyph0-11">
<path style="stroke:none;" d="M 1.25 -9.328125 L 2.515625 -9.328125 L 2.515625 0 L 1.25 0 Z M 1.25 -9.328125 "/>
</symbol>
<symbol overflow="visible" id="glyph0-12">
<path style="stroke:none;" d="M 1.203125 -7 L 2.359375 -7 L 2.359375 0 L 1.203125 0 Z M 1.203125 -9.71875 L 2.359375 -9.71875 L 2.359375 -8.265625 L 1.203125 -8.265625 Z M 1.203125 -9.71875 "/>
</symbol>
<symbol overflow="visible" id="glyph0-13">
<path style="stroke:none;" d="M 1.203125 -9.71875 L 2.359375 -9.71875 L 2.359375 0 L 1.203125 0 Z M 1.203125 -9.71875 "/>
</symbol>
<symbol overflow="visible" id="glyph0-14">
<path style="stroke:none;" d="M 5.671875 -6.796875 L 5.671875 -5.703125 C 5.347656 -5.867188 5.007812 -5.992188 4.65625 -6.078125 C 4.300781 -6.160156 3.9375 -6.203125 3.5625 -6.203125 C 3 -6.203125 2.570312 -6.113281 2.28125 -5.9375 C 2 -5.769531 1.859375 -5.507812 1.859375 -5.15625 C 1.859375 -4.882812 1.957031 -4.671875 2.15625 -4.515625 C 2.363281 -4.367188 2.773438 -4.226562 3.390625 -4.09375 L 3.78125 -4 C 4.601562 -3.832031 5.1875 -3.585938 5.53125 -3.265625 C 5.875 -2.941406 6.046875 -2.5 6.046875 -1.9375 C 6.046875 -1.28125 5.785156 -0.757812 5.265625 -0.375 C 4.753906 0 4.050781 0.1875 3.15625 0.1875 C 2.78125 0.1875 2.390625 0.148438 1.984375 0.078125 C 1.578125 0.00390625 1.144531 -0.101562 0.6875 -0.25 L 0.6875 -1.4375 C 1.113281 -1.21875 1.53125 -1.050781 1.9375 -0.9375 C 2.351562 -0.832031 2.765625 -0.78125 3.171875 -0.78125 C 3.710938 -0.78125 4.128906 -0.875 4.421875 -1.0625 C 4.710938 -1.25 4.859375 -1.507812 4.859375 -1.84375 C 4.859375 -2.15625 4.753906 -2.394531 4.546875 -2.5625 C 4.335938 -2.726562 3.875 -2.890625 3.15625 -3.046875 L 2.765625 -3.140625 C 2.046875 -3.285156 1.53125 -3.515625 1.21875 -3.828125 C 0.90625 -4.140625 0.75 -4.566406 0.75 -5.109375 C 0.75 -5.765625 0.976562 -6.269531 1.4375 -6.625 C 1.90625 -6.988281 2.570312 -7.171875 3.4375 -7.171875 C 3.851562 -7.171875 4.25 -7.140625 4.625 -7.078125 C 5 -7.015625 5.347656 -6.921875 5.671875 -6.796875 Z M 5.671875 -6.796875 "/>
</symbol>
<symbol overflow="visible" id="glyph0-15">
<path style="stroke:none;" d="M 3.921875 -6.1875 C 3.304688 -6.1875 2.816406 -5.945312 2.453125 -5.46875 C 2.097656 -4.988281 1.921875 -4.332031 1.921875 -3.5 C 1.921875 -2.65625 2.097656 -1.992188 2.453125 -1.515625 C 2.804688 -1.035156 3.296875 -0.796875 3.921875 -0.796875 C 4.535156 -0.796875 5.019531 -1.035156 5.375 -1.515625 C 5.726562 -2.003906 5.90625 -2.664062 5.90625 -3.5 C 5.90625 -4.320312 5.726562 -4.972656 5.375 -5.453125 C 5.019531 -5.941406 4.535156 -6.1875 3.921875 -6.1875 Z M 3.921875 -7.171875 C 4.921875 -7.171875 5.703125 -6.84375 6.265625 -6.1875 C 6.835938 -5.539062 7.125 -4.644531 7.125 -3.5 C 7.125 -2.351562 6.835938 -1.453125 6.265625 -0.796875 C 5.703125 -0.140625 4.921875 0.1875 3.921875 0.1875 C 2.910156 0.1875 2.117188 -0.140625 1.546875 -0.796875 C 0.984375 -1.453125 0.703125 -2.351562 0.703125 -3.5 C 0.703125 -4.644531 0.984375 -5.539062 1.546875 -6.1875 C 2.117188 -6.84375 2.910156 -7.171875 3.921875 -7.171875 Z M 3.921875 -7.171875 "/>
</symbol>
<symbol overflow="visible" id="glyph0-16">
<path style="stroke:none;" d="M 5.1875 -5.03125 C 5.789062 -4.90625 6.257812 -4.632812 6.59375 -4.21875 C 6.9375 -3.8125 7.109375 -3.3125 7.109375 -2.71875 C 7.109375 -1.789062 6.789062 -1.070312 6.15625 -0.5625 C 5.53125 -0.0625 4.632812 0.1875 3.46875 0.1875 C 3.070312 0.1875 2.664062 0.144531 2.25 0.0625 C 1.84375 -0.0078125 1.414062 -0.125 0.96875 -0.28125 L 0.96875 -1.5 C 1.320312 -1.289062 1.707031 -1.132812 2.125 -1.03125 C 2.539062 -0.925781 2.976562 -0.875 3.4375 -0.875 C 4.226562 -0.875 4.828125 -1.03125 5.234375 -1.34375 C 5.648438 -1.65625 5.859375 -2.113281 5.859375 -2.71875 C 5.859375 -3.257812 5.664062 -3.6875 5.28125 -4 C 4.894531 -4.3125 4.359375 -4.46875 3.671875 -4.46875 L 2.59375 -4.46875 L 2.59375 -5.5 L 3.71875 -5.5 C 4.34375 -5.5 4.816406 -5.625 5.140625 -5.875 C 5.472656 -6.125 5.640625 -6.484375 5.640625 -6.953125 C 5.640625 -7.429688 5.46875 -7.796875 5.125 -8.046875 C 4.789062 -8.304688 4.304688 -8.4375 3.671875 -8.4375 C 3.328125 -8.4375 2.957031 -8.394531 2.5625 -8.3125 C 2.164062 -8.238281 1.726562 -8.125 1.25 -7.96875 L 1.25 -9.09375 C 1.726562 -9.226562 2.175781 -9.328125 2.59375 -9.390625 C 3.019531 -9.460938 3.414062 -9.5 3.78125 -9.5 C 4.738281 -9.5 5.492188 -9.28125 6.046875 -8.84375 C 6.609375 -8.40625 6.890625 -7.816406 6.890625 -7.078125 C 6.890625 -6.566406 6.742188 -6.128906 6.453125 -5.765625 C 6.160156 -5.410156 5.738281 -5.164062 5.1875 -5.03125 Z M 5.1875 -5.03125 "/>
</symbol>
<symbol overflow="visible" id="glyph0-17">
<path style="stroke:none;" d="M 6.84375 -9.015625 L 6.84375 -7.796875 C 6.363281 -8.023438 5.910156 -8.191406 5.484375 -8.296875 C 5.066406 -8.410156 4.660156 -8.46875 4.265625 -8.46875 C 3.578125 -8.46875 3.046875 -8.332031 2.671875 -8.0625 C 2.296875 -7.800781 2.109375 -7.425781 2.109375 -6.9375 C 2.109375 -6.519531 2.234375 -6.207031 2.484375 -6 C 2.734375 -5.789062 3.203125 -5.625 3.890625 -5.5 L 4.65625 -5.34375 C 5.59375 -5.15625 6.285156 -4.835938 6.734375 -4.390625 C 7.179688 -3.941406 7.40625 -3.335938 7.40625 -2.578125 C 7.40625 -1.671875 7.101562 -0.984375 6.5 -0.515625 C 5.894531 -0.046875 5.007812 0.1875 3.84375 0.1875 C 3.394531 0.1875 2.921875 0.132812 2.421875 0.03125 C 1.929688 -0.0703125 1.414062 -0.21875 0.875 -0.40625 L 0.875 -1.71875 C 1.394531 -1.425781 1.898438 -1.207031 2.390625 -1.0625 C 2.878906 -0.914062 3.363281 -0.84375 3.84375 -0.84375 C 4.5625 -0.84375 5.113281 -0.984375 5.5 -1.265625 C 5.894531 -1.546875 6.09375 -1.953125 6.09375 -2.484375 C 6.09375 -2.941406 5.953125 -3.296875 5.671875 -3.546875 C 5.390625 -3.804688 4.925781 -4.003906 4.28125 -4.140625 L 3.515625 -4.28125 C 2.578125 -4.46875 1.894531 -4.757812 1.46875 -5.15625 C 1.050781 -5.5625 0.84375 -6.117188 0.84375 -6.828125 C 0.84375 -7.660156 1.132812 -8.3125 1.71875 -8.78125 C 2.300781 -9.257812 3.101562 -9.5 4.125 -9.5 C 4.5625 -9.5 5.003906 -9.457031 5.453125 -9.375 C 5.910156 -9.300781 6.375 -9.179688 6.84375 -9.015625 Z M 6.84375 -9.015625 "/>
</symbol>
<symbol overflow="visible" id="glyph0-18">
<path style="stroke:none;" d="M 1.09375 -2.765625 L 1.09375 -7 L 2.234375 -7 L 2.234375 -2.8125 C 2.234375 -2.144531 2.363281 -1.644531 2.625 -1.3125 C 2.882812 -0.976562 3.269531 -0.8125 3.78125 -0.8125 C 4.40625 -0.8125 4.894531 -1.007812 5.25 -1.40625 C 5.613281 -1.800781 5.796875 -2.34375 5.796875 -3.03125 L 5.796875 -7 L 6.953125 -7 L 6.953125 0 L 5.796875 0 L 5.796875 -1.078125 C 5.515625 -0.648438 5.191406 -0.332031 4.828125 -0.125 C 4.460938 0.0820312 4.035156 0.1875 3.546875 0.1875 C 2.742188 0.1875 2.132812 -0.0625 1.71875 -0.5625 C 1.300781 -1.0625 1.09375 -1.796875 1.09375 -2.765625 Z M 1.09375 -2.765625 "/>
</symbol>
<symbol overflow="visible" id="glyph0-19">
<path style="stroke:none;" d="M 0.625 -4.015625 L 4 -4.015625 L 4 -3 L 0.625 -3 Z M 0.625 -4.015625 "/>
</symbol>
<symbol overflow="visible" id="glyph0-20">
<path style="stroke:none;" d="M 1.890625 -3.5 C 1.890625 -2.644531 2.0625 -1.976562 2.40625 -1.5 C 2.757812 -1.019531 3.238281 -0.78125 3.84375 -0.78125 C 4.457031 -0.78125 4.9375 -1.019531 5.28125 -1.5 C 5.632812 -1.976562 5.8125 -2.644531 5.8125 -3.5 C 5.8125 -4.34375 5.632812 -5.003906 5.28125 -5.484375 C 4.9375 -5.960938 4.457031 -6.203125 3.84375 -6.203125 C 3.238281 -6.203125 2.757812 -5.960938 2.40625 -5.484375 C 2.0625 -5.003906 1.890625 -4.34375 1.890625 -3.5 Z M 5.8125 -1.046875 C 5.570312 -0.628906 5.265625 -0.316406 4.890625 -0.109375 C 4.523438 0.0859375 4.082031 0.1875 3.5625 0.1875 C 2.71875 0.1875 2.03125 -0.148438 1.5 -0.828125 C 0.96875 -1.503906 0.703125 -2.394531 0.703125 -3.5 C 0.703125 -4.59375 0.96875 -5.476562 1.5 -6.15625 C 2.03125 -6.832031 2.71875 -7.171875 3.5625 -7.171875 C 4.082031 -7.171875 4.523438 -7.066406 4.890625 -6.859375 C 5.265625 -6.660156 5.570312 -6.351562 5.8125 -5.9375 L 5.8125 -7 L 6.953125 -7 L 6.953125 2.65625 L 5.8125 2.65625 Z M 5.8125 -1.046875 "/>
</symbol>
<symbol overflow="visible" id="glyph0-21">
<path style="stroke:none;" d="M 1.375 -9.328125 L 6.34375 -9.328125 L 6.34375 -8.265625 L 2.53125 -8.265625 L 2.53125 -5.984375 C 2.71875 -6.046875 2.898438 -6.09375 3.078125 -6.125 C 3.265625 -6.15625 3.453125 -6.171875 3.640625 -6.171875 C 4.679688 -6.171875 5.503906 -5.882812 6.109375 -5.3125 C 6.710938 -4.738281 7.015625 -3.96875 7.015625 -3 C 7.015625 -1.988281 6.703125 -1.203125 6.078125 -0.640625 C 5.460938 -0.0859375 4.582031 0.1875 3.4375 0.1875 C 3.050781 0.1875 2.65625 0.148438 2.25 0.078125 C 1.84375 0.015625 1.421875 -0.0820312 0.984375 -0.21875 L 0.984375 -1.484375 C 1.359375 -1.285156 1.742188 -1.132812 2.140625 -1.03125 C 2.546875 -0.925781 2.972656 -0.875 3.421875 -0.875 C 4.140625 -0.875 4.707031 -1.0625 5.125 -1.4375 C 5.550781 -1.820312 5.765625 -2.34375 5.765625 -3 C 5.765625 -3.644531 5.550781 -4.15625 5.125 -4.53125 C 4.707031 -4.914062 4.140625 -5.109375 3.421875 -5.109375 C 3.078125 -5.109375 2.738281 -5.066406 2.40625 -4.984375 C 2.070312 -4.910156 1.726562 -4.796875 1.375 -4.640625 Z M 1.375 -9.328125 "/>
</symbol>
<symbol overflow="visible" id="glyph0-22">
<path style="stroke:none;" d="M 1.25 -9.328125 L 6.609375 -9.328125 L 6.609375 -8.265625 L 2.515625 -8.265625 L 2.515625 -5.515625 L 6.21875 -5.515625 L 6.21875 -4.453125 L 2.515625 -4.453125 L 2.515625 0 L 1.25 0 Z M 1.25 -9.328125 "/>
</symbol>
<symbol overflow="visible" id="glyph0-23">
<path style="stroke:none;" d="M 5.265625 -5.921875 C 5.128906 -5.992188 4.984375 -6.046875 4.828125 -6.078125 C 4.679688 -6.117188 4.519531 -6.140625 4.34375 -6.140625 C 3.6875 -6.140625 3.179688 -5.925781 2.828125 -5.5 C 2.484375 -5.082031 2.3125 -4.476562 2.3125 -3.6875 L 2.3125 0 L 1.15625 0 L 1.15625 -7 L 2.3125 -7 L 2.3125 -5.90625 C 2.5625 -6.332031 2.878906 -6.648438 3.265625 -6.859375 C 3.648438 -7.066406 4.117188 -7.171875 4.671875 -7.171875 C 4.753906 -7.171875 4.84375 -7.164062 4.9375 -7.15625 C 5.03125 -7.144531 5.132812 -7.128906 5.25 -7.109375 Z M 5.265625 -5.921875 "/>
</symbol>
<symbol overflow="visible" id="glyph0-24">
<path style="stroke:none;" d="M 5.8125 -3.578125 C 5.8125 -4.410156 5.640625 -5.054688 5.296875 -5.515625 C 4.953125 -5.972656 4.46875 -6.203125 3.84375 -6.203125 C 3.226562 -6.203125 2.75 -5.972656 2.40625 -5.515625 C 2.0625 -5.054688 1.890625 -4.410156 1.890625 -3.578125 C 1.890625 -2.753906 2.0625 -2.113281 2.40625 -1.65625 C 2.75 -1.195312 3.226562 -0.96875 3.84375 -0.96875 C 4.46875 -0.96875 4.953125 -1.195312 5.296875 -1.65625 C 5.640625 -2.113281 5.8125 -2.753906 5.8125 -3.578125 Z M 6.953125 -0.875 C 6.953125 0.320312 6.6875 1.207031 6.15625 1.78125 C 5.632812 2.363281 4.828125 2.65625 3.734375 2.65625 C 3.328125 2.65625 2.945312 2.625 2.59375 2.5625 C 2.238281 2.507812 1.890625 2.421875 1.546875 2.296875 L 1.546875 1.171875 C 1.890625 1.359375 2.222656 1.492188 2.546875 1.578125 C 2.878906 1.671875 3.21875 1.71875 3.5625 1.71875 C 4.3125 1.71875 4.875 1.519531 5.25 1.125 C 5.625 0.726562 5.8125 0.132812 5.8125 -0.65625 L 5.8125 -1.234375 C 5.570312 -0.816406 5.265625 -0.503906 4.890625 -0.296875 C 4.523438 -0.0976562 4.082031 0 3.5625 0 C 2.707031 0 2.015625 -0.328125 1.484375 -0.984375 C 0.960938 -1.640625 0.703125 -2.503906 0.703125 -3.578125 C 0.703125 -4.660156 0.960938 -5.53125 1.484375 -6.1875 C 2.015625 -6.84375 2.707031 -7.171875 3.5625 -7.171875 C 4.082031 -7.171875 4.523438 -7.066406 4.890625 -6.859375 C 5.265625 -6.648438 5.570312 -6.34375 5.8125 -5.9375 L 5.8125 -7 L 6.953125 -7 Z M 6.953125 -0.875 "/>
</symbol>
<symbol overflow="visible" id="glyph0-25">
<path style="stroke:none;" d="M 2.453125 -1.0625 L 6.859375 -1.0625 L 6.859375 0 L 0.9375 0 L 0.9375 -1.0625 C 1.414062 -1.5625 2.066406 -2.226562 2.890625 -3.0625 C 3.722656 -3.894531 4.242188 -4.429688 4.453125 -4.671875 C 4.859375 -5.128906 5.140625 -5.515625 5.296875 -5.828125 C 5.460938 -6.140625 5.546875 -6.445312 5.546875 -6.75 C 5.546875 -7.25 5.367188 -7.65625 5.015625 -7.96875 C 4.671875 -8.28125 4.21875 -8.4375 3.65625 -8.4375 C 3.257812 -8.4375 2.84375 -8.363281 2.40625 -8.21875 C 1.96875 -8.082031 1.5 -7.878906 1 -7.609375 L 1 -8.875 C 1.507812 -9.082031 1.984375 -9.238281 2.421875 -9.34375 C 2.867188 -9.445312 3.273438 -9.5 3.640625 -9.5 C 4.609375 -9.5 5.378906 -9.253906 5.953125 -8.765625 C 6.523438 -8.285156 6.8125 -7.640625 6.8125 -6.828125 C 6.8125 -6.453125 6.738281 -6.09375 6.59375 -5.75 C 6.445312 -5.40625 6.1875 -5 5.8125 -4.53125 C 5.707031 -4.40625 5.375 -4.054688 4.8125 -3.484375 C 4.257812 -2.910156 3.472656 -2.101562 2.453125 -1.0625 Z M 2.453125 -1.0625 "/>
</symbol>
<symbol overflow="visible" id="glyph0-26">
<path style="stroke:none;" d="M 5.6875 -4.375 C 5.957031 -4.28125 6.21875 -4.082031 6.46875 -3.78125 C 6.726562 -3.488281 6.984375 -3.078125 7.234375 -2.546875 L 8.515625 0 L 7.171875 0 L 5.96875 -2.390625 C 5.664062 -3.015625 5.367188 -3.425781 5.078125 -3.625 C 4.785156 -3.832031 4.390625 -3.9375 3.890625 -3.9375 L 2.515625 -3.9375 L 2.515625 0 L 1.25 0 L 1.25 -9.328125 L 4.109375 -9.328125 C 5.171875 -9.328125 5.960938 -9.101562 6.484375 -8.65625 C 7.015625 -8.207031 7.28125 -7.535156 7.28125 -6.640625 C 7.28125 -6.054688 7.140625 -5.566406 6.859375 -5.171875 C 6.585938 -4.785156 6.195312 -4.519531 5.6875 -4.375 Z M 2.515625 -8.296875 L 2.515625 -4.984375 L 4.109375 -4.984375 C 4.710938 -4.984375 5.171875 -5.125 5.484375 -5.40625 C 5.796875 -5.6875 5.953125 -6.097656 5.953125 -6.640625 C 5.953125 -7.179688 5.796875 -7.59375 5.484375 -7.875 C 5.171875 -8.15625 4.710938 -8.296875 4.109375 -8.296875 Z M 2.515625 -8.296875 "/>
</symbol>
<symbol overflow="visible" id="glyph0-27">
<path style="stroke:none;" d="M 4.84375 -8.234375 L 1.65625 -3.25 L 4.84375 -3.25 Z M 4.5 -9.328125 L 6.09375 -9.328125 L 6.09375 -3.25 L 7.421875 -3.25 L 7.421875 -2.203125 L 6.09375 -2.203125 L 6.09375 0 L 4.84375 0 L 4.84375 -2.203125 L 0.625 -2.203125 L 0.625 -3.421875 Z M 4.5 -9.328125 "/>
</symbol>
<symbol overflow="visible" id="glyph0-28">
<path style="stroke:none;" d="M 2.515625 -8.296875 L 2.515625 -1.03125 L 4.046875 -1.03125 C 5.328125 -1.03125 6.265625 -1.320312 6.859375 -1.90625 C 7.460938 -2.488281 7.765625 -3.410156 7.765625 -4.671875 C 7.765625 -5.921875 7.460938 -6.835938 6.859375 -7.421875 C 6.265625 -8.003906 5.328125 -8.296875 4.046875 -8.296875 Z M 1.25 -9.328125 L 3.84375 -9.328125 C 5.65625 -9.328125 6.984375 -8.953125 7.828125 -8.203125 C 8.671875 -7.453125 9.09375 -6.273438 9.09375 -4.671875 C 9.09375 -3.066406 8.664062 -1.882812 7.8125 -1.125 C 6.96875 -0.375 5.644531 0 3.84375 0 L 1.25 0 Z M 1.25 -9.328125 "/>
</symbol>
<symbol overflow="visible" id="glyph0-29">
<path style="stroke:none;" d="M 6.25 -6.734375 L 6.25 -5.65625 C 5.914062 -5.832031 5.585938 -5.960938 5.265625 -6.046875 C 4.941406 -6.140625 4.613281 -6.1875 4.28125 -6.1875 C 3.53125 -6.1875 2.945312 -5.953125 2.53125 -5.484375 C 2.125 -5.015625 1.921875 -4.351562 1.921875 -3.5 C 1.921875 -2.644531 2.125 -1.976562 2.53125 -1.5 C 2.945312 -1.03125 3.53125 -0.796875 4.28125 -0.796875 C 4.613281 -0.796875 4.941406 -0.835938 5.265625 -0.921875 C 5.585938 -1.015625 5.914062 -1.148438 6.25 -1.328125 L 6.25 -0.265625 C 5.925781 -0.117188 5.59375 -0.0078125 5.25 0.0625 C 4.90625 0.144531 4.539062 0.1875 4.15625 0.1875 C 3.09375 0.1875 2.25 -0.144531 1.625 -0.8125 C 1.007812 -1.476562 0.703125 -2.375 0.703125 -3.5 C 0.703125 -4.632812 1.015625 -5.53125 1.640625 -6.1875 C 2.273438 -6.84375 3.132812 -7.171875 4.21875 -7.171875 C 4.570312 -7.171875 4.914062 -7.132812 5.25 -7.0625 C 5.59375 -6.988281 5.925781 -6.878906 6.25 -6.734375 Z M 6.25 -6.734375 "/>
</symbol>
<symbol overflow="visible" id="glyph0-30">
<path style="stroke:none;" d="M 1.046875 -9.328125 L 7.046875 -9.328125 L 7.046875 -8.796875 L 3.65625 0 L 2.34375 0 L 5.53125 -8.265625 L 1.046875 -8.265625 Z M 1.046875 -9.328125 "/>
</symbol>
<symbol overflow="visible" id="glyph0-31">
<path style="stroke:none;" d="M 8.234375 -8.609375 L 8.234375 -7.28125 C 7.816406 -7.675781 7.363281 -7.96875 6.875 -8.15625 C 6.394531 -8.351562 5.882812 -8.453125 5.34375 -8.453125 C 4.28125 -8.453125 3.460938 -8.125 2.890625 -7.46875 C 2.328125 -6.820312 2.046875 -5.882812 2.046875 -4.65625 C 2.046875 -3.425781 2.328125 -2.484375 2.890625 -1.828125 C 3.460938 -1.179688 4.28125 -0.859375 5.34375 -0.859375 C 5.882812 -0.859375 6.394531 -0.953125 6.875 -1.140625 C 7.363281 -1.335938 7.816406 -1.632812 8.234375 -2.03125 L 8.234375 -0.71875 C 7.796875 -0.414062 7.328125 -0.1875 6.828125 -0.03125 C 6.335938 0.113281 5.820312 0.1875 5.28125 0.1875 C 3.863281 0.1875 2.75 -0.242188 1.9375 -1.109375 C 1.125 -1.972656 0.71875 -3.15625 0.71875 -4.65625 C 0.71875 -6.15625 1.125 -7.335938 1.9375 -8.203125 C 2.75 -9.066406 3.863281 -9.5 5.28125 -9.5 C 5.832031 -9.5 6.351562 -9.421875 6.84375 -9.265625 C 7.34375 -9.117188 7.804688 -8.898438 8.234375 -8.609375 Z M 8.234375 -8.609375 "/>
</symbol>
<symbol overflow="visible" id="glyph0-32">
<path style="stroke:none;" d="M 2.3125 -1.046875 L 2.3125 2.65625 L 1.15625 2.65625 L 1.15625 -7 L 2.3125 -7 L 2.3125 -5.9375 C 2.5625 -6.351562 2.867188 -6.660156 3.234375 -6.859375 C 3.597656 -7.066406 4.039062 -7.171875 4.5625 -7.171875 C 5.40625 -7.171875 6.09375 -6.832031 6.625 -6.15625 C 7.15625 -5.476562 7.421875 -4.59375 7.421875 -3.5 C 7.421875 -2.394531 7.15625 -1.503906 6.625 -0.828125 C 6.09375 -0.148438 5.40625 0.1875 4.5625 0.1875 C 4.039062 0.1875 3.597656 0.0859375 3.234375 -0.109375 C 2.867188 -0.316406 2.5625 -0.628906 2.3125 -1.046875 Z M 6.234375 -3.5 C 6.234375 -4.34375 6.054688 -5.003906 5.703125 -5.484375 C 5.359375 -5.960938 4.882812 -6.203125 4.28125 -6.203125 C 3.664062 -6.203125 3.179688 -5.960938 2.828125 -5.484375 C 2.484375 -5.003906 2.3125 -4.34375 2.3125 -3.5 C 2.3125 -2.644531 2.484375 -1.976562 2.828125 -1.5 C 3.179688 -1.019531 3.664062 -0.78125 4.28125 -0.78125 C 4.882812 -0.78125 5.359375 -1.019531 5.703125 -1.5 C 6.054688 -1.976562 6.234375 -2.644531 6.234375 -3.5 Z M 6.234375 -3.5 "/>
</symbol>
<symbol overflow="visible" id="glyph0-33">
<path style="stroke:none;" d="M 7.1875 -3.78125 L 7.1875 -3.21875 L 1.90625 -3.21875 C 1.957031 -2.425781 2.195312 -1.820312 2.625 -1.40625 C 3.050781 -1 3.644531 -0.796875 4.40625 -0.796875 C 4.84375 -0.796875 5.269531 -0.847656 5.6875 -0.953125 C 6.101562 -1.066406 6.515625 -1.226562 6.921875 -1.4375 L 6.921875 -0.359375 C 6.515625 -0.179688 6.09375 -0.046875 5.65625 0.046875 C 5.21875 0.140625 4.78125 0.1875 4.34375 0.1875 C 3.21875 0.1875 2.328125 -0.132812 1.671875 -0.78125 C 1.023438 -1.4375 0.703125 -2.320312 0.703125 -3.4375 C 0.703125 -4.582031 1.007812 -5.488281 1.625 -6.15625 C 2.25 -6.832031 3.085938 -7.171875 4.140625 -7.171875 C 5.078125 -7.171875 5.816406 -6.863281 6.359375 -6.25 C 6.910156 -5.644531 7.1875 -4.820312 7.1875 -3.78125 Z M 6.046875 -4.125 C 6.035156 -4.75 5.859375 -5.25 5.515625 -5.625 C 5.171875 -6 4.71875 -6.1875 4.15625 -6.1875 C 3.507812 -6.1875 2.992188 -6.003906 2.609375 -5.640625 C 2.222656 -5.285156 2 -4.78125 1.9375 -4.125 Z M 4.9375 -10.234375 L 6.1875 -10.234375 L 4.15625 -7.890625 L 3.1875 -7.890625 Z M 4.9375 -10.234375 "/>
</symbol>
<symbol overflow="visible" id="glyph0-34">
<path style="stroke:none;" d="M 3.109375 -5.015625 C 2.734375 -4.679688 2.457031 -4.34375 2.28125 -4 C 2.101562 -3.664062 2.015625 -3.316406 2.015625 -2.953125 C 2.015625 -2.347656 2.234375 -1.84375 2.671875 -1.4375 C 3.117188 -1.03125 3.675781 -0.828125 4.34375 -0.828125 C 4.738281 -0.828125 5.109375 -0.890625 5.453125 -1.015625 C 5.796875 -1.148438 6.117188 -1.351562 6.421875 -1.625 Z M 4 -5.71875 L 7.171875 -2.46875 C 7.410156 -2.84375 7.597656 -3.238281 7.734375 -3.65625 C 7.878906 -4.082031 7.960938 -4.53125 7.984375 -5 L 9.140625 -5 C 9.097656 -4.457031 8.96875 -3.914062 8.75 -3.375 C 8.53125 -2.832031 8.226562 -2.300781 7.84375 -1.78125 L 9.578125 0 L 8.015625 0 L 7.109375 -0.921875 C 6.679688 -0.546875 6.226562 -0.265625 5.75 -0.078125 C 5.28125 0.0976562 4.769531 0.1875 4.21875 0.1875 C 3.21875 0.1875 2.398438 -0.0976562 1.765625 -0.671875 C 1.128906 -1.242188 0.8125 -1.976562 0.8125 -2.875 C 0.8125 -3.414062 0.945312 -3.921875 1.21875 -4.390625 C 1.5 -4.859375 1.921875 -5.296875 2.484375 -5.703125 C 2.285156 -5.960938 2.132812 -6.222656 2.03125 -6.484375 C 1.925781 -6.742188 1.875 -7 1.875 -7.25 C 1.875 -7.925781 2.101562 -8.46875 2.5625 -8.875 C 3.019531 -9.289062 3.632812 -9.5 4.40625 -9.5 C 4.75 -9.5 5.09375 -9.457031 5.4375 -9.375 C 5.78125 -9.300781 6.128906 -9.191406 6.484375 -9.046875 L 6.484375 -7.90625 C 6.117188 -8.101562 5.769531 -8.253906 5.4375 -8.359375 C 5.113281 -8.460938 4.8125 -8.515625 4.53125 -8.515625 C 4.09375 -8.515625 3.738281 -8.394531 3.46875 -8.15625 C 3.195312 -7.925781 3.0625 -7.628906 3.0625 -7.265625 C 3.0625 -7.054688 3.117188 -6.84375 3.234375 -6.625 C 3.359375 -6.414062 3.613281 -6.113281 4 -5.71875 Z M 4 -5.71875 "/>
</symbol>
<symbol overflow="visible" id="glyph0-35">
<path style="stroke:none;" d="M 0.375 -7 L 1.59375 -7 L 3.78125 -1.125 L 5.96875 -7 L 7.1875 -7 L 4.5625 0 L 3 0 Z M 0.375 -7 "/>
</symbol>
<symbol overflow="visible" id="glyph0-36">
<path style="stroke:none;" d="M 1.359375 -5.8125 L 9.359375 -5.8125 L 9.359375 -4.765625 L 1.359375 -4.765625 Z M 1.359375 -3.265625 L 9.359375 -3.265625 L 9.359375 -2.203125 L 1.359375 -2.203125 Z M 1.359375 -3.265625 "/>
</symbol>
<symbol overflow="visible" id="glyph0-37">
<path style="stroke:none;" d="M 1.359375 -6.296875 L 1.359375 -7.4375 L 9.359375 -4.53125 L 9.359375 -3.5 L 1.359375 -0.59375 L 1.359375 -1.71875 L 7.796875 -4 Z M 1.359375 -6.296875 "/>
</symbol>
<symbol overflow="visible" id="glyph0-38">
<path style="stroke:none;" d="M 9.359375 -6.296875 L 2.921875 -4 L 9.359375 -1.71875 L 9.359375 -0.59375 L 1.359375 -3.5 L 1.359375 -4.53125 L 9.359375 -7.4375 Z M 9.359375 -6.296875 "/>
</symbol>
<symbol overflow="visible" id="glyph0-39">
<path style="stroke:none;" d="M 1.5 -1.59375 L 2.8125 -1.59375 L 2.8125 -0.515625 L 1.796875 1.484375 L 0.984375 1.484375 L 1.5 -0.515625 Z M 1.5 -1.59375 "/>
</symbol>
<symbol overflow="visible" id="glyph0-40">
<path style="stroke:none;" d="M 2.6875 -9.78125 L 2.6875 3.015625 L 1.625 3.015625 L 1.625 -9.78125 Z M 2.6875 -9.78125 "/>
</symbol>
<symbol overflow="visible" id="glyph0-41">
<path style="stroke:none;" d="M 4.75 -9.71875 L 4.75 -8.765625 L 3.65625 -8.765625 C 3.238281 -8.765625 2.945312 -8.679688 2.78125 -8.515625 C 2.625 -8.347656 2.546875 -8.046875 2.546875 -7.609375 L 2.546875 -7 L 4.4375 -7 L 4.4375 -6.109375 L 2.546875 -6.109375 L 2.546875 0 L 1.390625 0 L 1.390625 -6.109375 L 0.296875 -6.109375 L 0.296875 -7 L 1.390625 -7 L 1.390625 -7.484375 C 1.390625 -8.265625 1.570312 -8.832031 1.9375 -9.1875 C 2.300781 -9.539062 2.875 -9.71875 3.65625 -9.71875 Z M 4.75 -9.71875 "/>
</symbol>
<symbol overflow="visible" id="glyph1-0">
<path style="stroke:none;" d="M 0.859375 3 L 0.859375 -11.9375 L 9.328125 -11.9375 L 9.328125 3 Z M 1.8125 2.046875 L 8.390625 2.046875 L 8.390625 -10.984375 L 1.8125 -10.984375 Z M 1.8125 2.046875 "/>
</symbol>
<symbol overflow="visible" id="glyph1-1">
<path style="stroke:none;" d="M 3.609375 -1.375 C 5.015625 -1.375 5.992188 -1.71875 6.546875 -2.40625 C 7.109375 -3.101562 7.390625 -4.351562 7.390625 -6.15625 C 7.390625 -7.988281 7.109375 -9.25 6.546875 -9.9375 C 5.992188 -10.625 5.015625 -10.96875 3.609375 -10.96875 L 2.8125 -10.96875 L 2.8125 -1.375 Z M 3.640625 -12.34375 C 5.523438 -12.34375 6.910156 -11.84375 7.796875 -10.84375 C 8.691406 -9.84375 9.140625 -8.28125 9.140625 -6.15625 C 9.140625 -4.050781 8.691406 -2.5 7.796875 -1.5 C 6.910156 -0.5 5.523438 0 3.640625 0 L 1.140625 0 L 1.140625 -12.34375 Z M 3.640625 -12.34375 "/>
</symbol>
<symbol overflow="visible" id="glyph1-2">
<path style="stroke:none;" d="M 2.125 -9.265625 L 6.015625 -9.265625 L 6.015625 -1.1875 L 9.03125 -1.1875 L 9.03125 0 L 1.46875 0 L 1.46875 -1.1875 L 4.484375 -1.1875 L 4.484375 -8.078125 L 2.125 -8.078125 Z M 4.484375 -12.875 L 6.015625 -12.875 L 6.015625 -10.9375 L 4.484375 -10.9375 Z M 4.484375 -12.875 "/>
</symbol>
<symbol overflow="visible" id="glyph1-3">
<path style="stroke:none;" d="M 5.8125 -4.65625 L 5.296875 -4.65625 C 4.410156 -4.65625 3.742188 -4.5 3.296875 -4.1875 C 2.847656 -3.875 2.625 -3.410156 2.625 -2.796875 C 2.625 -2.234375 2.789062 -1.796875 3.125 -1.484375 C 3.457031 -1.179688 3.925781 -1.03125 4.53125 -1.03125 C 5.363281 -1.03125 6.019531 -1.320312 6.5 -1.90625 C 6.976562 -2.488281 7.222656 -3.289062 7.234375 -4.3125 L 7.234375 -4.65625 Z M 8.765625 -5.28125 L 8.765625 0 L 7.234375 0 L 7.234375 -1.375 C 6.898438 -0.820312 6.488281 -0.414062 6 -0.15625 C 5.507812 0.101562 4.910156 0.234375 4.203125 0.234375 C 3.253906 0.234375 2.5 -0.03125 1.9375 -0.5625 C 1.375 -1.09375 1.09375 -1.804688 1.09375 -2.703125 C 1.09375 -3.734375 1.4375 -4.515625 2.125 -5.046875 C 2.820312 -5.578125 3.84375 -5.84375 5.1875 -5.84375 L 7.234375 -5.84375 L 7.234375 -6.09375 C 7.222656 -6.820312 7.03125 -7.351562 6.65625 -7.6875 C 6.289062 -8.03125 5.703125 -8.203125 4.890625 -8.203125 C 4.378906 -8.203125 3.859375 -8.125 3.328125 -7.96875 C 2.796875 -7.820312 2.28125 -7.601562 1.78125 -7.3125 L 1.78125 -8.84375 C 2.34375 -9.050781 2.878906 -9.207031 3.390625 -9.3125 C 3.910156 -9.425781 4.410156 -9.484375 4.890625 -9.484375 C 5.660156 -9.484375 6.316406 -9.367188 6.859375 -9.140625 C 7.398438 -8.921875 7.835938 -8.582031 8.171875 -8.125 C 8.390625 -7.851562 8.539062 -7.515625 8.625 -7.109375 C 8.71875 -6.703125 8.765625 -6.09375 8.765625 -5.28125 Z M 8.765625 -5.28125 "/>
</symbol>
<symbol overflow="visible" id="glyph1-4">
<path style="stroke:none;" d="M 7.09375 -4.703125 C 7.09375 -5.847656 6.90625 -6.71875 6.53125 -7.3125 C 6.164062 -7.90625 5.625 -8.203125 4.90625 -8.203125 C 4.164062 -8.203125 3.597656 -7.90625 3.203125 -7.3125 C 2.816406 -6.71875 2.625 -5.847656 2.625 -4.703125 C 2.625 -3.566406 2.816406 -2.695312 3.203125 -2.09375 C 3.597656 -1.5 4.171875 -1.203125 4.921875 -1.203125 C 5.628906 -1.203125 6.164062 -1.5 6.53125 -2.09375 C 6.90625 -2.695312 7.09375 -3.566406 7.09375 -4.703125 Z M 8.625 -0.59375 C 8.625 0.789062 8.296875 1.84375 7.640625 2.5625 C 6.984375 3.28125 6.015625 3.640625 4.734375 3.640625 C 4.316406 3.640625 3.878906 3.597656 3.421875 3.515625 C 2.960938 3.441406 2.503906 3.332031 2.046875 3.1875 L 2.046875 1.671875 C 2.585938 1.929688 3.078125 2.117188 3.515625 2.234375 C 3.960938 2.359375 4.367188 2.421875 4.734375 2.421875 C 5.554688 2.421875 6.15625 2.195312 6.53125 1.75 C 6.90625 1.300781 7.09375 0.59375 7.09375 -0.375 L 7.09375 -1.46875 C 6.851562 -0.945312 6.519531 -0.5625 6.09375 -0.3125 C 5.675781 -0.0625 5.171875 0.0625 4.578125 0.0625 C 3.492188 0.0625 2.628906 -0.367188 1.984375 -1.234375 C 1.335938 -2.097656 1.015625 -3.253906 1.015625 -4.703125 C 1.015625 -6.160156 1.335938 -7.320312 1.984375 -8.1875 C 2.628906 -9.050781 3.492188 -9.484375 4.578125 -9.484375 C 5.171875 -9.484375 5.671875 -9.363281 6.078125 -9.125 C 6.492188 -8.894531 6.832031 -8.53125 7.09375 -8.03125 L 7.09375 -9.234375 L 8.625 -9.234375 Z M 8.625 -0.59375 "/>
</symbol>
<symbol overflow="visible" id="glyph1-5">
<path style="stroke:none;" d="M 9.546875 -7.359375 C 9.222656 -7.609375 8.894531 -7.789062 8.5625 -7.90625 C 8.226562 -8.019531 7.859375 -8.078125 7.453125 -8.078125 C 6.503906 -8.078125 5.78125 -7.78125 5.28125 -7.1875 C 4.78125 -6.59375 4.53125 -5.734375 4.53125 -4.609375 L 4.53125 0 L 3 0 L 3 -9.265625 L 4.53125 -9.265625 L 4.53125 -7.453125 C 4.78125 -8.109375 5.164062 -8.609375 5.6875 -8.953125 C 6.21875 -9.304688 6.84375 -9.484375 7.5625 -9.484375 C 7.9375 -9.484375 8.285156 -9.4375 8.609375 -9.34375 C 8.941406 -9.25 9.253906 -9.101562 9.546875 -8.90625 Z M 9.546875 -7.359375 "/>
</symbol>
<symbol overflow="visible" id="glyph1-6">
<path style="stroke:none;" d="M 5.59375 -8.3125 C 5.78125 -8.71875 6.015625 -9.015625 6.296875 -9.203125 C 6.585938 -9.390625 6.941406 -9.484375 7.359375 -9.484375 C 8.097656 -9.484375 8.617188 -9.191406 8.921875 -8.609375 C 9.234375 -8.035156 9.390625 -6.957031 9.390625 -5.375 L 9.390625 0 L 8 0 L 8 -5.296875 C 8 -6.609375 7.925781 -7.421875 7.78125 -7.734375 C 7.632812 -8.054688 7.367188 -8.21875 6.984375 -8.21875 C 6.535156 -8.21875 6.226562 -8.046875 6.0625 -7.703125 C 5.90625 -7.359375 5.828125 -6.554688 5.828125 -5.296875 L 5.828125 0 L 4.4375 0 L 4.4375 -5.296875 C 4.4375 -6.617188 4.359375 -7.4375 4.203125 -7.75 C 4.046875 -8.0625 3.765625 -8.21875 3.359375 -8.21875 C 2.953125 -8.21875 2.671875 -8.046875 2.515625 -7.703125 C 2.359375 -7.359375 2.28125 -6.554688 2.28125 -5.296875 L 2.28125 0 L 0.90625 0 L 0.90625 -9.265625 L 2.28125 -9.265625 L 2.28125 -8.46875 C 2.46875 -8.800781 2.695312 -9.050781 2.96875 -9.21875 C 3.238281 -9.394531 3.546875 -9.484375 3.890625 -9.484375 C 4.316406 -9.484375 4.664062 -9.382812 4.9375 -9.1875 C 5.21875 -9 5.4375 -8.707031 5.59375 -8.3125 Z M 5.59375 -8.3125 "/>
</symbol>
<symbol overflow="visible" id="glyph1-7">
<path style="stroke:none;" d="M 9.203125 -5.015625 L 9.203125 -4.265625 L 2.609375 -4.265625 L 2.609375 -4.21875 C 2.609375 -3.207031 2.867188 -2.425781 3.390625 -1.875 C 3.921875 -1.320312 4.664062 -1.046875 5.625 -1.046875 C 6.113281 -1.046875 6.617188 -1.125 7.140625 -1.28125 C 7.671875 -1.4375 8.238281 -1.671875 8.84375 -1.984375 L 8.84375 -0.46875 C 8.257812 -0.226562 7.695312 -0.0507812 7.15625 0.0625 C 6.625 0.175781 6.109375 0.234375 5.609375 0.234375 C 4.171875 0.234375 3.046875 -0.191406 2.234375 -1.046875 C 1.421875 -1.910156 1.015625 -3.101562 1.015625 -4.625 C 1.015625 -6.101562 1.410156 -7.28125 2.203125 -8.15625 C 3.003906 -9.039062 4.066406 -9.484375 5.390625 -9.484375 C 6.566406 -9.484375 7.492188 -9.082031 8.171875 -8.28125 C 8.859375 -7.488281 9.203125 -6.398438 9.203125 -5.015625 Z M 7.671875 -5.453125 C 7.648438 -6.347656 7.4375 -7.03125 7.03125 -7.5 C 6.632812 -7.96875 6.0625 -8.203125 5.3125 -8.203125 C 4.582031 -8.203125 3.976562 -7.957031 3.5 -7.46875 C 3.03125 -6.976562 2.75 -6.304688 2.65625 -5.453125 Z M 7.671875 -5.453125 "/>
</symbol>
<symbol overflow="visible" id="glyph1-8">
<path style="stroke:none;" d=""/>
</symbol>
<symbol overflow="visible" id="glyph1-9">
<path style="stroke:none;" d="M 8.78125 -0.46875 C 8.363281 -0.226562 7.9375 -0.0507812 7.5 0.0625 C 7.070312 0.175781 6.632812 0.234375 6.1875 0.234375 C 4.75 0.234375 3.625 -0.191406 2.8125 -1.046875 C 2.007812 -1.910156 1.609375 -3.101562 1.609375 -4.625 C 1.609375 -6.144531 2.007812 -7.332031 2.8125 -8.1875 C 3.625 -9.050781 4.75 -9.484375 6.1875 -9.484375 C 6.632812 -9.484375 7.066406 -9.425781 7.484375 -9.3125 C 7.910156 -9.195312 8.34375 -9.019531 8.78125 -8.78125 L 8.78125 -7.171875 C 8.375 -7.535156 7.96875 -7.796875 7.5625 -7.953125 C 7.15625 -8.117188 6.695312 -8.203125 6.1875 -8.203125 C 5.226562 -8.203125 4.492188 -7.890625 3.984375 -7.265625 C 3.472656 -6.648438 3.21875 -5.769531 3.21875 -4.625 C 3.21875 -3.476562 3.472656 -2.59375 3.984375 -1.96875 C 4.503906 -1.351562 5.238281 -1.046875 6.1875 -1.046875 C 6.71875 -1.046875 7.191406 -1.125 7.609375 -1.28125 C 8.023438 -1.445312 8.414062 -1.703125 8.78125 -2.046875 Z M 8.78125 -0.46875 "/>
</symbol>
<symbol overflow="visible" id="glyph1-10">
<path style="stroke:none;" d="M 8.6875 -5.734375 L 8.6875 0 L 7.15625 0 L 7.15625 -5.734375 C 7.15625 -6.566406 7.007812 -7.175781 6.71875 -7.5625 C 6.425781 -7.957031 5.96875 -8.15625 5.34375 -8.15625 C 4.632812 -8.15625 4.085938 -7.90625 3.703125 -7.40625 C 3.328125 -6.90625 3.140625 -6.179688 3.140625 -5.234375 L 3.140625 0 L 1.609375 0 L 1.609375 -12.875 L 3.140625 -12.875 L 3.140625 -7.875 C 3.410156 -8.40625 3.773438 -8.804688 4.234375 -9.078125 C 4.691406 -9.347656 5.238281 -9.484375 5.875 -9.484375 C 6.820312 -9.484375 7.523438 -9.171875 7.984375 -8.546875 C 8.453125 -7.929688 8.6875 -6.992188 8.6875 -5.734375 Z M 8.6875 -5.734375 "/>
</symbol>
<symbol overflow="visible" id="glyph1-11">
<path style="stroke:none;" d="M 8.6875 -5.734375 L 8.6875 0 L 7.15625 0 L 7.15625 -5.734375 C 7.15625 -6.566406 7.007812 -7.175781 6.71875 -7.5625 C 6.425781 -7.957031 5.96875 -8.15625 5.34375 -8.15625 C 4.632812 -8.15625 4.085938 -7.90625 3.703125 -7.40625 C 3.328125 -6.90625 3.140625 -6.179688 3.140625 -5.234375 L 3.140625 0 L 1.609375 0 L 1.609375 -9.265625 L 3.140625 -9.265625 L 3.140625 -7.875 C 3.410156 -8.40625 3.773438 -8.804688 4.234375 -9.078125 C 4.691406 -9.347656 5.238281 -9.484375 5.875 -9.484375 C 6.820312 -9.484375 7.523438 -9.171875 7.984375 -8.546875 C 8.453125 -7.929688 8.6875 -6.992188 8.6875 -5.734375 Z M 8.6875 -5.734375 "/>
</symbol>
<symbol overflow="visible" id="glyph1-12">
<path style="stroke:none;" d="M 5.8125 -4.65625 L 5.296875 -4.65625 C 4.410156 -4.65625 3.742188 -4.5 3.296875 -4.1875 C 2.847656 -3.875 2.625 -3.410156 2.625 -2.796875 C 2.625 -2.234375 2.789062 -1.796875 3.125 -1.484375 C 3.457031 -1.179688 3.925781 -1.03125 4.53125 -1.03125 C 5.363281 -1.03125 6.019531 -1.320312 6.5 -1.90625 C 6.976562 -2.488281 7.222656 -3.289062 7.234375 -4.3125 L 7.234375 -4.65625 Z M 8.765625 -5.28125 L 8.765625 0 L 7.234375 0 L 7.234375 -1.375 C 6.898438 -0.820312 6.488281 -0.414062 6 -0.15625 C 5.507812 0.101562 4.910156 0.234375 4.203125 0.234375 C 3.253906 0.234375 2.5 -0.03125 1.9375 -0.5625 C 1.375 -1.09375 1.09375 -1.804688 1.09375 -2.703125 C 1.09375 -3.734375 1.4375 -4.515625 2.125 -5.046875 C 2.820312 -5.578125 3.84375 -5.84375 5.1875 -5.84375 L 7.234375 -5.84375 L 7.234375 -6.09375 C 7.222656 -6.820312 7.03125 -7.351562 6.65625 -7.6875 C 6.289062 -8.03125 5.703125 -8.203125 4.890625 -8.203125 C 4.378906 -8.203125 3.859375 -8.125 3.328125 -7.96875 C 2.796875 -7.820312 2.28125 -7.601562 1.78125 -7.3125 L 1.78125 -8.84375 C 2.34375 -9.050781 2.878906 -9.207031 3.390625 -9.3125 C 3.910156 -9.425781 4.410156 -9.484375 4.890625 -9.484375 C 5.660156 -9.484375 6.316406 -9.367188 6.859375 -9.140625 C 7.398438 -8.921875 7.835938 -8.582031 8.171875 -8.125 C 8.390625 -7.851562 8.539062 -7.515625 8.625 -7.109375 C 8.71875 -6.703125 8.765625 -6.09375 8.765625 -5.28125 Z M 3.9375 -13.546875 L 6.265625 -10.4375 L 5 -10.4375 L 2.3125 -13.546875 Z M 3.9375 -13.546875 "/>
</symbol>
<symbol overflow="visible" id="glyph1-13">
<path style="stroke:none;" d="M 9.203125 -5.015625 L 9.203125 -4.265625 L 2.609375 -4.265625 L 2.609375 -4.21875 C 2.609375 -3.207031 2.867188 -2.425781 3.390625 -1.875 C 3.921875 -1.320312 4.664062 -1.046875 5.625 -1.046875 C 6.113281 -1.046875 6.617188 -1.125 7.140625 -1.28125 C 7.671875 -1.4375 8.238281 -1.671875 8.84375 -1.984375 L 8.84375 -0.46875 C 8.257812 -0.226562 7.695312 -0.0507812 7.15625 0.0625 C 6.625 0.175781 6.109375 0.234375 5.609375 0.234375 C 4.171875 0.234375 3.046875 -0.191406 2.234375 -1.046875 C 1.421875 -1.910156 1.015625 -3.101562 1.015625 -4.625 C 1.015625 -6.101562 1.410156 -7.28125 2.203125 -8.15625 C 3.003906 -9.039062 4.066406 -9.484375 5.390625 -9.484375 C 6.566406 -9.484375 7.492188 -9.082031 8.171875 -8.28125 C 8.859375 -7.488281 9.203125 -6.398438 9.203125 -5.015625 Z M 7.671875 -5.453125 C 7.648438 -6.347656 7.4375 -7.03125 7.03125 -7.5 C 6.632812 -7.96875 6.0625 -8.203125 5.3125 -8.203125 C 4.582031 -8.203125 3.976562 -7.957031 3.5 -7.46875 C 3.03125 -6.976562 2.75 -6.304688 2.65625 -5.453125 Z M 6.359375 -13.546875 L 8 -13.546875 L 5.3125 -10.4375 L 4.03125 -10.4375 Z M 6.359375 -13.546875 "/>
</symbol>
<symbol overflow="visible" id="glyph1-14">
<path style="stroke:none;" d="M 5.078125 -11.890625 L 5.078125 -9.265625 L 8.53125 -9.265625 L 8.53125 -8.078125 L 5.078125 -8.078125 L 5.078125 -3.046875 C 5.078125 -2.367188 5.207031 -1.894531 5.46875 -1.625 C 5.726562 -1.351562 6.179688 -1.21875 6.828125 -1.21875 L 8.53125 -1.21875 L 8.53125 0 L 6.671875 0 C 5.535156 0 4.734375 -0.226562 4.265625 -0.6875 C 3.796875 -1.144531 3.5625 -1.929688 3.5625 -3.046875 L 3.5625 -8.078125 L 1.078125 -8.078125 L 1.078125 -9.265625 L 3.5625 -9.265625 L 3.5625 -11.890625 Z M 5.078125 -11.890625 "/>
</symbol>
<symbol overflow="visible" id="glyph2-0">
<path style="stroke:none;" d="M 0.640625 2.265625 L 0.640625 -9.015625 L 7.03125 -9.015625 L 7.03125 2.265625 Z M 1.359375 1.546875 L 6.328125 1.546875 L 6.328125 -8.296875 L 1.359375 -8.296875 Z M 1.359375 1.546875 "/>
</symbol>
<symbol overflow="visible" id="glyph2-1">
<path style="stroke:none;" d="M 5.28125 -3.25 L 5.015625 -4.703125 C 4.828125 -5.691406 4.363281 -6.1875 3.625 -6.1875 C 3.0625 -6.1875 2.65625 -5.957031 2.40625 -5.5 C 2.082031 -4.914062 1.921875 -4.25 1.921875 -3.5 C 1.921875 -2.582031 2.078125 -1.90625 2.390625 -1.46875 C 2.703125 -1.019531 3.113281 -0.796875 3.625 -0.796875 C 4.175781 -0.796875 4.601562 -1.238281 4.90625 -2.125 Z M 5.9375 -5.171875 L 6.546875 -7 L 7.578125 -7 L 6.296875 -3.203125 L 6.546875 -1.84375 C 6.578125 -1.632812 6.664062 -1.445312 6.8125 -1.28125 C 6.988281 -1.070312 7.140625 -0.96875 7.265625 -0.96875 L 7.828125 -0.96875 L 7.828125 0 L 7.140625 0 C 6.742188 0 6.375 -0.175781 6.03125 -0.53125 C 5.851562 -0.695312 5.726562 -0.96875 5.65625 -1.34375 C 5.46875 -0.875 5.175781 -0.457031 4.78125 -0.09375 C 4.601562 0.0703125 4.21875 0.15625 3.625 0.15625 C 2.644531 0.15625 1.914062 -0.160156 1.4375 -0.796875 C 0.945312 -1.453125 0.703125 -2.351562 0.703125 -3.5 C 0.703125 -4.71875 0.96875 -5.613281 1.5 -6.1875 C 2.082031 -6.832031 2.789062 -7.15625 3.625 -7.15625 C 4.914062 -7.15625 5.6875 -6.492188 5.9375 -5.171875 Z M 5.9375 -5.171875 "/>
</symbol>
<symbol overflow="visible" id="glyph2-2">
<path style="stroke:none;" d="M 2.359375 -0.4375 L 2.359375 2.65625 L 1.203125 2.65625 L 1.203125 -6.953125 C 1.203125 -8.847656 2.085938 -9.796875 3.859375 -9.796875 C 5.671875 -9.796875 6.578125 -8.992188 6.578125 -7.390625 C 6.578125 -6.253906 6.21875 -5.476562 5.5 -5.0625 C 6.664062 -4.6875 7.25 -3.941406 7.25 -2.828125 C 7.25 -0.859375 6.242188 0.125 4.234375 0.125 C 3.347656 0.125 2.722656 -0.0625 2.359375 -0.4375 Z M 2.359375 -1.9375 C 2.816406 -1.207031 3.457031 -0.84375 4.28125 -0.84375 C 5.476562 -0.84375 6.078125 -1.5 6.078125 -2.8125 C 6.078125 -3.988281 5.113281 -4.53125 3.1875 -4.4375 L 3.1875 -5.5 C 4.695312 -5.5 5.453125 -6.164062 5.453125 -7.5 C 5.453125 -8.40625 4.960938 -8.859375 3.984375 -8.859375 C 2.898438 -8.859375 2.359375 -8.210938 2.359375 -6.921875 Z M 2.359375 -1.9375 "/>
</symbol>
<symbol overflow="visible" id="glyph2-3">
<path style="stroke:none;" d="M 2.25 -5.90625 L 3.78125 -1.578125 L 5.96875 -7 L 7.1875 -7 L 4.359375 0 L 4.359375 2.65625 L 3.21875 2.65625 L 3.21875 0 L 1.375 -5.21875 C 1.1875 -5.75 0.894531 -6.015625 0.5 -6.015625 L 0.203125 -6.015625 L 0.203125 -7 L 0.640625 -7 C 1.460938 -7 2 -6.632812 2.25 -5.90625 Z M 2.25 -5.90625 "/>
</symbol>
<symbol overflow="visible" id="glyph3-0">
<path style="stroke:none;" d="M 0.65625 2.265625 L 0.65625 -9.015625 L 7.046875 -9.015625 L 7.046875 2.265625 Z M 1.375 1.546875 L 6.34375 1.546875 L 6.34375 -8.296875 L 1.375 -8.296875 Z M 1.375 1.546875 "/>
</symbol>
<symbol overflow="visible" id="glyph3-1">
<path style="stroke:none;" d="M 3.84375 -8.21875 L 2.515625 -3.4375 L 5.1875 -3.4375 Z M 3.09375 -9.328125 L 4.625 -9.328125 L 7.46875 0 L 6.171875 0 L 5.484375 -2.4375 L 2.21875 -2.4375 L 1.53125 0 L 0.234375 0 Z M 3.09375 -9.328125 "/>
</symbol>
<symbol overflow="visible" id="glyph3-2">
<path style="stroke:none;" d="M 0.625 -7 L 1.8125 -7 L 3.84375 -1.125 L 5.890625 -7 L 7.078125 -7 L 4.59375 0 L 3.109375 0 Z M 0.625 -7 "/>
</symbol>
<symbol overflow="visible" id="glyph3-3">
<path style="stroke:none;" d="M 6.953125 -3.78125 L 6.953125 -3.21875 L 1.96875 -3.21875 L 1.96875 -3.1875 C 1.96875 -2.425781 2.164062 -1.835938 2.5625 -1.421875 C 2.957031 -1.003906 3.519531 -0.796875 4.25 -0.796875 C 4.613281 -0.796875 4.992188 -0.851562 5.390625 -0.96875 C 5.796875 -1.082031 6.222656 -1.257812 6.671875 -1.5 L 6.671875 -0.359375 C 6.242188 -0.179688 5.828125 -0.046875 5.421875 0.046875 C 5.015625 0.140625 4.617188 0.1875 4.234375 0.1875 C 3.148438 0.1875 2.300781 -0.140625 1.6875 -0.796875 C 1.070312 -1.453125 0.765625 -2.351562 0.765625 -3.5 C 0.765625 -4.613281 1.0625 -5.503906 1.65625 -6.171875 C 2.257812 -6.835938 3.0625 -7.171875 4.0625 -7.171875 C 4.957031 -7.171875 5.660156 -6.867188 6.171875 -6.265625 C 6.691406 -5.660156 6.953125 -4.832031 6.953125 -3.78125 Z M 5.796875 -4.125 C 5.785156 -4.800781 5.628906 -5.3125 5.328125 -5.65625 C 5.023438 -6.007812 4.585938 -6.1875 4.015625 -6.1875 C 3.460938 -6.1875 3.003906 -6.003906 2.640625 -5.640625 C 2.285156 -5.273438 2.078125 -4.769531 2.015625 -4.125 Z M 5.796875 -4.125 "/>
</symbol>
<symbol overflow="visible" id="glyph3-4">
<path style="stroke:none;" d="M 6.625 -0.359375 C 6.320312 -0.179688 6.003906 -0.046875 5.671875 0.046875 C 5.347656 0.140625 5.015625 0.1875 4.671875 0.1875 C 3.585938 0.1875 2.738281 -0.132812 2.125 -0.78125 C 1.519531 -1.4375 1.21875 -2.34375 1.21875 -3.5 C 1.21875 -4.644531 1.519531 -5.539062 2.125 -6.1875 C 2.738281 -6.84375 3.585938 -7.171875 4.671875 -7.171875 C 5.015625 -7.171875 5.34375 -7.125 5.65625 -7.03125 C 5.976562 -6.945312 6.300781 -6.8125 6.625 -6.625 L 6.625 -5.421875 C 6.320312 -5.691406 6.015625 -5.882812 5.703125 -6 C 5.398438 -6.125 5.054688 -6.1875 4.671875 -6.1875 C 3.953125 -6.1875 3.398438 -5.953125 3.015625 -5.484375 C 2.628906 -5.023438 2.4375 -4.363281 2.4375 -3.5 C 2.4375 -2.632812 2.628906 -1.96875 3.015625 -1.5 C 3.398438 -1.03125 3.953125 -0.796875 4.671875 -0.796875 C 5.078125 -0.796875 5.4375 -0.851562 5.75 -0.96875 C 6.0625 -1.09375 6.351562 -1.285156 6.625 -1.546875 Z M 6.625 -0.359375 "/>
</symbol>
<symbol overflow="visible" id="glyph3-5">
<path style="stroke:none;" d="M 3.0625 -6.640625 L 4.625 -6.640625 L 4.625 -4.75 L 3.0625 -4.75 Z M 3.0625 -1.90625 L 4.625 -1.90625 L 4.625 0 L 3.0625 0 Z M 3.0625 -1.90625 "/>
</symbol>
<symbol overflow="visible" id="glyph4-0">
<path style="stroke:none;" d="M 0.65625 2.265625 L 0.65625 -9.015625 L 7.046875 -9.015625 L 7.046875 2.265625 Z M 1.375 1.546875 L 6.34375 1.546875 L 6.34375 -8.296875 L 1.375 -8.296875 Z M 1.375 1.546875 "/>
</symbol>
<symbol overflow="visible" id="glyph4-1">
<path style="stroke:none;" d=""/>
</symbol>
<symbol overflow="visible" id="glyph4-2">
<path style="stroke:none;" d="M 1.375 -5.21875 C 1.1875 -5.75 0.894531 -6.015625 0.5 -6.015625 L 0.203125 -6.015625 L 0.203125 -7 L 0.640625 -7 C 1.441406 -7 1.976562 -6.632812 2.25 -5.90625 L 3.84375 -1.625 L 5.890625 -7 L 7.078125 -7 L 4.453125 0 L 4.453125 2.65625 L 3.265625 2.65625 L 3.265625 0 Z M 1.375 -5.21875 "/>
</symbol>
<symbol overflow="visible" id="glyph4-3">
<path style="stroke:none;" d="M 0.546875 -3.28125 L 7.15625 -3.28125 L 7.15625 -2.203125 L 0.546875 -2.203125 Z M 0.546875 -5.8125 L 7.15625 -5.8125 L 7.15625 -4.75 L 0.546875 -4.75 Z M 0.546875 -5.8125 "/>
</symbol>
<symbol overflow="visible" id="glyph4-4">
<path style="stroke:none;" d="M 2.21875 -4.015625 L 5.484375 -4.015625 L 5.484375 -3 L 2.21875 -3 Z M 2.21875 -4.015625 "/>
</symbol>
<symbol overflow="visible" id="glyph4-5">
<path style="stroke:none;" d="M 6.1875 -9.125 L 6.1875 -7.953125 C 5.925781 -8.109375 5.644531 -8.226562 5.34375 -8.3125 C 5.050781 -8.394531 4.75 -8.4375 4.4375 -8.4375 C 3.632812 -8.4375 3.023438 -8.132812 2.609375 -7.53125 C 2.203125 -6.925781 2 -6.039062 2 -4.875 C 2.195312 -5.289062 2.472656 -5.609375 2.828125 -5.828125 C 3.179688 -6.054688 3.585938 -6.171875 4.046875 -6.171875 C 4.941406 -6.171875 5.632812 -5.894531 6.125 -5.34375 C 6.625 -4.789062 6.875 -4.007812 6.875 -3 C 6.875 -1.988281 6.617188 -1.203125 6.109375 -0.640625 C 5.597656 -0.0859375 4.882812 0.1875 3.96875 0.1875 C 2.882812 0.1875 2.085938 -0.203125 1.578125 -0.984375 C 1.078125 -1.765625 0.828125 -2.988281 0.828125 -4.65625 C 0.828125 -6.226562 1.128906 -7.425781 1.734375 -8.25 C 2.347656 -9.082031 3.226562 -9.5 4.375 -9.5 C 4.6875 -9.5 4.992188 -9.460938 5.296875 -9.390625 C 5.609375 -9.328125 5.90625 -9.238281 6.1875 -9.125 Z M 3.9375 -5.1875 C 3.40625 -5.1875 2.984375 -4.988281 2.671875 -4.59375 C 2.367188 -4.207031 2.21875 -3.675781 2.21875 -3 C 2.21875 -2.3125 2.367188 -1.773438 2.671875 -1.390625 C 2.984375 -1.003906 3.40625 -0.8125 3.9375 -0.8125 C 4.5 -0.8125 4.921875 -0.992188 5.203125 -1.359375 C 5.484375 -1.722656 5.625 -2.269531 5.625 -3 C 5.625 -3.71875 5.484375 -4.257812 5.203125 -4.625 C 4.921875 -5 4.5 -5.1875 3.9375 -5.1875 Z M 3.9375 -5.1875 "/>
</symbol>
<symbol overflow="visible" id="glyph4-6">
<path style="stroke:none;" d="M 2.109375 -0.4375 L 2.109375 2.65625 L 0.953125 2.65625 L 0.953125 -6.953125 C 0.953125 -8.984375 1.910156 -9.929688 3.828125 -9.796875 C 5.492188 -9.691406 6.328125 -8.890625 6.328125 -7.390625 C 6.316406 -6.242188 5.957031 -5.46875 5.25 -5.0625 C 6.40625 -4.832031 6.988281 -4.085938 7 -2.828125 C 7.007812 -0.953125 6.003906 0.03125 3.984375 0.125 C 3.441406 0.15625 2.816406 -0.03125 2.109375 -0.4375 Z M 2.109375 -2.140625 C 2.441406 -1.546875 3.082031 -1.207031 4.03125 -1.125 C 5.226562 -1.019531 5.828125 -1.582031 5.828125 -2.8125 C 5.828125 -3.988281 4.863281 -4.53125 2.9375 -4.4375 L 2.9375 -5.5 C 4.445312 -5.476562 5.203125 -6.097656 5.203125 -7.359375 C 5.203125 -8.148438 4.710938 -8.570312 3.734375 -8.625 C 2.648438 -8.6875 2.109375 -8.117188 2.109375 -6.921875 Z M 2.109375 -2.140625 "/>
</symbol>
<symbol overflow="visible" id="glyph4-7">
<path style="stroke:none;" d="M 4.84375 -5 C 5.457031 -4.832031 5.925781 -4.539062 6.25 -4.125 C 6.570312 -3.707031 6.734375 -3.191406 6.734375 -2.578125 C 6.734375 -1.710938 6.445312 -1.035156 5.875 -0.546875 C 5.300781 -0.0546875 4.503906 0.1875 3.484375 0.1875 C 3.054688 0.1875 2.617188 0.144531 2.171875 0.0625 C 1.722656 -0.0195312 1.285156 -0.132812 0.859375 -0.28125 L 0.859375 -1.53125 C 1.285156 -1.3125 1.703125 -1.144531 2.109375 -1.03125 C 2.523438 -0.925781 2.9375 -0.875 3.34375 -0.875 C 4.03125 -0.875 4.5625 -1.03125 4.9375 -1.34375 C 5.3125 -1.65625 5.5 -2.109375 5.5 -2.703125 C 5.5 -3.242188 5.3125 -3.671875 4.9375 -3.984375 C 4.5625 -4.304688 4.0625 -4.46875 3.4375 -4.46875 L 2.46875 -4.46875 L 2.46875 -5.5 L 3.4375 -5.5 C 4.007812 -5.5 4.457031 -5.625 4.78125 -5.875 C 5.113281 -6.132812 5.28125 -6.492188 5.28125 -6.953125 C 5.28125 -7.429688 5.128906 -7.796875 4.828125 -8.046875 C 4.523438 -8.304688 4.09375 -8.4375 3.53125 -8.4375 C 3.15625 -8.4375 2.769531 -8.394531 2.375 -8.3125 C 1.976562 -8.226562 1.566406 -8.101562 1.140625 -7.9375 L 1.140625 -9.09375 C 1.640625 -9.226562 2.085938 -9.328125 2.484375 -9.390625 C 2.878906 -9.460938 3.226562 -9.5 3.53125 -9.5 C 4.4375 -9.5 5.160156 -9.269531 5.703125 -8.8125 C 6.242188 -8.351562 6.515625 -7.75 6.515625 -7 C 6.515625 -6.488281 6.375 -6.0625 6.09375 -5.71875 C 5.8125 -5.375 5.394531 -5.132812 4.84375 -5 Z M 4.84375 -5 "/>
</symbol>
<symbol overflow="visible" id="glyph4-8">
<path style="stroke:none;" d="M 4.78125 -3.25 L 4.515625 -4.703125 C 4.328125 -5.679688 3.863281 -6.175781 3.125 -6.1875 C 2.71875 -6.1875 2.382812 -5.957031 2.125 -5.5 C 1.8125 -4.925781 1.65625 -4.257812 1.65625 -3.5 C 1.65625 -2.582031 1.804688 -1.90625 2.109375 -1.46875 C 2.429688 -1.019531 2.769531 -0.796875 3.125 -0.796875 C 3.675781 -0.796875 4.101562 -1.238281 4.40625 -2.125 Z M 3.125 -7.15625 C 4.414062 -7.175781 5.1875 -6.515625 5.4375 -5.171875 L 6.046875 -7 L 7.078125 -7 L 5.796875 -3.203125 L 6.046875 -1.84375 C 6.078125 -1.632812 6.164062 -1.445312 6.3125 -1.28125 C 6.488281 -1.070312 6.640625 -0.96875 6.765625 -0.96875 L 7.328125 -0.96875 L 7.328125 0 L 6.640625 0 C 6.242188 0 5.875 -0.175781 5.53125 -0.53125 C 5.351562 -0.695312 5.226562 -0.96875 5.15625 -1.34375 C 4.96875 -0.882812 4.679688 -0.46875 4.296875 -0.09375 C 4.109375 0.0703125 3.71875 0.15625 3.125 0.15625 C 2.300781 0.144531 1.648438 -0.171875 1.171875 -0.796875 C 0.679688 -1.441406 0.4375 -2.34375 0.4375 -3.5 C 0.4375 -4.726562 0.695312 -5.625 1.21875 -6.1875 C 1.820312 -6.820312 2.457031 -7.144531 3.125 -7.15625 Z M 3.125 -7.15625 "/>
</symbol>
<symbol overflow="visible" id="glyph4-9">
<path style="stroke:none;" d="M 1.6875 -1.0625 L 3.65625 -1.0625 L 3.65625 -8.1875 L 1.53125 -7.71875 L 1.53125 -8.859375 L 3.640625 -9.328125 L 4.90625 -9.328125 L 4.90625 -1.0625 L 6.828125 -1.0625 L 6.828125 0 L 1.6875 0 Z M 1.6875 -1.0625 "/>
</symbol>
</g>
</defs>
<g id="surface8201">
<rect x="0" y="0" width="886" height="688" style="fill:rgb(100%,100%,100%);fill-opacity:1;stroke:none;"/>
<path style="fill-rule:evenodd;fill:rgb(100%,100%,100%);fill-opacity:1;stroke-width:0.1;stroke-linecap:butt;stroke-linejoin:miter;stroke:rgb(0%,0%,0%);stroke-opacity:1;stroke-miterlimit:10;" d="M 50.500039 13.45 C 50.223867 13.45 50.000039 13.673828 50.000039 13.95 L 50.000039 14.75 C 50.000039 15.026172 50.223867 15.25 50.500039 15.25 L 55.1975 15.25 C 55.473672 15.25 55.6975 15.026172 55.6975 14.75 L 55.6975 13.95 C 55.6975 13.673828 55.473672 13.45 55.1975 13.45 Z M 50.500039 13.45 " transform="matrix(20,0,0,20,-765.075,22)"/>
<g style="fill:rgb(0%,0%,0%);fill-opacity:1;">
  <use xlink:href="#glyph0-1" x="244.964844" y="312.88878"/>
  <use xlink:href="#glyph0-2" x="253.020399" y="312.88878"/>
  <use xlink:href="#glyph0-3" x="258.020399" y="312.88878"/>
  <use xlink:href="#glyph0-2" x="265.798177" y="312.88878"/>
  <use xlink:href="#glyph0-4" x="270.798177" y="312.88878"/>
  <use xlink:href="#glyph0-5" x="274.964844" y="312.88878"/>
  <use xlink:href="#glyph0-6" x="283.020399" y="312.88878"/>
  <use xlink:href="#glyph0-4" x="287.464844" y="312.88878"/>
  <use xlink:href="#glyph0-7" x="291.63151" y="312.88878"/>
  <use xlink:href="#glyph0-2" x="300.242622" y="312.88878"/>
  <use xlink:href="#glyph0-2" x="305.242622" y="312.88878"/>
  <use xlink:href="#glyph0-8" x="310.242622" y="312.88878"/>
  <use xlink:href="#glyph0-9" x="318.020399" y="312.88878"/>
  <use xlink:href="#glyph0-2" x="326.075955" y="312.88878"/>
  <use xlink:href="#glyph0-8" x="331.075955" y="312.88878"/>
</g>
<path style="fill-rule:evenodd;fill:rgb(100%,100%,100%);fill-opacity:1;stroke-width:0.1;stroke-linecap:butt;stroke-linejoin:miter;stroke:rgb(0%,0%,0%);stroke-opacity:1;stroke-miterlimit:10;" d="M 50.200039 4.5 C 49.923867 4.5 49.700039 4.723828 49.700039 5 L 49.700039 5.8 C 49.700039 6.076172 49.923867 6.3 50.200039 6.3 L 56.4225 6.3 C 56.698672 6.3 56.9225 6.076172 56.9225 5.8 L 56.9225 5 C 56.9225 4.723828 56.698672 4.5 56.4225 4.5 Z M 50.200039 4.5 " transform="matrix(20,0,0,20,-765.075,22)"/>
<g style="fill:rgb(0%,0%,0%);fill-opacity:1;">
  <use xlink:href="#glyph0-1" x="238.804688" y="133.88878"/>
  <use xlink:href="#glyph0-2" x="246.860243" y="133.88878"/>
  <use xlink:href="#glyph0-3" x="251.860243" y="133.88878"/>
  <use xlink:href="#glyph0-2" x="259.638021" y="133.88878"/>
  <use xlink:href="#glyph0-4" x="264.638021" y="133.88878"/>
  <use xlink:href="#glyph0-10" x="268.804688" y="133.88878"/>
  <use xlink:href="#glyph0-6" x="276.860243" y="133.88878"/>
  <use xlink:href="#glyph0-4" x="281.304688" y="133.88878"/>
  <use xlink:href="#glyph0-11" x="285.471354" y="133.88878"/>
  <use xlink:href="#glyph0-9" x="289.360243" y="133.88878"/>
  <use xlink:href="#glyph0-12" x="297.415799" y="133.88878"/>
  <use xlink:href="#glyph0-2" x="301.02691" y="133.88878"/>
  <use xlink:href="#glyph0-12" x="306.02691" y="133.88878"/>
  <use xlink:href="#glyph0-3" x="309.638021" y="133.88878"/>
  <use xlink:href="#glyph0-13" x="317.415799" y="133.88878"/>
  <use xlink:href="#glyph0-12" x="321.02691" y="133.88878"/>
  <use xlink:href="#glyph0-14" x="324.638021" y="133.88878"/>
  <use xlink:href="#glyph0-3" x="331.304688" y="133.88878"/>
  <use xlink:href="#glyph0-2" x="339.082465" y="133.88878"/>
  <use xlink:href="#glyph0-12" x="344.082465" y="133.88878"/>
  <use xlink:href="#glyph0-15" x="347.693576" y="133.88878"/>
  <use xlink:href="#glyph0-9" x="355.471354" y="133.88878"/>
</g>
<path style=" stroke:none;fill-rule:evenodd;fill:rgb(0%,0%,0%);fill-opacity:1;" d="M 306.925781 61 C 306.925781 66.523438 302.449219 71 296.925781 71 C 291.402344 71 286.925781 66.523438 286.925781 61 C 286.925781 55.476562 291.402344 51 296.925781 51 C 302.449219 51 306.925781 55.476562 306.925781 61 "/>
<path style="fill-rule:evenodd;fill:rgb(100%,100%,100%);fill-opacity:1;stroke-width:0.1;stroke-linecap:butt;stroke-linejoin:miter;stroke:rgb(0%,0%,0%);stroke-opacity:1;stroke-miterlimit:10;" d="M 68.519961 22.85 C 68.243789 22.85 68.019961 23.073828 68.019961 23.35 L 68.019961 24.15 C 68.019961 24.426172 68.243789 24.65 68.519961 24.65 L 73.985 24.65 C 74.261172 24.65 74.485 24.426172 74.485 24.15 L 74.485 23.35 C 74.485 23.073828 74.261172 22.85 73.985 22.85 Z M 68.519961 22.85 " transform="matrix(20,0,0,20,-765.075,22)"/>
<g style="fill:rgb(0%,0%,0%);fill-opacity:1;">
  <use xlink:href="#glyph0-1" x="605.40625" y="500.88878"/>
  <use xlink:href="#glyph0-2" x="613.461806" y="500.88878"/>
  <use xlink:href="#glyph0-3" x="618.461806" y="500.88878"/>
  <use xlink:href="#glyph0-2" x="626.239583" y="500.88878"/>
  <use xlink:href="#glyph0-4" x="631.239583" y="500.88878"/>
  <use xlink:href="#glyph0-16" x="635.40625" y="500.88878"/>
  <use xlink:href="#glyph0-6" x="643.461806" y="500.88878"/>
  <use xlink:href="#glyph0-4" x="647.90625" y="500.88878"/>
  <use xlink:href="#glyph0-17" x="652.072917" y="500.88878"/>
  <use xlink:href="#glyph0-2" x="660.128472" y="500.88878"/>
  <use xlink:href="#glyph0-3" x="665.128472" y="500.88878"/>
  <use xlink:href="#glyph0-2" x="672.90625" y="500.88878"/>
  <use xlink:href="#glyph0-18" x="677.90625" y="500.88878"/>
  <use xlink:href="#glyph0-19" x="685.961806" y="500.88878"/>
  <use xlink:href="#glyph0-20" x="690.684028" y="500.88878"/>
  <use xlink:href="#glyph0-18" x="698.739583" y="500.88878"/>
  <use xlink:href="#glyph0-15" x="706.795139" y="500.88878"/>
</g>
<path style="fill-rule:evenodd;fill:rgb(100%,100%,100%);fill-opacity:1;stroke-width:0.1;stroke-linecap:butt;stroke-linejoin:miter;stroke:rgb(0%,0%,0%);stroke-opacity:1;stroke-miterlimit:10;" d="M 42.990078 29.8 C 42.713906 29.8 42.490078 30.023828 42.490078 30.3 L 42.490078 31.1 C 42.490078 31.376172 42.713906 31.6 42.990078 31.6 L 48.057461 31.6 C 48.333633 31.6 48.557461 31.376172 48.557461 31.1 L 48.557461 30.3 C 48.557461 30.023828 48.333633 29.8 48.057461 29.8 Z M 42.990078 29.8 " transform="matrix(20,0,0,20,-765.075,22)"/>
<g style="fill:rgb(0%,0%,0%);fill-opacity:1;">
  <use xlink:href="#glyph0-1" x="94.714844" y="639.88878"/>
  <use xlink:href="#glyph0-2" x="102.770399" y="639.88878"/>
  <use xlink:href="#glyph0-3" x="107.770399" y="639.88878"/>
  <use xlink:href="#glyph0-2" x="115.548177" y="639.88878"/>
  <use xlink:href="#glyph0-4" x="120.548177" y="639.88878"/>
  <use xlink:href="#glyph0-21" x="124.714844" y="639.88878"/>
  <use xlink:href="#glyph0-6" x="132.770399" y="639.88878"/>
  <use xlink:href="#glyph0-4" x="137.214844" y="639.88878"/>
  <use xlink:href="#glyph0-22" x="141.38151" y="639.88878"/>
  <use xlink:href="#glyph0-23" x="147.770399" y="639.88878"/>
  <use xlink:href="#glyph0-8" x="152.770399" y="639.88878"/>
  <use xlink:href="#glyph0-12" x="160.825955" y="639.88878"/>
  <use xlink:href="#glyph0-9" x="164.437066" y="639.88878"/>
  <use xlink:href="#glyph0-3" x="172.492622" y="639.88878"/>
  <use xlink:href="#glyph0-24" x="180.270399" y="639.88878"/>
  <use xlink:href="#glyph0-8" x="188.325955" y="639.88878"/>
</g>
<path style="fill-rule:evenodd;fill:rgb(100%,100%,100%);fill-opacity:1;stroke-width:0.1;stroke-linecap:butt;stroke-linejoin:miter;stroke:rgb(0%,0%,0%);stroke-opacity:1;stroke-miterlimit:10;" d="M 66.76 14.2 C 66.483828 14.2 66.26 14.423828 66.26 14.7 L 66.26 15.5 C 66.26 15.776172 66.483828 16 66.76 16 L 70.869961 16 C 71.146133 16 71.369961 15.776172 71.369961 15.5 L 71.369961 14.7 C 71.369961 14.423828 71.146133 14.2 70.869961 14.2 Z M 66.76 14.2 " transform="matrix(20,0,0,20,-765.075,22)"/>
<g style="fill:rgb(0%,0%,0%);fill-opacity:1;">
  <use xlink:href="#glyph0-1" x="570.132812" y="327.88878"/>
  <use xlink:href="#glyph0-2" x="578.188368" y="327.88878"/>
  <use xlink:href="#glyph0-3" x="583.188368" y="327.88878"/>
  <use xlink:href="#glyph0-2" x="590.966146" y="327.88878"/>
  <use xlink:href="#glyph0-4" x="595.966146" y="327.88878"/>
  <use xlink:href="#glyph0-25" x="600.132812" y="327.88878"/>
  <use xlink:href="#glyph0-6" x="608.188368" y="327.88878"/>
  <use xlink:href="#glyph0-4" x="612.632812" y="327.88878"/>
  <use xlink:href="#glyph0-26" x="616.799479" y="327.88878"/>
  <use xlink:href="#glyph0-15" x="625.132812" y="327.88878"/>
  <use xlink:href="#glyph0-18" x="632.91059" y="327.88878"/>
  <use xlink:href="#glyph0-13" x="640.966146" y="327.88878"/>
  <use xlink:href="#glyph0-8" x="644.577257" y="327.88878"/>
</g>
<path style="fill-rule:evenodd;fill:rgb(100%,100%,100%);fill-opacity:1;stroke-width:0.1;stroke-linecap:butt;stroke-linejoin:miter;stroke:rgb(0%,0%,0%);stroke-opacity:1;stroke-miterlimit:10;" d="M 68.179922 31.45 C 67.903945 31.45 67.679922 31.673828 67.679922 31.95 L 67.679922 32.75 C 67.679922 33.026172 67.903945 33.25 68.179922 33.25 L 74.944961 33.25 C 75.221133 33.25 75.444961 33.026172 75.444961 32.75 L 75.444961 31.95 C 75.444961 31.673828 75.221133 31.45 74.944961 31.45 Z M 68.179922 31.45 " transform="matrix(20,0,0,20,-765.075,22)"/>
<g style="fill:rgb(0%,0%,0%);fill-opacity:1;">
  <use xlink:href="#glyph0-1" x="598.832031" y="672.88878"/>
  <use xlink:href="#glyph0-2" x="606.887587" y="672.88878"/>
  <use xlink:href="#glyph0-3" x="611.887587" y="672.88878"/>
  <use xlink:href="#glyph0-2" x="619.665365" y="672.88878"/>
  <use xlink:href="#glyph0-4" x="624.665365" y="672.88878"/>
  <use xlink:href="#glyph0-27" x="628.832031" y="672.88878"/>
  <use xlink:href="#glyph0-6" x="636.887587" y="672.88878"/>
  <use xlink:href="#glyph0-4" x="641.332031" y="672.88878"/>
  <use xlink:href="#glyph0-28" x="645.498698" y="672.88878"/>
  <use xlink:href="#glyph0-8" x="655.22092" y="672.88878"/>
  <use xlink:href="#glyph0-29" x="662.998698" y="672.88878"/>
  <use xlink:href="#glyph0-29" x="669.943142" y="672.88878"/>
  <use xlink:href="#glyph0-8" x="676.887587" y="672.88878"/>
  <use xlink:href="#glyph0-13" x="684.665365" y="672.88878"/>
  <use xlink:href="#glyph0-8" x="688.276476" y="672.88878"/>
  <use xlink:href="#glyph0-23" x="696.054253" y="672.88878"/>
  <use xlink:href="#glyph0-3" x="701.332031" y="672.88878"/>
  <use xlink:href="#glyph0-2" x="709.109809" y="672.88878"/>
  <use xlink:href="#glyph0-12" x="714.109809" y="672.88878"/>
  <use xlink:href="#glyph0-15" x="717.72092" y="672.88878"/>
  <use xlink:href="#glyph0-9" x="725.498698" y="672.88878"/>
</g>
<path style="fill-rule:evenodd;fill:rgb(100%,100%,100%);fill-opacity:1;stroke-width:0.1;stroke-linecap:butt;stroke-linejoin:miter;stroke:rgb(0%,0%,0%);stroke-opacity:1;stroke-miterlimit:10;" d="M 40.519961 11.7 C 40.243789 11.7 40.019961 11.923828 40.019961 12.2 L 40.019961 13 C 40.019961 13.276172 40.243789 13.5 40.519961 13.5 L 44.632461 13.5 C 44.908633 13.5 45.132461 13.276172 45.132461 13 L 45.132461 12.2 C 45.132461 11.923828 44.908633 11.7 44.632461 11.7 Z M 40.519961 11.7 " transform="matrix(20,0,0,20,-765.075,22)"/>
<g style="fill:rgb(0%,0%,0%);fill-opacity:1;">
  <use xlink:href="#glyph0-1" x="45.355469" y="277.88878"/>
  <use xlink:href="#glyph0-2" x="53.411024" y="277.88878"/>
  <use xlink:href="#glyph0-3" x="58.411024" y="277.88878"/>
  <use xlink:href="#glyph0-2" x="66.188802" y="277.88878"/>
  <use xlink:href="#glyph0-4" x="71.188802" y="277.88878"/>
  <use xlink:href="#glyph0-30" x="75.355469" y="277.88878"/>
  <use xlink:href="#glyph0-6" x="83.411024" y="277.88878"/>
  <use xlink:href="#glyph0-4" x="87.855469" y="277.88878"/>
  <use xlink:href="#glyph0-26" x="92.022135" y="277.88878"/>
  <use xlink:href="#glyph0-8" x="100.355469" y="277.88878"/>
  <use xlink:href="#glyph0-14" x="108.133247" y="277.88878"/>
  <use xlink:href="#glyph0-8" x="114.799913" y="277.88878"/>
  <use xlink:href="#glyph0-2" x="122.577691" y="277.88878"/>
</g>
<path style="fill:none;stroke-width:0.1;stroke-linecap:butt;stroke-linejoin:miter;stroke:rgb(0%,0%,0%);stroke-opacity:1;stroke-miterlimit:10;" d="M 52.941641 12.551758 L 53.262148 6.349414 " transform="matrix(20,0,0,20,-765.075,22)"/>
<path style="fill-rule:evenodd;fill:rgb(0%,0%,0%);fill-opacity:1;stroke-width:0.1;stroke-linecap:butt;stroke-linejoin:miter;stroke:rgb(0%,0%,0%);stroke-opacity:1;stroke-miterlimit:10;" d="M 52.692031 12.538867 L 52.90043 13.350586 L 53.19125 12.564648 Z M 52.692031 12.538867 " transform="matrix(20,0,0,20,-765.075,22)"/>
<path style="fill:none;stroke-width:0.1;stroke-linecap:butt;stroke-linejoin:miter;stroke:rgb(0%,0%,0%);stroke-opacity:1;stroke-miterlimit:10;" d="M 65.361172 14.937695 L 55.7475 14.486133 " transform="matrix(20,0,0,20,-765.075,22)"/>
<path style="fill-rule:evenodd;fill:rgb(0%,0%,0%);fill-opacity:1;stroke-width:0.1;stroke-linecap:butt;stroke-linejoin:miter;stroke:rgb(0%,0%,0%);stroke-opacity:1;stroke-miterlimit:10;" d="M 65.349453 15.1875 L 66.160195 14.975391 L 65.372891 14.688086 Z M 65.349453 15.1875 " transform="matrix(20,0,0,20,-765.075,22)"/>
<path style="fill:none;stroke-width:0.1;stroke-linecap:butt;stroke-linejoin:miter;stroke:rgb(0%,0%,0%);stroke-opacity:1;stroke-miterlimit:10;" d="M 70.754727 21.983594 L 69.082266 16.048242 " transform="matrix(20,0,0,20,-765.075,22)"/>
<path style="fill-rule:evenodd;fill:rgb(0%,0%,0%);fill-opacity:1;stroke-width:0.1;stroke-linecap:butt;stroke-linejoin:miter;stroke:rgb(0%,0%,0%);stroke-opacity:1;stroke-miterlimit:10;" d="M 70.514102 22.051367 L 70.971719 22.753711 L 70.995352 21.91582 Z M 70.514102 22.051367 " transform="matrix(20,0,0,20,-765.075,22)"/>
<path style="fill:none;stroke-width:0.1;stroke-linecap:butt;stroke-linejoin:miter;stroke:rgb(0%,0%,0%);stroke-opacity:1;stroke-miterlimit:10;" d="M 71.497695 30.550977 L 71.286758 24.699609 " transform="matrix(20,0,0,20,-765.075,22)"/>
<path style="fill-rule:evenodd;fill:rgb(0%,0%,0%);fill-opacity:1;stroke-width:0.1;stroke-linecap:butt;stroke-linejoin:miter;stroke:rgb(0%,0%,0%);stroke-opacity:1;stroke-miterlimit:10;" d="M 71.247891 30.559961 L 71.526406 31.350391 L 71.7475 30.541992 Z M 71.247891 30.559961 " transform="matrix(20,0,0,20,-765.075,22)"/>
<path style="fill:none;stroke-width:0.1;stroke-linecap:butt;stroke-linejoin:miter;stroke:rgb(0%,0%,0%);stroke-opacity:1;stroke-miterlimit:10;" d="M 49.455703 30.949219 L 67.629922 32.100781 " transform="matrix(20,0,0,20,-765.075,22)"/>
<path style="fill-rule:evenodd;fill:rgb(0%,0%,0%);fill-opacity:1;stroke-width:0.1;stroke-linecap:butt;stroke-linejoin:miter;stroke:rgb(0%,0%,0%);stroke-opacity:1;stroke-miterlimit:10;" d="M 49.471523 30.699609 L 48.657266 30.898633 L 49.439883 31.198633 Z M 49.471523 30.699609 " transform="matrix(20,0,0,20,-765.075,22)"/>
<path style="fill:none;stroke-width:0.1;stroke-linecap:butt;stroke-linejoin:miter;stroke:rgb(0%,0%,0%);stroke-opacity:1;stroke-miterlimit:10;" d="M 49.42543 29.646094 L 67.970156 24.636719 " transform="matrix(20,0,0,20,-765.075,22)"/>
<path style="fill-rule:evenodd;fill:rgb(0%,0%,0%);fill-opacity:1;stroke-width:0.1;stroke-linecap:butt;stroke-linejoin:miter;stroke:rgb(0%,0%,0%);stroke-opacity:1;stroke-miterlimit:10;" d="M 49.360195 29.404688 L 48.652969 29.854688 L 49.490664 29.8875 Z M 49.360195 29.404688 " transform="matrix(20,0,0,20,-765.075,22)"/>
<path style="fill:none;stroke-width:0.1;stroke-linecap:butt;stroke-linejoin:miter;stroke:rgb(0%,0%,0%);stroke-opacity:1;stroke-miterlimit:10;" d="M 47.647305 29.277734 L 67.397695 16.049219 " transform="matrix(20,0,0,20,-765.075,22)"/>
<path style="fill-rule:evenodd;fill:rgb(0%,0%,0%);fill-opacity:1;stroke-width:0.1;stroke-linecap:butt;stroke-linejoin:miter;stroke:rgb(0%,0%,0%);stroke-opacity:1;stroke-miterlimit:10;" d="M 47.508242 29.069922 L 46.982656 29.722852 L 47.786367 29.485352 Z M 47.508242 29.069922 " transform="matrix(20,0,0,20,-765.075,22)"/>
<path style="fill:none;stroke-width:0.1;stroke-linecap:butt;stroke-linejoin:miter;stroke:rgb(0%,0%,0%);stroke-opacity:1;stroke-miterlimit:10;" d="M 46.295156 28.97832 L 52.424844 15.296094 " transform="matrix(20,0,0,20,-765.075,22)"/>
<path style="fill-rule:evenodd;fill:rgb(0%,0%,0%);fill-opacity:1;stroke-width:0.1;stroke-linecap:butt;stroke-linejoin:miter;stroke:rgb(0%,0%,0%);stroke-opacity:1;stroke-miterlimit:10;" d="M 46.067031 28.875977 L 45.968008 29.708398 L 46.523281 29.080469 Z M 46.067031 28.875977 " transform="matrix(20,0,0,20,-765.075,22)"/>
<path style="fill:none;stroke-width:0.1;stroke-linecap:butt;stroke-linejoin:miter;stroke:rgb(0%,0%,0%);stroke-opacity:1;stroke-miterlimit:10;" d="M 44.698672 11.176367 L 51.894766 6.350195 " transform="matrix(20,0,0,20,-765.075,22)"/>
<path style="fill-rule:evenodd;fill:rgb(0%,0%,0%);fill-opacity:1;stroke-width:0.1;stroke-linecap:butt;stroke-linejoin:miter;stroke:rgb(0%,0%,0%);stroke-opacity:1;stroke-miterlimit:10;" d="M 44.559414 10.96875 L 44.034414 11.62207 L 44.83793 11.383984 Z M 44.559414 10.96875 " transform="matrix(20,0,0,20,-765.075,22)"/>
<path style="fill:none;stroke-width:0.1;stroke-linecap:butt;stroke-linejoin:miter;stroke:rgb(0%,0%,0%);stroke-opacity:1;stroke-miterlimit:10;" d="M 53.201406 3.604883 L 53.133633 2.5 " transform="matrix(20,0,0,20,-765.075,22)"/>
<path style="fill-rule:evenodd;fill:rgb(0%,0%,0%);fill-opacity:1;stroke-width:0.1;stroke-linecap:butt;stroke-linejoin:miter;stroke:rgb(0%,0%,0%);stroke-opacity:1;stroke-miterlimit:10;" d="M 52.951797 3.620117 L 53.250234 4.40332 L 53.45082 3.589648 Z M 52.951797 3.620117 " transform="matrix(20,0,0,20,-765.075,22)"/>
<path style="fill-rule:evenodd;fill:rgb(100%,100%,100%);fill-opacity:1;stroke-width:0.1;stroke-linecap:butt;stroke-linejoin:miter;stroke:rgb(0%,0%,0%);stroke-opacity:1;stroke-miterlimit:10;" d="M 47.850039 -1 L 60.390078 -1 L 60.990078 -0.4 L 60.990078 0.958398 L 47.850039 0.958398 Z M 47.850039 -1 " transform="matrix(20,0,0,20,-765.075,22)"/>
<path style="fill:none;stroke-width:0.05;stroke-linecap:butt;stroke-linejoin:miter;stroke:rgb(0%,0%,0%);stroke-opacity:1;stroke-miterlimit:10;" d="M 60.390078 -1 L 60.390078 -0.4 L 60.990078 -0.4 " transform="matrix(20,0,0,20,-765.075,22)"/>
<g style="fill:rgb(0%,0%,0%);fill-opacity:1;">
  <use xlink:href="#glyph1-1" x="198.925781" y="30.73367"/>
  <use xlink:href="#glyph1-2" x="209.203559" y="30.73367"/>
  <use xlink:href="#glyph1-3" x="219.481337" y="30.73367"/>
  <use xlink:href="#glyph1-4" x="229.759115" y="30.73367"/>
  <use xlink:href="#glyph1-5" x="240.036892" y="30.73367"/>
  <use xlink:href="#glyph1-3" x="250.31467" y="30.73367"/>
  <use xlink:href="#glyph1-6" x="260.592448" y="30.73367"/>
  <use xlink:href="#glyph1-6" x="270.870226" y="30.73367"/>
  <use xlink:href="#glyph1-7" x="281.148003" y="30.73367"/>
  <use xlink:href="#glyph1-8" x="291.425781" y="30.73367"/>
  <use xlink:href="#glyph1-6" x="301.703559" y="30.73367"/>
  <use xlink:href="#glyph1-3" x="311.981337" y="30.73367"/>
  <use xlink:href="#glyph1-9" x="322.259115" y="30.73367"/>
  <use xlink:href="#glyph1-10" x="332.536892" y="30.73367"/>
  <use xlink:href="#glyph1-2" x="342.81467" y="30.73367"/>
  <use xlink:href="#glyph1-11" x="353.092448" y="30.73367"/>
  <use xlink:href="#glyph1-7" x="363.370226" y="30.73367"/>
  <use xlink:href="#glyph1-8" x="373.648003" y="30.73367"/>
  <use xlink:href="#glyph1-12" x="383.925781" y="30.73367"/>
  <use xlink:href="#glyph1-8" x="394.203559" y="30.73367"/>
  <use xlink:href="#glyph1-13" x="404.481337" y="30.73367"/>
  <use xlink:href="#glyph1-14" x="414.759115" y="30.73367"/>
  <use xlink:href="#glyph1-3" x="425.036892" y="30.73367"/>
  <use xlink:href="#glyph1-14" x="435.31467" y="30.73367"/>
</g>
<g style="fill:rgb(0%,0%,0%);fill-opacity:1;">
  <use xlink:href="#glyph0-31" x="300.765625" y="185.005968"/>
  <use xlink:href="#glyph0-3" x="309.654514" y="185.005968"/>
  <use xlink:href="#glyph0-32" x="317.432292" y="185.005968"/>
  <use xlink:href="#glyph0-2" x="325.487847" y="185.005968"/>
  <use xlink:href="#glyph0-8" x="330.487847" y="185.005968"/>
  <use xlink:href="#glyph0-18" x="338.265625" y="185.005968"/>
  <use xlink:href="#glyph0-23" x="346.321181" y="185.005968"/>
  <use xlink:href="#glyph0-4" x="351.598958" y="185.005968"/>
  <use xlink:href="#glyph0-12" x="355.765625" y="185.005968"/>
  <use xlink:href="#glyph0-9" x="359.376736" y="185.005968"/>
  <use xlink:href="#glyph0-12" x="367.432292" y="185.005968"/>
  <use xlink:href="#glyph0-2" x="371.043403" y="185.005968"/>
  <use xlink:href="#glyph0-12" x="376.043403" y="185.005968"/>
  <use xlink:href="#glyph0-3" x="379.654514" y="185.005968"/>
  <use xlink:href="#glyph0-13" x="387.432292" y="185.005968"/>
  <use xlink:href="#glyph0-12" x="391.043403" y="185.005968"/>
  <use xlink:href="#glyph0-14" x="394.654514" y="185.005968"/>
  <use xlink:href="#glyph0-33" x="401.321181" y="185.005968"/>
</g>
<g style="fill:rgb(0%,0%,0%);fill-opacity:1;">
  <use xlink:href="#glyph0-34" x="342.855469" y="201.005968"/>
  <use xlink:href="#glyph0-34" x="352.855469" y="201.005968"/>
  <use xlink:href="#glyph0-4" x="362.855469" y="201.005968"/>
</g>
<g style="fill:rgb(0%,0%,0%);fill-opacity:1;">
  <use xlink:href="#glyph0-35" x="315.492188" y="217.005968"/>
  <use xlink:href="#glyph0-12" x="322.992188" y="217.005968"/>
  <use xlink:href="#glyph0-2" x="326.603299" y="217.005968"/>
  <use xlink:href="#glyph0-8" x="331.603299" y="217.005968"/>
  <use xlink:href="#glyph0-14" x="339.381076" y="217.005968"/>
  <use xlink:href="#glyph0-14" x="346.047743" y="217.005968"/>
  <use xlink:href="#glyph0-8" x="352.71441" y="217.005968"/>
  <use xlink:href="#glyph0-4" x="360.492188" y="217.005968"/>
  <use xlink:href="#glyph0-36" x="364.658854" y="217.005968"/>
  <use xlink:href="#glyph0-36" x="375.492188" y="217.005968"/>
  <use xlink:href="#glyph0-10" x="386.325521" y="217.005968"/>
</g>
<g style="fill:rgb(0%,0%,0%);fill-opacity:1;">
  <use xlink:href="#glyph0-34" x="342.855469" y="233.005968"/>
  <use xlink:href="#glyph0-34" x="352.855469" y="233.005968"/>
  <use xlink:href="#glyph0-4" x="362.855469" y="233.005968"/>
</g>
<g style="fill:rgb(0%,0%,0%);fill-opacity:1;">
  <use xlink:href="#glyph0-29" x="313.96875" y="249.005968"/>
  <use xlink:href="#glyph0-2" x="320.913194" y="249.005968"/>
  <use xlink:href="#glyph0-23" x="325.913194" y="249.005968"/>
  <use xlink:href="#glyph0-13" x="331.190972" y="249.005968"/>
  <use xlink:href="#glyph0-7" x="334.802083" y="249.005968"/>
  <use xlink:href="#glyph0-13" x="343.690972" y="249.005968"/>
  <use xlink:href="#glyph0-12" x="347.302083" y="249.005968"/>
  <use xlink:href="#glyph0-35" x="350.913194" y="249.005968"/>
  <use xlink:href="#glyph0-8" x="358.413194" y="249.005968"/>
  <use xlink:href="#glyph0-36" x="366.190972" y="249.005968"/>
  <use xlink:href="#glyph0-36" x="377.024306" y="249.005968"/>
  <use xlink:href="#glyph0-5" x="387.857639" y="249.005968"/>
</g>
<g style="fill:rgb(0%,0%,0%);fill-opacity:1;">
  <use xlink:href="#glyph0-31" x="410.765625" y="298.005968"/>
  <use xlink:href="#glyph0-3" x="419.654514" y="298.005968"/>
  <use xlink:href="#glyph0-32" x="427.432292" y="298.005968"/>
  <use xlink:href="#glyph0-2" x="435.487847" y="298.005968"/>
  <use xlink:href="#glyph0-8" x="440.487847" y="298.005968"/>
  <use xlink:href="#glyph0-18" x="448.265625" y="298.005968"/>
  <use xlink:href="#glyph0-23" x="456.321181" y="298.005968"/>
  <use xlink:href="#glyph0-4" x="461.598958" y="298.005968"/>
  <use xlink:href="#glyph0-37" x="465.765625" y="298.005968"/>
  <use xlink:href="#glyph0-4" x="476.598958" y="298.005968"/>
</g>
<g style="fill:rgb(0%,0%,0%);fill-opacity:1;">
  <use xlink:href="#glyph2-1" x="480.765625" y="298.005968"/>
</g>
<g style="fill:rgb(0%,0%,0%);fill-opacity:1;">
  <use xlink:href="#glyph0-34" x="437.855469" y="314.005968"/>
  <use xlink:href="#glyph0-34" x="447.855469" y="314.005968"/>
  <use xlink:href="#glyph0-4" x="457.855469" y="314.005968"/>
</g>
<g style="fill:rgb(0%,0%,0%);fill-opacity:1;">
  <use xlink:href="#glyph0-35" x="413.832031" y="330.005968"/>
  <use xlink:href="#glyph0-12" x="421.332031" y="330.005968"/>
  <use xlink:href="#glyph0-2" x="424.943142" y="330.005968"/>
  <use xlink:href="#glyph0-8" x="429.943142" y="330.005968"/>
  <use xlink:href="#glyph0-14" x="437.72092" y="330.005968"/>
  <use xlink:href="#glyph0-14" x="444.387587" y="330.005968"/>
  <use xlink:href="#glyph0-8" x="451.054253" y="330.005968"/>
  <use xlink:href="#glyph0-4" x="458.832031" y="330.005968"/>
  <use xlink:href="#glyph0-37" x="462.998698" y="330.005968"/>
  <use xlink:href="#glyph0-4" x="473.832031" y="330.005968"/>
  <use xlink:href="#glyph0-10" x="477.998698" y="330.005968"/>
</g>
<g style="fill:rgb(0%,0%,0%);fill-opacity:1;">
  <use xlink:href="#glyph0-31" x="570.015625" y="379.88878"/>
  <use xlink:href="#glyph0-3" x="578.904514" y="379.88878"/>
  <use xlink:href="#glyph0-32" x="586.682292" y="379.88878"/>
  <use xlink:href="#glyph0-2" x="594.737847" y="379.88878"/>
  <use xlink:href="#glyph0-8" x="599.737847" y="379.88878"/>
  <use xlink:href="#glyph0-18" x="607.515625" y="379.88878"/>
  <use xlink:href="#glyph0-23" x="615.571181" y="379.88878"/>
  <use xlink:href="#glyph0-4" x="620.848958" y="379.88878"/>
  <use xlink:href="#glyph0-38" x="625.015625" y="379.88878"/>
  <use xlink:href="#glyph0-4" x="635.848958" y="379.88878"/>
  <use xlink:href="#glyph0-10" x="640.015625" y="379.88878"/>
  <use xlink:href="#glyph0-39" x="648.071181" y="379.88878"/>
  <use xlink:href="#glyph0-21" x="652.237847" y="379.88878"/>
</g>
<g style="fill:rgb(0%,0%,0%);fill-opacity:1;">
  <use xlink:href="#glyph0-34" x="603.082031" y="395.88878"/>
  <use xlink:href="#glyph0-34" x="613.082031" y="395.88878"/>
  <use xlink:href="#glyph0-4" x="623.082031" y="395.88878"/>
</g>
<g style="fill:rgb(0%,0%,0%);fill-opacity:1;">
  <use xlink:href="#glyph0-35" x="579.058594" y="411.88878"/>
  <use xlink:href="#glyph0-12" x="586.558594" y="411.88878"/>
  <use xlink:href="#glyph0-2" x="590.169705" y="411.88878"/>
  <use xlink:href="#glyph0-8" x="595.169705" y="411.88878"/>
  <use xlink:href="#glyph0-14" x="602.947483" y="411.88878"/>
  <use xlink:href="#glyph0-14" x="609.614149" y="411.88878"/>
  <use xlink:href="#glyph0-8" x="616.280816" y="411.88878"/>
  <use xlink:href="#glyph0-4" x="624.058594" y="411.88878"/>
  <use xlink:href="#glyph0-37" x="628.22526" y="411.88878"/>
  <use xlink:href="#glyph0-4" x="639.058594" y="411.88878"/>
  <use xlink:href="#glyph0-10" x="643.22526" y="411.88878"/>
</g>
<g style="fill:rgb(0%,0%,0%);fill-opacity:1;">
  <use xlink:href="#glyph0-31" x="562.527344" y="550.88878"/>
  <use xlink:href="#glyph0-3" x="571.416233" y="550.88878"/>
  <use xlink:href="#glyph0-32" x="579.19401" y="550.88878"/>
  <use xlink:href="#glyph0-2" x="587.249566" y="550.88878"/>
  <use xlink:href="#glyph0-8" x="592.249566" y="550.88878"/>
  <use xlink:href="#glyph0-18" x="600.027344" y="550.88878"/>
  <use xlink:href="#glyph0-23" x="608.082899" y="550.88878"/>
  <use xlink:href="#glyph0-4" x="613.360677" y="550.88878"/>
  <use xlink:href="#glyph0-38" x="617.527344" y="550.88878"/>
  <use xlink:href="#glyph0-4" x="628.360677" y="550.88878"/>
</g>
<g style="fill:rgb(0%,0%,0%);fill-opacity:1;">
  <use xlink:href="#glyph2-2" x="632.527344" y="550.88878"/>
</g>
<g style="fill:rgb(0%,0%,0%);fill-opacity:1;">
  <use xlink:href="#glyph0-34" x="589.480469" y="566.88878"/>
  <use xlink:href="#glyph0-34" x="599.480469" y="566.88878"/>
  <use xlink:href="#glyph0-4" x="609.480469" y="566.88878"/>
</g>
<g style="fill:rgb(0%,0%,0%);fill-opacity:1;">
  <use xlink:href="#glyph0-29" x="563.777344" y="582.88878"/>
  <use xlink:href="#glyph0-3" x="570.721788" y="582.88878"/>
  <use xlink:href="#glyph0-32" x="578.499566" y="582.88878"/>
  <use xlink:href="#glyph0-2" x="586.555122" y="582.88878"/>
  <use xlink:href="#glyph0-8" x="591.555122" y="582.88878"/>
  <use xlink:href="#glyph0-18" x="599.332899" y="582.88878"/>
  <use xlink:href="#glyph0-23" x="607.388455" y="582.88878"/>
  <use xlink:href="#glyph0-4" x="612.666233" y="582.88878"/>
  <use xlink:href="#glyph0-37" x="616.832899" y="582.88878"/>
  <use xlink:href="#glyph0-4" x="627.666233" y="582.88878"/>
</g>
<g style="fill:rgb(0%,0%,0%);fill-opacity:1;">
  <use xlink:href="#glyph2-3" x="631.832899" y="582.88878"/>
</g>
<g style="fill:rgb(0%,0%,0%);fill-opacity:1;">
  <use xlink:href="#glyph0-31" x="293.175781" y="539.005968"/>
  <use xlink:href="#glyph0-3" x="302.06467" y="539.005968"/>
  <use xlink:href="#glyph0-32" x="309.842448" y="539.005968"/>
  <use xlink:href="#glyph0-2" x="317.898003" y="539.005968"/>
  <use xlink:href="#glyph0-8" x="322.898003" y="539.005968"/>
  <use xlink:href="#glyph0-18" x="330.675781" y="539.005968"/>
  <use xlink:href="#glyph0-23" x="338.731337" y="539.005968"/>
  <use xlink:href="#glyph0-4" x="344.009115" y="539.005968"/>
  <use xlink:href="#glyph0-38" x="348.175781" y="539.005968"/>
  <use xlink:href="#glyph0-4" x="359.009115" y="539.005968"/>
</g>
<g style="fill:rgb(0%,0%,0%);fill-opacity:1;">
  <use xlink:href="#glyph2-3" x="363.175781" y="539.005968"/>
</g>
<g style="fill:rgb(0%,0%,0%);fill-opacity:1;">
  <use xlink:href="#glyph0-40" x="327.492188" y="555.005968"/>
  <use xlink:href="#glyph0-40" x="331.936632" y="555.005968"/>
</g>
<g style="fill:rgb(0%,0%,0%);fill-opacity:1;">
  <use xlink:href="#glyph0-41" x="298.46875" y="571.005968"/>
  <use xlink:href="#glyph0-23" x="302.913194" y="571.005968"/>
  <use xlink:href="#glyph0-8" x="307.635417" y="571.005968"/>
  <use xlink:href="#glyph0-12" x="315.690972" y="571.005968"/>
  <use xlink:href="#glyph0-9" x="319.302083" y="571.005968"/>
  <use xlink:href="#glyph0-4" x="327.357639" y="571.005968"/>
  <use xlink:href="#glyph0-36" x="331.524306" y="571.005968"/>
  <use xlink:href="#glyph0-36" x="342.357639" y="571.005968"/>
  <use xlink:href="#glyph0-4" x="353.190972" y="571.005968"/>
  <use xlink:href="#glyph0-5" x="357.357639" y="571.005968"/>
</g>
<path style="fill:none;stroke-width:0.1;stroke-linecap:butt;stroke-linejoin:miter;stroke:rgb(0%,0%,0%);stroke-opacity:1;stroke-miterlimit:10;" d="M 72.200234 22.799805 C 74.300234 20.699805 79.602188 16.351953 71.899453 15.458008 " transform="matrix(20,0,0,20,-765.075,22)"/>
<path style="fill-rule:evenodd;fill:rgb(0%,0%,0%);fill-opacity:1;stroke-width:0.1;stroke-linecap:butt;stroke-linejoin:miter;stroke:rgb(0%,0%,0%);stroke-opacity:1;stroke-miterlimit:10;" d="M 71.526992 15.414844 L 72.052383 15.224219 L 71.899453 15.458008 L 71.994766 15.720898 Z M 71.526992 15.414844 " transform="matrix(20,0,0,20,-765.075,22)"/>
<g style="fill:rgb(0%,0%,0%);fill-opacity:1;">
  <use xlink:href="#glyph0-31" x="772.992188" y="385.88878"/>
  <use xlink:href="#glyph0-3" x="781.881076" y="385.88878"/>
  <use xlink:href="#glyph0-32" x="789.658854" y="385.88878"/>
  <use xlink:href="#glyph0-2" x="797.71441" y="385.88878"/>
  <use xlink:href="#glyph0-8" x="802.71441" y="385.88878"/>
  <use xlink:href="#glyph0-18" x="810.492188" y="385.88878"/>
  <use xlink:href="#glyph0-23" x="818.547743" y="385.88878"/>
  <use xlink:href="#glyph0-4" x="823.825521" y="385.88878"/>
  <use xlink:href="#glyph0-37" x="827.992188" y="385.88878"/>
  <use xlink:href="#glyph0-4" x="838.825521" y="385.88878"/>
</g>
<g style="fill:rgb(0%,0%,0%);fill-opacity:1;">
  <use xlink:href="#glyph2-1" x="842.992188" y="385.88878"/>
</g>
<g style="fill:rgb(0%,0%,0%);fill-opacity:1;">
  <use xlink:href="#glyph0-34" x="800.082031" y="401.88878"/>
  <use xlink:href="#glyph0-34" x="810.082031" y="401.88878"/>
  <use xlink:href="#glyph0-4" x="820.082031" y="401.88878"/>
</g>
<g style="fill:rgb(0%,0%,0%);fill-opacity:1;">
  <use xlink:href="#glyph0-35" x="776.058594" y="417.88878"/>
  <use xlink:href="#glyph0-12" x="783.558594" y="417.88878"/>
  <use xlink:href="#glyph0-2" x="787.169705" y="417.88878"/>
  <use xlink:href="#glyph0-8" x="792.169705" y="417.88878"/>
  <use xlink:href="#glyph0-14" x="799.947483" y="417.88878"/>
  <use xlink:href="#glyph0-14" x="806.614149" y="417.88878"/>
  <use xlink:href="#glyph0-8" x="813.280816" y="417.88878"/>
  <use xlink:href="#glyph0-4" x="821.058594" y="417.88878"/>
  <use xlink:href="#glyph0-37" x="825.22526" y="417.88878"/>
  <use xlink:href="#glyph0-4" x="836.058594" y="417.88878"/>
  <use xlink:href="#glyph0-10" x="840.22526" y="417.88878"/>
</g>
<path style="fill:none;stroke-width:0.1;stroke-linecap:butt;stroke-linejoin:miter;stroke:rgb(0%,0%,0%);stroke-opacity:1;stroke-miterlimit:10;" d="M 72.623867 31.401172 C 90.865078 15.151172 79.705313 12.339648 71.890859 14.320117 " transform="matrix(20,0,0,20,-765.075,22)"/>
<path style="fill-rule:evenodd;fill:rgb(0%,0%,0%);fill-opacity:1;stroke-width:0.1;stroke-linecap:butt;stroke-linejoin:miter;stroke:rgb(0%,0%,0%);stroke-opacity:1;stroke-miterlimit:10;" d="M 71.527383 14.412305 L 71.950625 14.04707 L 71.890859 14.320117 L 72.073477 14.531836 Z M 71.527383 14.412305 " transform="matrix(20,0,0,20,-765.075,22)"/>
<path style="fill-rule:evenodd;fill:rgb(100%,100%,100%);fill-opacity:1;stroke-width:0.1;stroke-linecap:butt;stroke-linejoin:miter;stroke:rgb(0%,0%,0%);stroke-opacity:1;stroke-miterlimit:10;" d="M 66.850039 5.35 L 70.615078 5.35 L 71.215078 5.95 L 71.215078 9.45 L 66.850039 9.45 Z M 66.850039 5.35 " transform="matrix(20,0,0,20,-765.075,22)"/>
<path style="fill:none;stroke-width:0.05;stroke-linecap:butt;stroke-linejoin:miter;stroke:rgb(0%,0%,0%);stroke-opacity:1;stroke-miterlimit:10;" d="M 70.615078 5.35 L 70.615078 5.95 L 71.215078 5.95 " transform="matrix(20,0,0,20,-765.075,22)"/>
<g style="fill:rgb(0%,0%,0%);fill-opacity:1;">
  <use xlink:href="#glyph3-1" x="578.925781" y="153.88878"/>
  <use xlink:href="#glyph3-2" x="586.703559" y="153.88878"/>
  <use xlink:href="#glyph3-3" x="594.481337" y="153.88878"/>
  <use xlink:href="#glyph3-4" x="602.259115" y="153.88878"/>
  <use xlink:href="#glyph3-5" x="610.036892" y="153.88878"/>
</g>
<g style="fill:rgb(0%,0%,0%);fill-opacity:1;">
  <use xlink:href="#glyph4-1" x="578.925781" y="169.88878"/>
  <use xlink:href="#glyph4-1" x="586.703559" y="169.88878"/>
  <use xlink:href="#glyph4-1" x="594.481337" y="169.88878"/>
  <use xlink:href="#glyph4-2" x="602.259115" y="169.88878"/>
  <use xlink:href="#glyph4-1" x="610.036892" y="169.88878"/>
  <use xlink:href="#glyph4-3" x="617.81467" y="169.88878"/>
  <use xlink:href="#glyph4-1" x="625.592448" y="169.88878"/>
  <use xlink:href="#glyph4-4" x="633.370226" y="169.88878"/>
  <use xlink:href="#glyph4-5" x="641.148003" y="169.88878"/>
</g>
<g style="fill:rgb(0%,0%,0%);fill-opacity:1;">
  <use xlink:href="#glyph4-1" x="578.925781" y="185.88878"/>
  <use xlink:href="#glyph4-1" x="586.703559" y="185.88878"/>
  <use xlink:href="#glyph4-1" x="594.481337" y="185.88878"/>
  <use xlink:href="#glyph4-6" x="602.259115" y="185.88878"/>
  <use xlink:href="#glyph4-1" x="610.036892" y="185.88878"/>
  <use xlink:href="#glyph4-3" x="617.81467" y="185.88878"/>
  <use xlink:href="#glyph4-1" x="625.592448" y="185.88878"/>
  <use xlink:href="#glyph4-4" x="633.370226" y="185.88878"/>
  <use xlink:href="#glyph4-7" x="641.148003" y="185.88878"/>
</g>
<g style="fill:rgb(0%,0%,0%);fill-opacity:1;">
  <use xlink:href="#glyph4-1" x="578.925781" y="201.88878"/>
  <use xlink:href="#glyph4-1" x="586.703559" y="201.88878"/>
  <use xlink:href="#glyph4-1" x="594.481337" y="201.88878"/>
  <use xlink:href="#glyph4-8" x="602.259115" y="201.88878"/>
  <use xlink:href="#glyph4-1" x="610.036892" y="201.88878"/>
  <use xlink:href="#glyph4-3" x="617.81467" y="201.88878"/>
  <use xlink:href="#glyph4-1" x="625.592448" y="201.88878"/>
  <use xlink:href="#glyph4-1" x="633.370226" y="201.88878"/>
  <use xlink:href="#glyph4-9" x="641.148003" y="201.88878"/>
</g>
<path style="fill:none;stroke-width:0.1;stroke-linecap:butt;stroke-linejoin:miter;stroke:rgb(0%,0%,0%);stroke-opacity:1;stroke-miterlimit:10;" d="M 44.941836 29.750977 C 42.918008 26.450977 41.305508 11.54707 49.481094 13.532227 " transform="matrix(20,0,0,20,-765.075,22)"/>
<path style="fill-rule:evenodd;fill:rgb(0%,0%,0%);fill-opacity:1;stroke-width:0.1;stroke-linecap:butt;stroke-linejoin:miter;stroke:rgb(0%,0%,0%);stroke-opacity:1;stroke-miterlimit:10;" d="M 49.845547 13.620703 L 49.300625 13.745703 L 49.481094 13.532227 L 49.418594 13.259961 Z M 49.845547 13.620703 " transform="matrix(20,0,0,20,-765.075,22)"/>
<g style="fill:rgb(0%,0%,0%);fill-opacity:1;">
  <use xlink:href="#glyph0-35" x="2.492188" y="387.005968"/>
  <use xlink:href="#glyph0-12" x="9.992188" y="387.005968"/>
  <use xlink:href="#glyph0-2" x="13.603299" y="387.005968"/>
  <use xlink:href="#glyph0-8" x="18.603299" y="387.005968"/>
  <use xlink:href="#glyph0-14" x="26.381076" y="387.005968"/>
  <use xlink:href="#glyph0-14" x="33.047743" y="387.005968"/>
  <use xlink:href="#glyph0-8" x="39.71441" y="387.005968"/>
  <use xlink:href="#glyph0-4" x="47.492188" y="387.005968"/>
  <use xlink:href="#glyph0-36" x="51.658854" y="387.005968"/>
  <use xlink:href="#glyph0-36" x="62.492188" y="387.005968"/>
  <use xlink:href="#glyph0-10" x="73.325521" y="387.005968"/>
</g>
<g style="fill:rgb(0%,0%,0%);fill-opacity:1;">
  <use xlink:href="#glyph0-34" x="29.855469" y="403.005968"/>
  <use xlink:href="#glyph0-34" x="39.855469" y="403.005968"/>
  <use xlink:href="#glyph0-4" x="49.855469" y="403.005968"/>
</g>
<g style="fill:rgb(0%,0%,0%);fill-opacity:1;">
  <use xlink:href="#glyph0-29" x="8.039063" y="419.005968"/>
  <use xlink:href="#glyph0-3" x="14.983507" y="419.005968"/>
  <use xlink:href="#glyph0-32" x="22.761285" y="419.005968"/>
  <use xlink:href="#glyph0-2" x="30.81684" y="419.005968"/>
  <use xlink:href="#glyph0-8" x="35.81684" y="419.005968"/>
  <use xlink:href="#glyph0-18" x="43.594618" y="419.005968"/>
  <use xlink:href="#glyph0-23" x="51.650174" y="419.005968"/>
  <use xlink:href="#glyph0-37" x="56.927951" y="419.005968"/>
  <use xlink:href="#glyph0-10" x="67.761285" y="419.005968"/>
</g>
<g style="fill:rgb(0%,0%,0%);fill-opacity:1;">
  <use xlink:href="#glyph0-34" x="31.925781" y="435.005968"/>
  <use xlink:href="#glyph0-34" x="41.925781" y="435.005968"/>
</g>
<g style="fill:rgb(0%,0%,0%);fill-opacity:1;">
  <use xlink:href="#glyph0-29" x="5.832031" y="451.005968"/>
  <use xlink:href="#glyph0-3" x="12.776476" y="451.005968"/>
  <use xlink:href="#glyph0-32" x="20.554253" y="451.005968"/>
  <use xlink:href="#glyph0-2" x="28.609809" y="451.005968"/>
  <use xlink:href="#glyph0-8" x="33.609809" y="451.005968"/>
  <use xlink:href="#glyph0-18" x="41.387587" y="451.005968"/>
  <use xlink:href="#glyph0-23" x="49.443142" y="451.005968"/>
  <use xlink:href="#glyph0-38" x="54.72092" y="451.005968"/>
  <use xlink:href="#glyph0-4" x="65.554253" y="451.005968"/>
</g>
<g style="fill:rgb(0%,0%,0%);fill-opacity:1;">
  <use xlink:href="#glyph2-1" x="69.72092" y="451.005968"/>
</g>
<g style="fill:rgb(0%,0%,0%);fill-opacity:1;">
  <use xlink:href="#glyph0-34" x="31.925781" y="467.005968"/>
  <use xlink:href="#glyph0-34" x="41.925781" y="467.005968"/>
</g>
<g style="fill:rgb(0%,0%,0%);fill-opacity:1;">
  <use xlink:href="#glyph0-29" x="0.96875" y="483.005968"/>
  <use xlink:href="#glyph0-2" x="7.913194" y="483.005968"/>
  <use xlink:href="#glyph0-23" x="12.913194" y="483.005968"/>
  <use xlink:href="#glyph0-13" x="18.190972" y="483.005968"/>
  <use xlink:href="#glyph0-7" x="21.802083" y="483.005968"/>
  <use xlink:href="#glyph0-13" x="30.690972" y="483.005968"/>
  <use xlink:href="#glyph0-12" x="34.302083" y="483.005968"/>
  <use xlink:href="#glyph0-35" x="37.913194" y="483.005968"/>
  <use xlink:href="#glyph0-8" x="45.413194" y="483.005968"/>
  <use xlink:href="#glyph0-36" x="53.190972" y="483.005968"/>
  <use xlink:href="#glyph0-36" x="64.024306" y="483.005968"/>
  <use xlink:href="#glyph0-5" x="74.857639" y="483.005968"/>
</g>
<g style="fill:rgb(0%,0%,0%);fill-opacity:1;">
  <use xlink:href="#glyph0-34" x="31.925781" y="499.005968"/>
  <use xlink:href="#glyph0-34" x="41.925781" y="499.005968"/>
</g>
<g style="fill:rgb(0%,0%,0%);fill-opacity:1;">
  <use xlink:href="#glyph0-41" x="8.46875" y="515.005968"/>
  <use xlink:href="#glyph0-23" x="12.913194" y="515.005968"/>
  <use xlink:href="#glyph0-8" x="17.635417" y="515.005968"/>
  <use xlink:href="#glyph0-12" x="25.690972" y="515.005968"/>
  <use xlink:href="#glyph0-9" x="29.302083" y="515.005968"/>
  <use xlink:href="#glyph0-4" x="37.357639" y="515.005968"/>
  <use xlink:href="#glyph0-36" x="41.524306" y="515.005968"/>
  <use xlink:href="#glyph0-36" x="52.357639" y="515.005968"/>
  <use xlink:href="#glyph0-4" x="63.190972" y="515.005968"/>
  <use xlink:href="#glyph0-10" x="67.357639" y="515.005968"/>
</g>
</g>
</svg>
