ISO-10303-21;
HEADER;
FILE_DESCRIPTION (( 'STEP AP214' ),
    '1' );
FILE_NAME ('patte barre traction et ressort M12 V5avec détrompeur4mm.STEP',
    '2023-02-23T07:16:30',
    ( '' ),
    ( '' ),
    'SwSTEP 2.0',
    'SolidWorks 2019',
    '' );
FILE_SCHEMA (( 'AUTOMOTIVE_DESIGN' ));
ENDSEC;

DATA;
#1 = CARTESIAN_POINT ( 'NONE',  ( -15.99999999999996270, 35.00000000000000000, 4.000000000000000000 ) ) ;
#2 = CARTESIAN_POINT ( 'NONE',  ( 21.00000000000000355, -10.99999999999991829, 4.000000000000000000 ) ) ;
#3 = EDGE_LOOP ( 'NONE', ( #834, #178 ) ) ;
#4 = EDGE_CURVE ( 'NONE', #54, #807, #516, .T. ) ;
#5 = DIRECTION ( 'NONE',  ( -1.000000000000000000, 0.000000000000000000, 0.000000000000000000 ) ) ;
#6 = VERTEX_POINT ( 'NONE', #199 ) ;
#7 = EDGE_CURVE ( 'NONE', #903, #781, #125, .T. ) ;
#8 = DIRECTION ( 'NONE',  ( 1.000000000000000000, 0.000000000000000000, 0.000000000000000000 ) ) ;
#9 = VECTOR ( 'NONE', #744, 1000.000000000000000 ) ;
#10 = MECHANICAL_DESIGN_GEOMETRIC_PRESENTATION_REPRESENTATION (  '', ( #476 ), #716 ) ;
#11 = CARTESIAN_POINT ( 'NONE',  ( -15.99999999999996270, 35.00000000000000000, 0.000000000000000000 ) ) ;
#12 = DIRECTION ( 'NONE',  ( 1.000000000000000000, 0.000000000000000000, 0.000000000000000000 ) ) ;
#13 = APPLICATION_CONTEXT ( 'automotive_design' ) ;
#14 = CARTESIAN_POINT ( 'NONE',  ( -21.00000000000000355, -10.99999999999991829, 0.000000000000000000 ) ) ;
#15 = EDGE_CURVE ( 'NONE', #678, #102, #714, .T. ) ;
#16 =( NAMED_UNIT ( * ) SI_UNIT ( $, .STERADIAN. ) SOLID_ANGLE_UNIT ( ) );
#17 = DIRECTION ( 'NONE',  ( 0.000000000000000000, 0.000000000000000000, 1.000000000000000000 ) ) ;
#18 = CYLINDRICAL_SURFACE ( 'NONE', #330, 2.599999999999998312 ) ;
#19 = CARTESIAN_POINT ( 'NONE',  ( 15.61483519286546162, 35.00000000000000000, 0.000000000000000000 ) ) ;
#20 = AXIS2_PLACEMENT_3D ( 'NONE', #734, #90, #523 ) ;
#21 = CARTESIAN_POINT ( 'NONE',  ( 27.39999999999999858, 33.00000000000000000, 4.000000000000000000 ) ) ;
#22 = AXIS2_PLACEMENT_3D ( 'NONE', #815, #692, #886 ) ;
#23 = AXIS2_PLACEMENT_3D ( 'NONE', #237, #83, #787 ) ;
#24 = DIRECTION ( 'NONE',  ( -1.000000000000000000, 0.000000000000000000, 0.000000000000000000 ) ) ;
#25 = DIRECTION ( 'NONE',  ( -1.000000000000000000, 0.000000000000000000, 0.000000000000000000 ) ) ;
#26 = DIRECTION ( 'NONE',  ( -1.000000000000000000, 0.000000000000000000, 0.000000000000000000 ) ) ;
#27 = SURFACE_STYLE_FILL_AREA ( #447 ) ;
#28 = EDGE_CURVE ( 'NONE', #44, #754, #751, .T. ) ;
#29 = DIRECTION ( 'NONE',  ( 1.000000000000000000, 0.000000000000000000, 0.000000000000000000 ) ) ;
#30 = ORIENTED_EDGE ( 'NONE', *, *, #603, .F. ) ;
#31 = EDGE_CURVE ( 'NONE', #899, #479, #471, .T. ) ;
#32 = CARTESIAN_POINT ( 'NONE',  ( 15.61483519286546162, 35.00000000000000000, 4.000000000000000000 ) ) ;
#33 = DIRECTION ( 'NONE',  ( 0.000000000000000000, 0.000000000000000000, 1.000000000000000000 ) ) ;
#34 = FACE_BOUND ( 'NONE', #698, .T. ) ;
#35 = EDGE_LOOP ( 'NONE', ( #697, #420, #194, #402 ) ) ;
#36 = LINE ( 'NONE', #296, #877 ) ;
#37 = LINE ( 'NONE', #675, #390 ) ;
#38 = PLANE ( 'NONE',  #22 ) ;
#39 = VECTOR ( 'NONE', #395, 1000.000000000000000 ) ;
#40 = ORIENTED_EDGE ( 'NONE', *, *, #94, .T. ) ;
#41 = DIRECTION ( 'NONE',  ( -0.000000000000000000, -0.000000000000000000, -1.000000000000000000 ) ) ;
#42 = FACE_OUTER_BOUND ( 'NONE', #414, .T. ) ;
#43 = CARTESIAN_POINT ( 'NONE',  ( -21.00000000000000355, -10.99999999999991829, 4.000000000000000000 ) ) ;
#44 = VERTEX_POINT ( 'NONE', #179 ) ;
#45 = ORIENTED_EDGE ( 'NONE', *, *, #658, .F. ) ;
#46 = EDGE_CURVE ( 'NONE', #828, #149, #60, .T. ) ;
#47 = DIRECTION ( 'NONE',  ( -0.000000000000000000, -0.000000000000000000, -1.000000000000000000 ) ) ;
#48 = CARTESIAN_POINT ( 'NONE',  ( 32.59999999999999432, 33.00000000000000000, 4.000000000000000000 ) ) ;
#49 = ORIENTED_EDGE ( 'NONE', *, *, #483, .T. ) ;
#50 = EDGE_LOOP ( 'NONE', ( #468, #226, #449, #548 ) ) ;
#51 = DIRECTION ( 'NONE',  ( 0.000000000000000000, 0.000000000000000000, 1.000000000000000000 ) ) ;
#52 = AXIS2_PLACEMENT_3D ( 'NONE', #320, #826, #329 ) ;
#53 = VECTOR ( 'NONE', #76, 1000.000000000000227 ) ;
#54 = VERTEX_POINT ( 'NONE', #130 ) ;
#55 = DIRECTION ( 'NONE',  ( 0.000000000000000000, 0.000000000000000000, 1.000000000000000000 ) ) ;
#56 = AXIS2_PLACEMENT_3D ( 'NONE', #103, #454, #219 ) ;
#57 = ADVANCED_FACE ( 'NONE', ( #747 ), #888, .F. ) ;
#58 = DIRECTION ( 'NONE',  ( -0.000000000000000000, -0.000000000000000000, -1.000000000000000000 ) ) ;
#59 = ORIENTED_EDGE ( 'NONE', *, *, #463, .F. ) ;
#60 = LINE ( 'NONE', #478, #285 ) ;
#61 = EDGE_LOOP ( 'NONE', ( #270, #249, #192, #491 ) ) ;
#62 = CARTESIAN_POINT ( 'NONE',  ( 8.999999999999923617, -23.00000000000000355, 4.000000000000000000 ) ) ;
#63 = VERTEX_POINT ( 'NONE', #286 ) ;
#64 = CARTESIAN_POINT ( 'NONE',  ( 12.60000000000000142, -1.926391985027949113E-15, 0.000000000000000000 ) ) ;
#65 = ORIENTED_EDGE ( 'NONE', *, *, #443, .T. ) ;
#66 = AXIS2_PLACEMENT_3D ( 'NONE', #345, #134, #8 ) ;
#67 = DIRECTION ( 'NONE',  ( 0.000000000000000000, 0.000000000000000000, 1.000000000000000000 ) ) ;
#68 = ORIENTED_EDGE ( 'NONE', *, *, #399, .F. ) ;
#69 = EDGE_CURVE ( 'NONE', #269, #340, #816, .T. ) ;
#70 = CARTESIAN_POINT ( 'NONE',  ( 0.000000000000000000, -3.469446951953614189E-15, 0.000000000000000000 ) ) ;
#71 = ORIENTED_EDGE ( 'NONE', *, *, #424, .F. ) ;
#72 = CARTESIAN_POINT ( 'NONE',  ( 21.38516480713450818, 34.99999999999999289, 4.000000000000000000 ) ) ;
#73 = VERTEX_POINT ( 'NONE', #142 ) ;
#74 = LINE ( 'NONE', #212, #783 ) ;
#75 = CIRCLE ( 'NONE', #689, 2.000000000000001776 ) ;
#76 = DIRECTION ( 'NONE',  ( -0.9284766908852607470, -0.3713906763541000022, 0.000000000000000000 ) ) ;
#77 = VECTOR ( 'NONE', #87, 1000.000000000000000 ) ;
#78 = ADVANCED_FACE ( 'NONE', ( #768 ), #706, .F. ) ;
#79 = CARTESIAN_POINT ( 'NONE',  ( 16.35761654557367351, 35.14304661822948361, 4.000000000000000000 ) ) ;
#80 = EDGE_LOOP ( 'NONE', ( #351, #600, #302, #601 ) ) ;
#81 = PRESENTATION_STYLE_ASSIGNMENT (( #841 ) ) ;
#82 = DIRECTION ( 'NONE',  ( -0.000000000000000000, 0.000000000000000000, -1.000000000000000000 ) ) ;
#83 = DIRECTION ( 'NONE',  ( 0.000000000000000000, 0.000000000000000000, 1.000000000000000000 ) ) ;
#84 = CARTESIAN_POINT ( 'NONE',  ( 32.99999999999997868, 37.00000000000000000, 0.000000000000000000 ) ) ;
#85 = FACE_OUTER_BOUND ( 'NONE', #772, .T. ) ;
#86 = EDGE_CURVE ( 'NONE', #560, #524, #494, .T. ) ;
#87 = DIRECTION ( 'NONE',  ( -0.000000000000000000, -0.000000000000000000, -1.000000000000000000 ) ) ;
#88 = AXIS2_PLACEMENT_3D ( 'NONE', #431, #278, #906 ) ;
#89 = EDGE_CURVE ( 'NONE', #340, #624, #74, .T. ) ;
#90 = DIRECTION ( 'NONE',  ( 0.000000000000000000, 0.000000000000000000, 1.000000000000000000 ) ) ;
#91 = ORIENTED_EDGE ( 'NONE', *, *, #669, .T. ) ;
#92 = FACE_OUTER_BOUND ( 'NONE', #250, .T. ) ;
#93 = CARTESIAN_POINT ( 'NONE',  ( 13.29999999999999893, 28.00000000000000000, 0.000000000000000000 ) ) ;
#94 = EDGE_CURVE ( 'NONE', #624, #887, #486, .T. ) ;
#95 =( NAMED_UNIT ( * ) PLANE_ANGLE_UNIT ( ) SI_UNIT ( $, .RADIAN. ) );
#96 = FACE_OUTER_BOUND ( 'NONE', #312, .T. ) ;
#97 = ORIENTED_EDGE ( 'NONE', *, *, #531, .T. ) ;
#98 = DIRECTION ( 'NONE',  ( 0.000000000000000000, -1.000000000000000000, 0.000000000000000000 ) ) ;
#99 = DIRECTION ( 'NONE',  ( -0.000000000000000000, -0.000000000000000000, -1.000000000000000000 ) ) ;
#100 = DIRECTION ( 'NONE',  ( 1.000000000000000000, 0.000000000000000000, 0.000000000000000000 ) ) ;
#101 = LINE ( 'NONE', #252, #520 ) ;
#102 = VERTEX_POINT ( 'NONE', #145 ) ;
#103 = CARTESIAN_POINT ( 'NONE',  ( 13.29999999999999893, 28.00000000000000000, 4.000000000000000000 ) ) ;
#104 = DIRECTION ( 'NONE',  ( -0.000000000000000000, -0.000000000000000000, -1.000000000000000000 ) ) ;
#105 = AXIS2_PLACEMENT_3D ( 'NONE', #663, #82, #310 ) ;
#106 = CIRCLE ( 'NONE', #630, 2.000000000000001776 ) ;
#107 = AXIS2_PLACEMENT_3D ( 'NONE', #456, #541, #469 ) ;
#108 = DIRECTION ( 'NONE',  ( 0.000000000000000000, 0.000000000000000000, 1.000000000000000000 ) ) ;
#109 = EDGE_CURVE ( 'NONE', #73, #871, #853, .T. ) ;
#110 = ORIENTED_EDGE ( 'NONE', *, *, #86, .F. ) ;
#111 = ORIENTED_EDGE ( 'NONE', *, *, #4, .T. ) ;
#112 = CARTESIAN_POINT ( 'NONE',  ( 21.00000000000000355, 25.99999999999996447, 4.000000000000000000 ) ) ;
#113 = PLANE ( 'NONE',  #673 ) ;
#114 = ORIENTED_EDGE ( 'NONE', *, *, #205, .T. ) ;
#115 = ORIENTED_EDGE ( 'NONE', *, *, #86, .T. ) ;
#116 = FACE_OUTER_BOUND ( 'NONE', #35, .T. ) ;
#117 = ORIENTED_EDGE ( 'NONE', *, *, #870, .T. ) ;
#118 = DIRECTION ( 'NONE',  ( -1.000000000000000000, 0.000000000000000000, 0.000000000000000000 ) ) ;
#119 = EDGE_CURVE ( 'NONE', #479, #63, #727, .T. ) ;
#120 = EDGE_CURVE ( 'NONE', #211, #754, #798, .T. ) ;
#121 = CARTESIAN_POINT ( 'NONE',  ( 0.000000000000000000, -3.469446951953614189E-15, 4.000000000000000000 ) ) ;
#122 = VECTOR ( 'NONE', #694, 1000.000000000000000 ) ;
#123 = VECTOR ( 'NONE', #858, 1000.000000000000000 ) ;
#124 = ORIENTED_EDGE ( 'NONE', *, *, #277, .T. ) ;
#125 = LINE ( 'NONE', #409, #122 ) ;
#126 = AXIS2_PLACEMENT_3D ( 'NONE', #580, #98, #856 ) ;
#127 = ORIENTED_EDGE ( 'NONE', *, *, #615, .F. ) ;
#128 =( LENGTH_UNIT ( ) NAMED_UNIT ( * ) SI_UNIT ( .MILLI., .METRE. ) );
#129 = EDGE_LOOP ( 'NONE', ( #45, #758 ) ) ;
#130 = CARTESIAN_POINT ( 'NONE',  ( 32.59999999999999432, 33.00000000000000000, 0.000000000000000000 ) ) ;
#131 = ORIENTED_EDGE ( 'NONE', *, *, #463, .T. ) ;
#132 = UNCERTAINTY_MEASURE_WITH_UNIT (LENGTH_MEASURE( 1.000000000000000082E-05 ), #128, 'distance_accuracy_value', 'NONE');
#133 = CYLINDRICAL_SURFACE ( 'NONE', #728, 11.99999999999999822 ) ;
#134 = DIRECTION ( 'NONE',  ( 0.000000000000000000, 0.000000000000000000, 1.000000000000000000 ) ) ;
#135 = ORIENTED_EDGE ( 'NONE', *, *, #544, .F. ) ;
#136 = CARTESIAN_POINT ( 'NONE',  ( 20.64238345442629807, 36.85695338177051639, 0.000000000000000000 ) ) ;
#137 = DIRECTION ( 'NONE',  ( 0.000000000000000000, -0.000000000000000000, -1.000000000000000000 ) ) ;
#138 = PRODUCT_DEFINITION ( 'UNKNOWN', '', #317, #425 ) ;
#139 = PRESENTATION_LAYER_ASSIGNMENT (  '', '', ( #274 ) ) ;
#140 = EDGE_LOOP ( 'NONE', ( #660, #71, #146, #49 ) ) ;
#141 = CIRCLE ( 'NONE', #690, 12.60000000000000142 ) ;
#142 = CARTESIAN_POINT ( 'NONE',  ( 34.99999999999999289, 30.00000000000001776, 4.000000000000000000 ) ) ;
#143 = ORIENTED_EDGE ( 'NONE', *, *, #46, .F. ) ;
#144 = EDGE_CURVE ( 'NONE', #819, #584, #203, .T. ) ;
#145 = CARTESIAN_POINT ( 'NONE',  ( -10.29999999999999893, 28.00000000000000000, 0.000000000000000000 ) ) ;
#146 = ORIENTED_EDGE ( 'NONE', *, *, #848, .F. ) ;
#147 = ADVANCED_FACE ( 'NONE', ( #845 ), #712, .F. ) ;
#148 = CARTESIAN_POINT ( 'NONE',  ( -16.00000000000000000, 30.00000000000000355, 0.000000000000000000 ) ) ;
#149 = VERTEX_POINT ( 'NONE', #11 ) ;
#150 = AXIS2_PLACEMENT_3D ( 'NONE', #148, #562, #429 ) ;
#151 = CIRCLE ( 'NONE', #817, 4.999999999999997335 ) ;
#152 = CARTESIAN_POINT ( 'NONE',  ( -21.00000000000000355, -10.99999999999991829, 0.000000000000000000 ) ) ;
#153 = ADVANCED_FACE ( 'NONE', ( #633 ), #210, .T. ) ;
#154 = LINE ( 'NONE', #381, #907 ) ;
#155 = CARTESIAN_POINT ( 'NONE',  ( 23.00000000000000711, 27.99999999999997513, 4.000000000000000000 ) ) ;
#156 = LINE ( 'NONE', #152, #349 ) ;
#157 = CARTESIAN_POINT ( 'NONE',  ( 16.30000000000000071, 28.00000000000000000, 4.000000000000000000 ) ) ;
#158 = EDGE_CURVE ( 'NONE', #819, #236, #288, .T. ) ;
#159 = DIRECTION ( 'NONE',  ( -0.000000000000000000, -0.000000000000000000, -1.000000000000000000 ) ) ;
#160 = CARTESIAN_POINT ( 'NONE',  ( -16.00000000000000000, 30.00000000000000355, 4.000000000000000000 ) ) ;
#161 = PRESENTATION_STYLE_ASSIGNMENT (( #794 ) ) ;
#162 = DIRECTION ( 'NONE',  ( -0.000000000000000000, -0.000000000000000000, -1.000000000000000000 ) ) ;
#163 = ORIENTED_EDGE ( 'NONE', *, *, #691, .T. ) ;
#164 = CARTESIAN_POINT ( 'NONE',  ( -20.99999999999999645, 29.99999999999996803, 0.000000000000000000 ) ) ;
#165 = EDGE_CURVE ( 'NONE', #262, #540, #780, .T. ) ;
#166 = CIRCLE ( 'NONE', #150, 4.999999999999997335 ) ;
#167 = CARTESIAN_POINT ( 'NONE',  ( 34.99999999999999289, 34.99999999999998579, 4.000000000000000000 ) ) ;
#168 = CARTESIAN_POINT ( 'NONE',  ( 32.99999999999997868, 27.99999999999999645, 0.000000000000000000 ) ) ;
#169 = ORIENTED_EDGE ( 'NONE', *, *, #534, .T. ) ;
#170 = DIRECTION ( 'NONE',  ( -1.000000000000000000, 0.000000000000000000, 0.000000000000000000 ) ) ;
#171 = DIRECTION ( 'NONE',  ( -1.000000000000000000, 0.000000000000000000, 0.000000000000000000 ) ) ;
#172 = LINE ( 'NONE', #717, #459 ) ;
#173 = ORIENTED_EDGE ( 'NONE', *, *, #691, .F. ) ;
#174 = DIRECTION ( 'NONE',  ( -1.000000000000000000, 0.000000000000000000, 0.000000000000000000 ) ) ;
#175 = CARTESIAN_POINT ( 'NONE',  ( -8.999999999999920064, -23.00000000000000355, 4.000000000000000000 ) ) ;
#176 = EDGE_CURVE ( 'NONE', #903, #481, #555, .T. ) ;
#177 = DIRECTION ( 'NONE',  ( -0.000000000000000000, -0.000000000000000000, -1.000000000000000000 ) ) ;
#178 = ORIENTED_EDGE ( 'NONE', *, *, #615, .T. ) ;
#179 = CARTESIAN_POINT ( 'NONE',  ( -12.60000000000000142, -3.469446951953614189E-15, 4.000000000000000000 ) ) ;
#180 = CARTESIAN_POINT ( 'NONE',  ( 23.00000000000000711, 27.99999999999997513, 0.000000000000000000 ) ) ;
#181 = AXIS2_PLACEMENT_3D ( 'NONE', #93, #732, #314 ) ;
#182 = VECTOR ( 'NONE', #41, 1000.000000000000000 ) ;
#183 = CARTESIAN_POINT ( 'NONE',  ( 23.00000000000000711, 25.99999999999997868, 4.000000000000000000 ) ) ;
#184 = EDGE_LOOP ( 'NONE', ( #201, #610, #618, #709 ) ) ;
#185 = EDGE_LOOP ( 'NONE', ( #280, #763 ) ) ;
#186 = FACE_OUTER_BOUND ( 'NONE', #347, .T. ) ;
#187 = DIRECTION ( 'NONE',  ( -0.000000000000000000, -0.000000000000000000, -1.000000000000000000 ) ) ;
#188 = ORIENTED_EDGE ( 'NONE', *, *, #331, .T. ) ;
#189 = VERTEX_POINT ( 'NONE', #771 ) ;
#190 = EDGE_CURVE ( 'NONE', #485, #6, #839, .T. ) ;
#191 = DIRECTION ( 'NONE',  ( -0.000000000000000000, -0.000000000000000000, -1.000000000000000000 ) ) ;
#192 = ORIENTED_EDGE ( 'NONE', *, *, #531, .F. ) ;
#193 = ORIENTED_EDGE ( 'NONE', *, *, #509, .T. ) ;
#194 = ORIENTED_EDGE ( 'NONE', *, *, #28, .T. ) ;
#195 = CARTESIAN_POINT ( 'NONE',  ( 12.60000000000000142, -1.926391985027949113E-15, 4.000000000000000000 ) ) ;
#196 = VECTOR ( 'NONE', #842, 1000.000000000000000 ) ;
#197 = AXIS2_PLACEMENT_3D ( 'NONE', #239, #33, #591 ) ;
#198 = ORIENTED_EDGE ( 'NONE', *, *, #635, .T. ) ;
#199 = CARTESIAN_POINT ( 'NONE',  ( 8.999999999999923617, -23.00000000000000355, 0.000000000000000000 ) ) ;
#200 = CIRCLE ( 'NONE', #705, 11.99999999999999822 ) ;
#201 = ORIENTED_EDGE ( 'NONE', *, *, #852, .T. ) ;
#202 = FILL_AREA_STYLE ('',( #361 ) ) ;
#203 = LINE ( 'NONE', #484, #594 ) ;
#204 = VERTEX_POINT ( 'NONE', #279 ) ;
#205 = EDGE_CURVE ( 'NONE', #149, #781, #166, .T. ) ;
#206 = FACE_OUTER_BOUND ( 'NONE', #539, .T. ) ;
#207 = DIRECTION ( 'NONE',  ( 0.000000000000000000, -1.000000000000000000, 0.000000000000000000 ) ) ;
#208 = ORIENTED_EDGE ( 'NONE', *, *, #165, .T. ) ;
#209 = VECTOR ( 'NONE', #24, 1000.000000000000000 ) ;
#210 = CYLINDRICAL_SURFACE ( 'NONE', #688, 2.000000000000001776 ) ;
#211 = VERTEX_POINT ( 'NONE', #64 ) ;
#212 = CARTESIAN_POINT ( 'NONE',  ( 34.99999999999999289, 30.00000000000001776, 0.000000000000000000 ) ) ;
#213 = ADVANCED_FACE ( 'NONE', ( #480 ), #593, .F. ) ;
#214 = CARTESIAN_POINT ( 'NONE',  ( -21.00000000000000355, -10.99999999999991829, 4.000000000000000000 ) ) ;
#215 = ORIENTED_EDGE ( 'NONE', *, *, #354, .F. ) ;
#216 = DIRECTION ( 'NONE',  ( -0.000000000000000000, -0.000000000000000000, -1.000000000000000000 ) ) ;
#217 = CARTESIAN_POINT ( 'NONE',  ( 32.99999999999997868, 37.00000000000000000, 4.000000000000000000 ) ) ;
#218 = VERTEX_POINT ( 'NONE', #306 ) ;
#219 = DIRECTION ( 'NONE',  ( 1.000000000000000000, 0.000000000000000000, 0.000000000000000000 ) ) ;
#220 = AXIS2_PLACEMENT_3D ( 'NONE', #901, #108, #401 ) ;
#221 = AXIS2_PLACEMENT_3D ( 'NONE', #446, #99, #526 ) ;
#222 = CARTESIAN_POINT ( 'NONE',  ( -21.00000000000000355, -10.99999999999991829, 4.000000000000000000 ) ) ;
#223 = AXIS2_PLACEMENT_3D ( 'NONE', #440, #805, #100 ) ;
#224 = EDGE_CURVE ( 'NONE', #517, #560, #670, .T. ) ;
#225 = DIRECTION ( 'NONE',  ( 1.000000000000000000, 0.000000000000000000, 0.000000000000000000 ) ) ;
#226 = ORIENTED_EDGE ( 'NONE', *, *, #511, .F. ) ;
#227 = CARTESIAN_POINT ( 'NONE',  ( 0.000000000000000000, -3.469446951953614189E-15, 4.000000000000000000 ) ) ;
#228 = DIRECTION ( 'NONE',  ( -1.000000000000000000, 0.000000000000000000, 0.000000000000000000 ) ) ;
#229 = PRODUCT_CONTEXT ( 'NONE', #13, 'mechanical' ) ;
#230 = PRODUCT_RELATED_PRODUCT_CATEGORY ( 'part', '', ( #873 ) ) ;
#231 = DIRECTION ( 'NONE',  ( -0.9284766908852607470, -0.3713906763541000022, 0.000000000000000000 ) ) ;
#232 = ORIENTED_EDGE ( 'NONE', *, *, #144, .T. ) ;
#233 = CARTESIAN_POINT ( 'NONE',  ( 32.99999999999997868, 37.00000000000000000, 0.000000000000000000 ) ) ;
#234 = CARTESIAN_POINT ( 'NONE',  ( -16.30000000000000071, 28.00000000000000000, 0.000000000000000000 ) ) ;
#235 = DIRECTION ( 'NONE',  ( 0.000000000000000000, -0.000000000000000000, 1.000000000000000000 ) ) ;
#236 = VERTEX_POINT ( 'NONE', #242 ) ;
#237 = CARTESIAN_POINT ( 'NONE',  ( 32.99999999999999289, 30.00000000000000000, 4.000000000000000000 ) ) ;
#238 = VECTOR ( 'NONE', #851, 1000.000000000000000 ) ;
#239 = CARTESIAN_POINT ( 'NONE',  ( -13.29999999999999893, 28.00000000000000000, 4.000000000000000000 ) ) ;
#240 = CIRCLE ( 'NONE', #88, 2.000000000000001776 ) ;
#241 = CARTESIAN_POINT ( 'NONE',  ( 10.29999999999999893, 28.00000000000000000, 4.000000000000000000 ) ) ;
#242 = CARTESIAN_POINT ( 'NONE',  ( 21.00000000000000355, -10.99999999999991829, 0.000000000000000000 ) ) ;
#243 = ORIENTED_EDGE ( 'NONE', *, *, #561, .T. ) ;
#244 = PLANE ( 'NONE',  #126 ) ;
#245 = ADVANCED_FACE ( 'NONE', ( #659 ), #588, .F. ) ;
#246 = CYLINDRICAL_SURFACE ( 'NONE', #221, 2.000000000000001776 ) ;
#247 = SURFACE_SIDE_STYLE ('',( #27 ) ) ;
#248 = FACE_OUTER_BOUND ( 'NONE', #61, .T. ) ;
#249 = ORIENTED_EDGE ( 'NONE', *, *, #702, .F. ) ;
#250 = EDGE_LOOP ( 'NONE', ( #664, #337, #671, #276 ) ) ;
#251 = LINE ( 'NONE', #384, #373 ) ;
#252 = CARTESIAN_POINT ( 'NONE',  ( 34.99999999999999289, 30.00000000000001776, 4.000000000000000000 ) ) ;
#253 = ORIENTED_EDGE ( 'NONE', *, *, #224, .T. ) ;
#254 = ORIENTED_EDGE ( 'NONE', *, *, #284, .T. ) ;
#255 = CARTESIAN_POINT ( 'NONE',  ( -10.29999999999999893, 28.00000000000000000, 4.000000000000000000 ) ) ;
#256 = VECTOR ( 'NONE', #638, 1000.000000000000000 ) ;
#257 = VECTOR ( 'NONE', #216, 1000.000000000000000 ) ;
#258 = AXIS2_PLACEMENT_3D ( 'NONE', #719, #574, #881 ) ;
#259 = EDGE_CURVE ( 'NONE', #560, #262, #154, .T. ) ;
#260 = FACE_BOUND ( 'NONE', #779, .T. ) ;
#261 = ORIENTED_EDGE ( 'NONE', *, *, #259, .T. ) ;
#262 = VERTEX_POINT ( 'NONE', #79 ) ;
#263 = DIRECTION ( 'NONE',  ( -1.000000000000000000, 0.000000000000000000, 0.000000000000000000 ) ) ;
#264 = ADVANCED_FACE ( 'NONE', ( #786 ), #799, .F. ) ;
#265 = ORIENTED_EDGE ( 'NONE', *, *, #89, .F. ) ;
#266 = ORIENTED_EDGE ( 'NONE', *, *, #144, .F. ) ;
#267 = ORIENTED_EDGE ( 'NONE', *, *, #311, .T. ) ;
#268 = DIRECTION ( 'NONE',  ( -1.000000000000000000, 0.000000000000000000, 0.000000000000000000 ) ) ;
#269 = VERTEX_POINT ( 'NONE', #168 ) ;
#270 = ORIENTED_EDGE ( 'NONE', *, *, #368, .T. ) ;
#271 = ORIENTED_EDGE ( 'NONE', *, *, #739, .T. ) ;
#272 = CARTESIAN_POINT ( 'NONE',  ( 21.38516480713451529, 37.00000000000000000, 4.000000000000000000 ) ) ;
#273 = AXIS2_PLACEMENT_3D ( 'NONE', #646, #515, #653 ) ;
#274 = STYLED_ITEM ( 'NONE', ( #81 ), #546 ) ;
#275 = DIRECTION ( 'NONE',  ( 1.000000000000000000, 0.000000000000000000, 0.000000000000000000 ) ) ;
#276 = ORIENTED_EDGE ( 'NONE', *, *, #635, .F. ) ;
#277 = EDGE_CURVE ( 'NONE', #887, #189, #791, .T. ) ;
#278 = DIRECTION ( 'NONE',  ( -0.000000000000000000, -0.000000000000000000, -1.000000000000000000 ) ) ;
#279 = CARTESIAN_POINT ( 'NONE',  ( 21.00000000000000355, 25.99999999999996447, 0.000000000000000000 ) ) ;
#280 = ORIENTED_EDGE ( 'NONE', *, *, #852, .F. ) ;
#281 = DIRECTION ( 'NONE',  ( 1.000000000000000000, 0.000000000000000000, 0.000000000000000000 ) ) ;
#282 = ORIENTED_EDGE ( 'NONE', *, *, #259, .F. ) ;
#283 = ADVANCED_FACE ( 'NONE', ( #370, #366, #34, #583, #864 ), #729, .F. ) ;
#284 = EDGE_CURVE ( 'NONE', #807, #54, #857, .T. ) ;
#285 = VECTOR ( 'NONE', #764, 1000.000000000000000 ) ;
#286 = CARTESIAN_POINT ( 'NONE',  ( 16.30000000000000071, 28.00000000000000000, 0.000000000000000000 ) ) ;
#287 = AXIS2_PLACEMENT_3D ( 'NONE', #795, #861, #225 ) ;
#288 = LINE ( 'NONE', #2, #196 ) ;
#289 = VERTEX_POINT ( 'NONE', #644 ) ;
#290 = DIRECTION ( 'NONE',  ( -1.000000000000000000, 0.000000000000000000, 0.000000000000000000 ) ) ;
#291 = LINE ( 'NONE', #577, #847 ) ;
#292 = EDGE_LOOP ( 'NONE', ( #169, #30, #623, #208 ) ) ;
#293 = CARTESIAN_POINT ( 'NONE',  ( 20.64238345442629807, 36.85695338177051639, 4.000000000000000000 ) ) ;
#294 = LINE ( 'NONE', #217, #773 ) ;
#295 = AXIS2_PLACEMENT_3D ( 'NONE', #70, #352, #275 ) ;
#296 = CARTESIAN_POINT ( 'NONE',  ( 26.99999999999999645, 28.00000000000000000, 0.000000000000000000 ) ) ;
#297 = CIRCLE ( 'NONE', #220, 11.99999999999999822 ) ;
#298 = CIRCLE ( 'NONE', #23, 2.000000000000001776 ) ;
#299 = DIRECTION ( 'NONE',  ( 0.000000000000000000, 1.000000000000000000, 0.000000000000000000 ) ) ;
#300 = ADVANCED_FACE ( 'NONE', ( #96 ), #18, .F. ) ;
#301 = DIRECTION ( 'NONE',  ( 0.000000000000000000, 0.000000000000000000, 1.000000000000000000 ) ) ;
#302 = ORIENTED_EDGE ( 'NONE', *, *, #814, .F. ) ;
#303 = CARTESIAN_POINT ( 'NONE',  ( 34.99999999999999289, 30.00000000000001776, 4.000000000000000000 ) ) ;
#304 = DIRECTION ( 'NONE',  ( -0.000000000000000000, -0.000000000000000000, -1.000000000000000000 ) ) ;
#305 = FILL_AREA_STYLE_COLOUR ( '', #785 ) ;
#306 = CARTESIAN_POINT ( 'NONE',  ( 16.30000000000000071, 28.00000000000000000, 4.000000000000000000 ) ) ;
#307 = ORIENTED_EDGE ( 'NONE', *, *, #669, .F. ) ;
#308 = CARTESIAN_POINT ( 'NONE',  ( 0.000000000000000000, -3.469446951953614189E-15, 4.000000000000000000 ) ) ;
#309 = DIRECTION ( 'NONE',  ( -0.000000000000000000, -0.000000000000000000, -1.000000000000000000 ) ) ;
#310 = DIRECTION ( 'NONE',  ( -1.000000000000000000, 0.000000000000000000, 0.000000000000000000 ) ) ;
#311 = EDGE_CURVE ( 'NONE', #878, #517, #294, .T. ) ;
#312 = EDGE_LOOP ( 'NONE', ( #188, #65, #470, #502 ) ) ;
#313 = CARTESIAN_POINT ( 'NONE',  ( 21.00000000000000355, -10.99999999999991829, 4.000000000000000000 ) ) ;
#314 = DIRECTION ( 'NONE',  ( 1.000000000000000000, 0.000000000000000000, 0.000000000000000000 ) ) ;
#315 = CIRCLE ( 'NONE', #181, 3.000000000000002665 ) ;
#316 = SHAPE_DEFINITION_REPRESENTATION ( #439, #332 ) ;
#317 = PRODUCT_DEFINITION_FORMATION_WITH_SPECIFIED_SOURCE ( 'ANY', '', #873, .NOT_KNOWN. ) ;
#318 = FACE_OUTER_BOUND ( 'NONE', #50, .T. ) ;
#319 = VERTEX_POINT ( 'NONE', #14 ) ;
#320 = CARTESIAN_POINT ( 'NONE',  ( 29.99999999999999645, 33.00000000000000000, 0.000000000000000000 ) ) ;
#321 = DIRECTION ( 'NONE',  ( -0.000000000000000000, -0.000000000000000000, -1.000000000000000000 ) ) ;
#322 = CARTESIAN_POINT ( 'NONE',  ( 0.000000000000000000, -3.469446951953614189E-15, 0.000000000000000000 ) ) ;
#323 = ORIENTED_EDGE ( 'NONE', *, *, #311, .F. ) ;
#324 = ORIENTED_EDGE ( 'NONE', *, *, #870, .F. ) ;
#325 = CARTESIAN_POINT ( 'NONE',  ( -13.29999999999999893, 28.00000000000000000, 0.000000000000000000 ) ) ;
#326 = EDGE_CURVE ( 'NONE', #686, #413, #291, .T. ) ;
#327 = CARTESIAN_POINT ( 'NONE',  ( 32.59999999999999432, 33.00000000000000000, 4.000000000000000000 ) ) ;
#328 = ORIENTED_EDGE ( 'NONE', *, *, #368, .F. ) ;
#329 = DIRECTION ( 'NONE',  ( 1.000000000000000000, 0.000000000000000000, 0.000000000000000000 ) ) ;
#330 = AXIS2_PLACEMENT_3D ( 'NONE', #876, #855, #510 ) ;
#331 = EDGE_CURVE ( 'NONE', #681, #457, #404, .T. ) ;
#332 = ADVANCED_BREP_SHAPE_REPRESENTATION ( 'patte barre traction et ressort M12 V5avec dÚtrompeur4mm', ( #546, #223 ), #334 ) ;
#333 = VECTOR ( 'NONE', #187, 1000.000000000000000 ) ;
#334 =( GEOMETRIC_REPRESENTATION_CONTEXT ( 3 ) GLOBAL_UNCERTAINTY_ASSIGNED_CONTEXT ( ( #400 ) ) GLOBAL_UNIT_ASSIGNED_CONTEXT ( ( #365, #95, #733 ) ) REPRESENTATION_CONTEXT ( 'NONE', 'WORKASPACE' ) );
#335 = FACE_BOUND ( 'NONE', #687, .T. ) ;
#336 = ORIENTED_EDGE ( 'NONE', *, *, #224, .F. ) ;
#337 = ORIENTED_EDGE ( 'NONE', *, *, #399, .T. ) ;
#338 = ORIENTED_EDGE ( 'NONE', *, *, #31, .F. ) ;
#339 = DIRECTION ( 'NONE',  ( 0.000000000000000000, 0.000000000000000000, 1.000000000000000000 ) ) ;
#340 = VERTEX_POINT ( 'NONE', #722 ) ;
#341 = ORIENTED_EDGE ( 'NONE', *, *, #544, .T. ) ;
#342 = ORIENTED_EDGE ( 'NONE', *, *, #354, .T. ) ;
#343 = DIRECTION ( 'NONE',  ( 0.000000000000000000, 0.000000000000000000, 1.000000000000000000 ) ) ;
#344 = ORIENTED_EDGE ( 'NONE', *, *, #557, .F. ) ;
#345 = CARTESIAN_POINT ( 'NONE',  ( 32.99999999999999289, 34.99999999999999289, 0.000000000000000000 ) ) ;
#346 = EDGE_CURVE ( 'NONE', #878, #887, #172, .T. ) ;
#347 = EDGE_LOOP ( 'NONE', ( #215, #750, #741, #127 ) ) ;
#348 = AXIS2_PLACEMENT_3D ( 'NONE', #535, #207, #137 ) ;
#349 = VECTOR ( 'NONE', #632, 1000.000000000000000 ) ;
#350 = DIRECTION ( 'NONE',  ( 0.000000000000000000, 1.000000000000000000, 0.000000000000000000 ) ) ;
#351 = ORIENTED_EDGE ( 'NONE', *, *, #777, .T. ) ;
#352 = DIRECTION ( 'NONE',  ( 0.000000000000000000, 0.000000000000000000, 1.000000000000000000 ) ) ;
#353 = ORIENTED_EDGE ( 'NONE', *, *, #777, .F. ) ;
#354 = EDGE_CURVE ( 'NONE', #218, #63, #500, .T. ) ;
#355 = DIRECTION ( 'NONE',  ( -1.000000000000000000, 0.000000000000000000, 0.000000000000000000 ) ) ;
#356 = EDGE_CURVE ( 'NONE', #397, #903, #151, .T. ) ;
#357 = AXIS2_PLACEMENT_3D ( 'NONE', #643, #908, #708 ) ;
#358 = CARTESIAN_POINT ( 'NONE',  ( 34.99999999999999289, 30.00000000000001776, 4.000000000000000000 ) ) ;
#359 = AXIS2_PLACEMENT_3D ( 'NONE', #322, #339, #621 ) ;
#360 = AXIS2_PLACEMENT_3D ( 'NONE', #160, #657, #26 ) ;
#361 = FILL_AREA_STYLE_COLOUR ( '', #417 ) ;
#362 = CARTESIAN_POINT ( 'NONE',  ( 29.99999999999999645, 33.00000000000000000, 4.000000000000000000 ) ) ;
#363 = ORIENTED_EDGE ( 'NONE', *, *, #46, .T. ) ;
#364 = DIRECTION ( 'NONE',  ( -0.000000000000000000, -0.000000000000000000, -1.000000000000000000 ) ) ;
#365 =( LENGTH_UNIT ( ) NAMED_UNIT ( * ) SI_UNIT ( .MILLI., .METRE. ) );
#366 = FACE_BOUND ( 'NONE', #185, .T. ) ;
#367 = CARTESIAN_POINT ( 'NONE',  ( 27.39999999999999858, 33.00000000000000000, 0.000000000000000000 ) ) ;
#368 = EDGE_CURVE ( 'NONE', #319, #485, #297, .T. ) ;
#369 = LINE ( 'NONE', #62, #257 ) ;
#370 = FACE_OUTER_BOUND ( 'NONE', #634, .T. ) ;
#371 = AXIS2_PLACEMENT_3D ( 'NONE', #627, #775, #415 ) ;
#372 = PLANE ( 'NONE',  #521 ) ;
#373 = VECTOR ( 'NONE', #47, 1000.000000000000000 ) ;
#374 = VECTOR ( 'NONE', #661, 1000.000000000000000 ) ;
#375 = CARTESIAN_POINT ( 'NONE',  ( 13.29999999999999893, 28.00000000000000000, 4.000000000000000000 ) ) ;
#376 = DIRECTION ( 'NONE',  ( 0.000000000000000000, 0.000000000000000000, 1.000000000000000000 ) ) ;
#377 = EDGE_LOOP ( 'NONE', ( #114, #833, #453, #193 ) ) ;
#378 = DIRECTION ( 'NONE',  ( -0.000000000000000000, -0.000000000000000000, -1.000000000000000000 ) ) ;
#379 = CARTESIAN_POINT ( 'NONE',  ( 12.60000000000000142, -1.926391985027949113E-15, 4.000000000000000000 ) ) ;
#380 = ADVANCED_FACE ( 'NONE', ( #116 ), #757, .F. ) ;
#381 = CARTESIAN_POINT ( 'NONE',  ( 20.64238345442629807, 36.85695338177051639, 4.000000000000000000 ) ) ;
#382 = ORIENTED_EDGE ( 'NONE', *, *, #277, .F. ) ;
#383 = DIRECTION ( 'NONE',  ( -1.000000000000000000, 0.000000000000000000, 0.000000000000000000 ) ) ;
#384 = CARTESIAN_POINT ( 'NONE',  ( -16.30000000000000071, 28.00000000000000000, 4.000000000000000000 ) ) ;
#385 = CYLINDRICAL_SURFACE ( 'NONE', #107, 2.000000000000001776 ) ;
#386 = ORIENTED_EDGE ( 'NONE', *, *, #119, .F. ) ;
#387 = DIRECTION ( 'NONE',  ( -1.000000000000000000, 0.000000000000000000, 0.000000000000000000 ) ) ;
#388 = AXIS2_PLACEMENT_3D ( 'NONE', #362, #433, #448 ) ;
#389 = CARTESIAN_POINT ( 'NONE',  ( -13.29999999999999893, 28.00000000000000000, 4.000000000000000000 ) ) ;
#390 = VECTOR ( 'NONE', #666, 1000.000000000000000 ) ;
#391 = PLANE ( 'NONE',  #613 ) ;
#392 = ORIENTED_EDGE ( 'NONE', *, *, #165, .F. ) ;
#393 = ORIENTED_EDGE ( 'NONE', *, *, #519, .F. ) ;
#394 = EDGE_CURVE ( 'NONE', #189, #524, #106, .T. ) ;
#395 = DIRECTION ( 'NONE',  ( -0.000000000000000000, -0.000000000000000000, -1.000000000000000000 ) ) ;
#396 = DIRECTION ( 'NONE',  ( -1.000000000000000000, 0.000000000000000000, 0.000000000000000000 ) ) ;
#397 = VERTEX_POINT ( 'NONE', #897 ) ;
#398 = ORIENTED_EDGE ( 'NONE', *, *, #568, .T. ) ;
#399 = EDGE_CURVE ( 'NONE', #746, #102, #599, .T. ) ;
#400 = UNCERTAINTY_MEASURE_WITH_UNIT (LENGTH_MEASURE( 1.000000000000000082E-05 ), #365, 'distance_accuracy_value', 'NONE');
#401 = DIRECTION ( 'NONE',  ( 1.000000000000000000, 0.000000000000000000, 0.000000000000000000 ) ) ;
#402 = ORIENTED_EDGE ( 'NONE', *, *, #120, .F. ) ;
#403 = ORIENTED_EDGE ( 'NONE', *, *, #394, .F. ) ;
#404 = CIRCLE ( 'NONE', #287, 2.600000000000001421 ) ;
#405 = AXIS2_PLACEMENT_3D ( 'NONE', #649, #299, #581 ) ;
#406 = PRESENTATION_LAYER_ASSIGNMENT (  '', '', ( #476 ) ) ;
#407 = FACE_OUTER_BOUND ( 'NONE', #408, .T. ) ;
#408 = EDGE_LOOP ( 'NONE', ( #40, #884, #467, #163 ) ) ;
#409 = CARTESIAN_POINT ( 'NONE',  ( -20.99999999999999645, 29.99999999999996803, 4.000000000000000000 ) ) ;
#410 = ORIENTED_EDGE ( 'NONE', *, *, #904, .F. ) ;
#411 = ADVANCED_FACE ( 'NONE', ( #335, #452, #617, #260, #740 ), #38, .T. ) ;
#412 = ORIENTED_EDGE ( 'NONE', *, *, #490, .T. ) ;
#413 = VERTEX_POINT ( 'NONE', #827 ) ;
#414 = EDGE_LOOP ( 'NONE', ( #902, #342, #386, #338 ) ) ;
#415 = DIRECTION ( 'NONE',  ( 0.9284766908852608580, 0.3713906763541000577, 0.000000000000000000 ) ) ;
#416 = EDGE_LOOP ( 'NONE', ( #895, #110, #336, #579 ) ) ;
#417 = COLOUR_RGB ( '',0.7921568627450980005, 0.8196078431372548767, 0.9333333333333333481 ) ;
#418 = CIRCLE ( 'NONE', #56, 3.000000000000002665 ) ;
#419 = CARTESIAN_POINT ( 'NONE',  ( 16.35761654557367351, 35.14304661822948361, 4.000000000000000000 ) ) ;
#420 = ORIENTED_EDGE ( 'NONE', *, *, #868, .T. ) ;
#421 = ADVANCED_FACE ( 'NONE', ( #532 ), #391, .F. ) ;
#422 = CARTESIAN_POINT ( 'NONE',  ( 15.61483519286546873, 37.00000000000000711, 4.000000000000000000 ) ) ;
#423 = ORIENTED_EDGE ( 'NONE', *, *, #326, .F. ) ;
#424 = EDGE_CURVE ( 'NONE', #73, #340, #101, .T. ) ;
#425 = PRODUCT_DEFINITION_CONTEXT ( 'detailed design', #822, 'design' ) ;
#426 = DIRECTION ( 'NONE',  ( 0.000000000000000000, 1.000000000000000000, 0.000000000000000000 ) ) ;
#427 = DIRECTION ( 'NONE',  ( 0.000000000000000000, 0.000000000000000000, 1.000000000000000000 ) ) ;
#428 = VECTOR ( 'NONE', #607, 1000.000000000000000 ) ;
#429 = DIRECTION ( 'NONE',  ( -1.000000000000000000, 0.000000000000000000, 0.000000000000000000 ) ) ;
#430 = CIRCLE ( 'NONE', #674, 2.000000000000001776 ) ;
#431 = CARTESIAN_POINT ( 'NONE',  ( 23.00000000000000711, 25.99999999999997868, 0.000000000000000000 ) ) ;
#432 = ADVANCED_FACE ( 'NONE', ( #407 ), #385, .T. ) ;
#433 = DIRECTION ( 'NONE',  ( -0.000000000000000000, -0.000000000000000000, -1.000000000000000000 ) ) ;
#434 = DIRECTION ( 'NONE',  ( -0.000000000000000000, -0.000000000000000000, -1.000000000000000000 ) ) ;
#435 = PLANE ( 'NONE',  #405 ) ;
#436 = CARTESIAN_POINT ( 'NONE',  ( -16.00000000000000000, 30.00000000000000355, 4.000000000000000000 ) ) ;
#437 = CARTESIAN_POINT ( 'NONE',  ( 32.99999999999997868, 37.00000000000000000, 4.000000000000000000 ) ) ;
#438 = DIRECTION ( 'NONE',  ( 0.000000000000000000, 0.000000000000000000, 1.000000000000000000 ) ) ;
#439 = PRODUCT_DEFINITION_SHAPE ( 'NONE', 'NONE',  #138 ) ;
#440 = CARTESIAN_POINT ( 'NONE',  ( 0.000000000000000000, 0.000000000000000000, 0.000000000000000000 ) ) ;
#441 = CARTESIAN_POINT ( 'NONE',  ( 21.38516480713450818, 34.99999999999999289, 4.000000000000000000 ) ) ;
#442 = DIRECTION ( 'NONE',  ( -0.000000000000000000, -0.000000000000000000, -1.000000000000000000 ) ) ;
#443 = EDGE_CURVE ( 'NONE', #457, #54, #810, .T. ) ;
#444 = AXIS2_PLACEMENT_3D ( 'NONE', #770, #427, #12 ) ;
#445 = EDGE_CURVE ( 'NONE', #754, #211, #487, .T. ) ;
#446 = CARTESIAN_POINT ( 'NONE',  ( 32.99999999999999289, 30.00000000000000000, 4.000000000000000000 ) ) ;
#447 = FILL_AREA_STYLE ('',( #305 ) ) ;
#448 = DIRECTION ( 'NONE',  ( -1.000000000000000000, 0.000000000000000000, 0.000000000000000000 ) ) ;
#449 = ORIENTED_EDGE ( 'NONE', *, *, #176, .F. ) ;
#450 = DIRECTION ( 'NONE',  ( 1.000000000000000000, 0.000000000000000000, 0.000000000000000000 ) ) ;
#451 = DIRECTION ( 'NONE',  ( 1.000000000000000000, 0.000000000000000000, 0.000000000000000000 ) ) ;
#452 = FACE_BOUND ( 'NONE', #677, .T. ) ;
#453 = ORIENTED_EDGE ( 'NONE', *, *, #356, .F. ) ;
#454 = DIRECTION ( 'NONE',  ( 0.000000000000000000, 0.000000000000000000, 1.000000000000000000 ) ) ;
#455 = LINE ( 'NONE', #167, #850 ) ;
#456 = CARTESIAN_POINT ( 'NONE',  ( 32.99999999999999289, 34.99999999999999289, 4.000000000000000000 ) ) ;
#457 = VERTEX_POINT ( 'NONE', #48 ) ;
#458 = ORIENTED_EDGE ( 'NONE', *, *, #109, .F. ) ;
#459 = VECTOR ( 'NONE', #506, 1000.000000000000000 ) ;
#460 = FACE_OUTER_BOUND ( 'NONE', #846, .T. ) ;
#461 = UNCERTAINTY_MEASURE_WITH_UNIT (LENGTH_MEASURE( 1.000000000000000082E-05 ), #726, 'distance_accuracy_value', 'NONE');
#462 = DIRECTION ( 'NONE',  ( -0.000000000000000000, -0.000000000000000000, -1.000000000000000000 ) ) ;
#463 = EDGE_CURVE ( 'NONE', #584, #545, #75, .T. ) ;
#464 = ORIENTED_EDGE ( 'NONE', *, *, #603, .T. ) ;
#465 = ORIENTED_EDGE ( 'NONE', *, *, #824, .F. ) ;
#466 = LINE ( 'NONE', #753, #849 ) ;
#467 = ORIENTED_EDGE ( 'NONE', *, *, #859, .F. ) ;
#468 = ORIENTED_EDGE ( 'NONE', *, *, #582, .T. ) ;
#469 = DIRECTION ( 'NONE',  ( -1.000000000000000000, 0.000000000000000000, 0.000000000000000000 ) ) ;
#470 = ORIENTED_EDGE ( 'NONE', *, *, #284, .F. ) ;
#471 = LINE ( 'NONE', #549, #428 ) ;
#472 = ORIENTED_EDGE ( 'NONE', *, *, #205, .F. ) ;
#473 = ADVANCED_FACE ( 'NONE', ( #318 ), #113, .F. ) ;
#474 = CLOSED_SHELL ( 'NONE', ( #683, #300, #844, #790, #283, #411, #213, #587, #685, #890, #432, #766, #153, #147, #78, #57, #724, #473, #497, #264, #648, #421, #380, #602, #245, #752 ) ) ;
#475 = AXIS2_PLACEMENT_3D ( 'NONE', #121, #177, #684 ) ;
#476 = STYLED_ITEM ( 'NONE', ( #161 ), #332 ) ;
#477 = ORIENTED_EDGE ( 'NONE', *, *, #814, .T. ) ;
#478 = CARTESIAN_POINT ( 'NONE',  ( 15.61483519286546162, 35.00000000000000000, 0.000000000000000000 ) ) ;
#479 = VERTEX_POINT ( 'NONE', #547 ) ;
#480 = FACE_OUTER_BOUND ( 'NONE', #699, .T. ) ;
#481 = VERTEX_POINT ( 'NONE', #891 ) ;
#482 = CARTESIAN_POINT ( 'NONE',  ( -9.000000000000007105, -11.00000000000000533, 4.000000000000000000 ) ) ;
#483 = EDGE_CURVE ( 'NONE', #289, #269, #823, .T. ) ;
#484 = CARTESIAN_POINT ( 'NONE',  ( 21.00000000000000355, -10.99999999999991829, 4.000000000000000000 ) ) ;
#485 = VERTEX_POINT ( 'NONE', #831 ) ;
#486 = CIRCLE ( 'NONE', #66, 2.000000000000001776 ) ;
#487 = CIRCLE ( 'NONE', #359, 12.60000000000000142 ) ;
#488 = VECTOR ( 'NONE', #434, 1000.000000000000000 ) ;
#489 = DIRECTION ( 'NONE',  ( -1.000000000000000000, 0.000000000000000000, 0.000000000000000000 ) ) ;
#490 = EDGE_CURVE ( 'NONE', #545, #289, #466, .T. ) ;
#491 = ORIENTED_EDGE ( 'NONE', *, *, #511, .T. ) ;
#492 = CARTESIAN_POINT ( 'NONE',  ( 20.64238345442629807, 36.85695338177051639, 4.000000000000000000 ) ) ;
#493 = EDGE_LOOP ( 'NONE', ( #341, #392, #282, #115 ) ) ;
#494 = LINE ( 'NONE', #492, #238 ) ;
#495 = ORIENTED_EDGE ( 'NONE', *, *, #711, .F. ) ;
#496 = CARTESIAN_POINT ( 'NONE',  ( 23.00000000000000711, 27.99999999999997513, 4.000000000000000000 ) ) ;
#497 = ADVANCED_FACE ( 'NONE', ( #248 ), #133, .T. ) ;
#498 = AXIS2_PLACEMENT_3D ( 'NONE', #869, #720, #235 ) ;
#499 = CIRCLE ( 'NONE', #444, 11.99999999999999822 ) ;
#500 = LINE ( 'NONE', #157, #875 ) ;
#501 =( GEOMETRIC_REPRESENTATION_CONTEXT ( 3 ) GLOBAL_UNCERTAINTY_ASSIGNED_CONTEXT ( ( #132 ) ) GLOBAL_UNIT_ASSIGNED_CONTEXT ( ( #128, #505, #16 ) ) REPRESENTATION_CONTEXT ( 'NONE', 'WORKASPACE' ) );
#502 = ORIENTED_EDGE ( 'NONE', *, *, #561, .F. ) ;
#503 = LINE ( 'NONE', #596, #182 ) ;
#504 = CIRCLE ( 'NONE', #537, 12.60000000000000142 ) ;
#505 =( NAMED_UNIT ( * ) PLANE_ANGLE_UNIT ( ) SI_UNIT ( $, .RADIAN. ) );
#506 = DIRECTION ( 'NONE',  ( -0.000000000000000000, -0.000000000000000000, -1.000000000000000000 ) ) ;
#507 = DIRECTION ( 'NONE',  ( 1.000000000000000000, 0.000000000000000000, 0.000000000000000000 ) ) ;
#508 = FACE_OUTER_BOUND ( 'NONE', #377, .T. ) ;
#509 = EDGE_CURVE ( 'NONE', #397, #149, #762, .T. ) ;
#510 = DIRECTION ( 'NONE',  ( -1.000000000000000000, 0.000000000000000000, 0.000000000000000000 ) ) ;
#511 = EDGE_CURVE ( 'NONE', #481, #319, #554, .T. ) ;
#512 = ORIENTED_EDGE ( 'NONE', *, *, #109, .T. ) ;
#513 = CARTESIAN_POINT ( 'NONE',  ( 13.29999999999999893, 28.00000000000000000, 4.000000000000000000 ) ) ;
#514 = LINE ( 'NONE', #112, #39 ) ;
#515 = DIRECTION ( 'NONE',  ( -0.000000000000000000, -0.000000000000000000, -1.000000000000000000 ) ) ;
#516 = CIRCLE ( 'NONE', #52, 2.600000000000001421 ) ;
#517 = VERTEX_POINT ( 'NONE', #272 ) ;
#518 = DIRECTION ( 'NONE',  ( 0.000000000000000000, 0.000000000000000000, 1.000000000000000000 ) ) ;
#519 = EDGE_CURVE ( 'NONE', #204, #703, #240, .T. ) ;
#520 = VECTOR ( 'NONE', #191, 1000.000000000000000 ) ;
#521 = AXIS2_PLACEMENT_3D ( 'NONE', #303, #585, #17 ) ;
#522 = CARTESIAN_POINT ( 'NONE',  ( 9.000000000000007105, -11.00000000000000533, 4.000000000000000000 ) ) ;
#523 = DIRECTION ( 'NONE',  ( 1.000000000000000000, 0.000000000000000000, 0.000000000000000000 ) ) ;
#524 = VERTEX_POINT ( 'NONE', #136 ) ;
#525 = CARTESIAN_POINT ( 'NONE',  ( 0.000000000000000000, -3.469446951953614189E-15, 4.000000000000000000 ) ) ;
#526 = DIRECTION ( 'NONE',  ( -1.000000000000000000, 0.000000000000000000, 0.000000000000000000 ) ) ;
#527 = CARTESIAN_POINT ( 'NONE',  ( 21.38516480713450818, 34.99999999999999289, 0.000000000000000000 ) ) ;
#528 = ORIENTED_EDGE ( 'NONE', *, *, #190, .T. ) ;
#529 = ORIENTED_EDGE ( 'NONE', *, *, #582, .F. ) ;
#530 = CYLINDRICAL_SURFACE ( 'NONE', #631, 3.000000000000000888 ) ;
#531 = EDGE_CURVE ( 'NONE', #481, #686, #499, .T. ) ;
#532 = FACE_OUTER_BOUND ( 'NONE', #563, .T. ) ;
#533 = ORIENTED_EDGE ( 'NONE', *, *, #837, .T. ) ;
#534 = EDGE_CURVE ( 'NONE', #540, #828, #715, .T. ) ;
#535 = CARTESIAN_POINT ( 'NONE',  ( 15.61483519286546162, 35.00000000000000000, 4.000000000000000000 ) ) ;
#536 = CARTESIAN_POINT ( 'NONE',  ( 15.61483519286546873, 37.00000000000000711, 4.000000000000000000 ) ) ;
#537 = AXIS2_PLACEMENT_3D ( 'NONE', #227, #518, #507 ) ;
#538 = DIRECTION ( 'NONE',  ( 0.000000000000000000, 0.000000000000000000, 1.000000000000000000 ) ) ;
#539 = EDGE_LOOP ( 'NONE', ( #533, #611, #811, #117 ) ) ;
#540 = VERTEX_POINT ( 'NONE', #718 ) ;
#541 = DIRECTION ( 'NONE',  ( -0.000000000000000000, -0.000000000000000000, -1.000000000000000000 ) ) ;
#542 = ORIENTED_EDGE ( 'NONE', *, *, #702, .T. ) ;
#543 = CARTESIAN_POINT ( 'NONE',  ( -12.60000000000000142, -3.469446951953614189E-15, 4.000000000000000000 ) ) ;
#544 = EDGE_CURVE ( 'NONE', #524, #540, #558, .T. ) ;
#545 = VERTEX_POINT ( 'NONE', #496 ) ;
#546 = MANIFOLD_SOLID_BREP ( 'Boss.-Extru.1', #474 ) ;
#547 = CARTESIAN_POINT ( 'NONE',  ( 10.29999999999999893, 28.00000000000000000, 0.000000000000000000 ) ) ;
#548 = ORIENTED_EDGE ( 'NONE', *, *, #7, .T. ) ;
#549 = CARTESIAN_POINT ( 'NONE',  ( 10.29999999999999893, 28.00000000000000000, 4.000000000000000000 ) ) ;
#550 = ORIENTED_EDGE ( 'NONE', *, *, #837, .F. ) ;
#551 = VECTOR ( 'NONE', #559, 1000.000000000000000 ) ;
#552 = CIRCLE ( 'NONE', #784, 3.000000000000002665 ) ;
#553 = CIRCLE ( 'NONE', #800, 3.000000000000002665 ) ;
#554 = LINE ( 'NONE', #222, #640 ) ;
#555 = LINE ( 'NONE', #214, #551 ) ;
#556 = ORIENTED_EDGE ( 'NONE', *, *, #711, .T. ) ;
#557 = EDGE_CURVE ( 'NONE', #413, #6, #369, .T. ) ;
#558 = LINE ( 'NONE', #713, #53 ) ;
#559 = DIRECTION ( 'NONE',  ( -1.692413147294450654E-16, -1.000000000000000000, -0.000000000000000000 ) ) ;
#560 = VERTEX_POINT ( 'NONE', #293 ) ;
#561 = EDGE_CURVE ( 'NONE', #681, #807, #788, .T. ) ;
#562 = DIRECTION ( 'NONE',  ( 0.000000000000000000, 0.000000000000000000, 1.000000000000000000 ) ) ;
#563 = EDGE_LOOP ( 'NONE', ( #655, #735, #266, #832 ) ) ;
#564 = AXIS2_PLACEMENT_3D ( 'NONE', #422, #778, #489 ) ;
#565 = CIRCLE ( 'NONE', #896, 11.99999999999999822 ) ;
#566 = CARTESIAN_POINT ( 'NONE',  ( 32.99999999999999289, 30.00000000000000000, 0.000000000000000000 ) ) ;
#567 = DIRECTION ( 'NONE',  ( 0.000000000000000000, 1.000000000000000000, 0.000000000000000000 ) ) ;
#568 = EDGE_CURVE ( 'NONE', #457, #681, #774, .T. ) ;
#569 = DIRECTION ( 'NONE',  ( -0.000000000000000000, -0.000000000000000000, -1.000000000000000000 ) ) ;
#570 = DIRECTION ( 'NONE',  ( -1.000000000000000000, 0.000000000000000000, 0.000000000000000000 ) ) ;
#571 = ORIENTED_EDGE ( 'NONE', *, *, #509, .F. ) ;
#572 = DIRECTION ( 'NONE',  ( 0.000000000000000000, 0.000000000000000000, 1.000000000000000000 ) ) ;
#573 = DIRECTION ( 'NONE',  ( 1.000000000000000000, 0.000000000000000000, 0.000000000000000000 ) ) ;
#574 = DIRECTION ( 'NONE',  ( 0.000000000000000000, 0.000000000000000000, 1.000000000000000000 ) ) ;
#575 = VECTOR ( 'NONE', #281, 1000.000000000000000 ) ;
#576 = AXIS2_PLACEMENT_3D ( 'NONE', #782, #343, #854 ) ;
#577 = CARTESIAN_POINT ( 'NONE',  ( -8.999999999999920064, -23.00000000000000355, 4.000000000000000000 ) ) ;
#578 = AXIS2_PLACEMENT_3D ( 'NONE', #536, #608, #821 ) ;
#579 = ORIENTED_EDGE ( 'NONE', *, *, #824, .T. ) ;
#580 = CARTESIAN_POINT ( 'NONE',  ( 32.99999999999997868, 37.00000000000000000, 4.000000000000000000 ) ) ;
#581 = DIRECTION ( 'NONE',  ( 0.000000000000000000, -0.000000000000000000, 1.000000000000000000 ) ) ;
#582 = EDGE_CURVE ( 'NONE', #781, #319, #156, .T. ) ;
#583 = FACE_BOUND ( 'NONE', #883, .T. ) ;
#584 = VERTEX_POINT ( 'NONE', #625 ) ;
#585 = DIRECTION ( 'NONE',  ( -1.000000000000000000, 0.000000000000000000, 0.000000000000000000 ) ) ;
#586 = DIRECTION ( 'NONE',  ( -1.000000000000000000, 0.000000000000000000, 0.000000000000000000 ) ) ;
#587 = ADVANCED_FACE ( 'NONE', ( #206 ), #435, .F. ) ;
#588 = CYLINDRICAL_SURFACE ( 'NONE', #388, 2.599999999999998312 ) ;
#589 = ORIENTED_EDGE ( 'NONE', *, *, #326, .T. ) ;
#590 = DIRECTION ( 'NONE',  ( 0.000000000000000000, 0.000000000000000000, 1.000000000000000000 ) ) ;
#591 = DIRECTION ( 'NONE',  ( -1.000000000000000000, 0.000000000000000000, 0.000000000000000000 ) ) ;
#592 = CARTESIAN_POINT ( 'NONE',  ( -20.99999999999999645, 29.99999999999996803, 4.000000000000000000 ) ) ;
#593 = CYLINDRICAL_SURFACE ( 'NONE', #273, 2.000000000000001776 ) ;
#594 = VECTOR ( 'NONE', #567, 1000.000000000000000 ) ;
#595 = VERTEX_POINT ( 'NONE', #195 ) ;
#596 = CARTESIAN_POINT ( 'NONE',  ( 21.38516480713451529, 37.00000000000000000, 4.000000000000000000 ) ) ;
#597 = AXIS2_PLACEMENT_3D ( 'NONE', #838, #645, #573 ) ;
#598 = FACE_OUTER_BOUND ( 'NONE', #80, .T. ) ;
#599 = LINE ( 'NONE', #605, #761 ) ;
#600 = ORIENTED_EDGE ( 'NONE', *, *, #158, .F. ) ;
#601 = ORIENTED_EDGE ( 'NONE', *, *, #557, .T. ) ;
#602 = ADVANCED_FACE ( 'NONE', ( #460 ), #809, .F. ) ;
#603 = EDGE_CURVE ( 'NONE', #776, #828, #867, .T. ) ;
#604 = DIRECTION ( 'NONE',  ( -0.000000000000000000, -0.000000000000000000, -1.000000000000000000 ) ) ;
#605 = CARTESIAN_POINT ( 'NONE',  ( -10.29999999999999893, 28.00000000000000000, 4.000000000000000000 ) ) ;
#606 = EDGE_LOOP ( 'NONE', ( #124, #465, #323, #622 ) ) ;
#607 = DIRECTION ( 'NONE',  ( -0.000000000000000000, -0.000000000000000000, -1.000000000000000000 ) ) ;
#608 = DIRECTION ( 'NONE',  ( -0.000000000000000000, -0.000000000000000000, -1.000000000000000000 ) ) ;
#609 = DIRECTION ( 'NONE',  ( 1.000000000000000000, -1.692413147294450654E-16, 0.000000000000000000 ) ) ;
#610 = ORIENTED_EDGE ( 'NONE', *, *, #616, .T. ) ;
#611 = ORIENTED_EDGE ( 'NONE', *, *, #483, .F. ) ;
#612 = AXIS2_PLACEMENT_3D ( 'NONE', #441, #301, #29 ) ;
#613 = AXIS2_PLACEMENT_3D ( 'NONE', #749, #263, #538 ) ;
#614 = AXIS2_PLACEMENT_3D ( 'NONE', #308, #442, #170 ) ;
#615 = EDGE_CURVE ( 'NONE', #63, #479, #315, .T. ) ;
#616 = EDGE_CURVE ( 'NONE', #595, #211, #743, .T. ) ;
#617 = FACE_OUTER_BOUND ( 'NONE', #755, .T. ) ;
#618 = ORIENTED_EDGE ( 'NONE', *, *, #445, .F. ) ;
#619 = EDGE_LOOP ( 'NONE', ( #528, #344, #423, #542 ) ) ;
#620 = ORIENTED_EDGE ( 'NONE', *, *, #424, .T. ) ;
#621 = DIRECTION ( 'NONE',  ( 1.000000000000000000, 0.000000000000000000, 0.000000000000000000 ) ) ;
#622 = ORIENTED_EDGE ( 'NONE', *, *, #346, .T. ) ;
#623 = ORIENTED_EDGE ( 'NONE', *, *, #739, .F. ) ;
#624 = VERTEX_POINT ( 'NONE', #679 ) ;
#625 = CARTESIAN_POINT ( 'NONE',  ( 21.00000000000000355, 25.99999999999996447, 4.000000000000000000 ) ) ;
#626 = ORIENTED_EDGE ( 'NONE', *, *, #519, .T. ) ;
#627 = CARTESIAN_POINT ( 'NONE',  ( 20.64238345442629807, 36.85695338177051639, 4.000000000000000000 ) ) ;
#628 = ORIENTED_EDGE ( 'NONE', *, *, #710, .T. ) ;
#629 = VECTOR ( 'NONE', #426, 1000.000000000000000 ) ;
#630 = AXIS2_PLACEMENT_3D ( 'NONE', #527, #51, #680 ) ;
#631 = AXIS2_PLACEMENT_3D ( 'NONE', #375, #321, #880 ) ;
#632 = DIRECTION ( 'NONE',  ( -1.692413147294450654E-16, -1.000000000000000000, -0.000000000000000000 ) ) ;
#633 = FACE_OUTER_BOUND ( 'NONE', #416, .T. ) ;
#634 = EDGE_LOOP ( 'NONE', ( #131, #412, #898, #512, #730, #267, #253, #261, #271, #91, #693, #760, #97, #589, #477, #232 ) ) ;
#635 = EDGE_CURVE ( 'NONE', #707, #678, #251, .T. ) ;
#636 = CARTESIAN_POINT ( 'NONE',  ( -8.999999999999920064, -23.00000000000000355, 0.000000000000000000 ) ) ;
#637 = ORIENTED_EDGE ( 'NONE', *, *, #331, .F. ) ;
#638 = DIRECTION ( 'NONE',  ( -0.000000000000000000, -0.000000000000000000, -1.000000000000000000 ) ) ;
#639 = AXIS2_PLACEMENT_3D ( 'NONE', #812, #55, #118 ) ;
#640 = VECTOR ( 'NONE', #700, 1000.000000000000000 ) ;
#641 = AXIS2_PLACEMENT_3D ( 'NONE', #872, #159, #25 ) ;
#642 = EDGE_CURVE ( 'NONE', #746, #707, #860, .T. ) ;
#643 = CARTESIAN_POINT ( 'NONE',  ( 13.29999999999999893, 28.00000000000000000, 0.000000000000000000 ) ) ;
#644 = CARTESIAN_POINT ( 'NONE',  ( 32.99999999999997868, 27.99999999999999645, 4.000000000000000000 ) ) ;
#645 = DIRECTION ( 'NONE',  ( -0.000000000000000000, -0.000000000000000000, -1.000000000000000000 ) ) ;
#646 = CARTESIAN_POINT ( 'NONE',  ( 23.00000000000000711, 25.99999999999997868, 4.000000000000000000 ) ) ;
#647 = FACE_OUTER_BOUND ( 'NONE', #606, .T. ) ;
#648 = ADVANCED_FACE ( 'NONE', ( #598 ), #874, .T. ) ;
#649 = CARTESIAN_POINT ( 'NONE',  ( 26.99999999999999645, 28.00000000000000000, 4.000000000000000000 ) ) ;
#650 = APPLICATION_PROTOCOL_DEFINITION ( 'draft international standard', 'automotive_design', 1998, #13 ) ;
#651 = VECTOR ( 'NONE', #829, 1000.000000000000000 ) ;
#652 = MECHANICAL_DESIGN_GEOMETRIC_PRESENTATION_REPRESENTATION (  '', ( #274 ), #501 ) ;
#653 = DIRECTION ( 'NONE',  ( -1.000000000000000000, 0.000000000000000000, 0.000000000000000000 ) ) ;
#654 = CIRCLE ( 'NONE', #258, 3.000000000000002665 ) ;
#655 = ORIENTED_EDGE ( 'NONE', *, *, #756, .T. ) ;
#656 = CYLINDRICAL_SURFACE ( 'NONE', #641, 3.000000000000002665 ) ;
#657 = DIRECTION ( 'NONE',  ( -0.000000000000000000, -0.000000000000000000, -1.000000000000000000 ) ) ;
#658 = EDGE_CURVE ( 'NONE', #899, #218, #552, .T. ) ;
#659 = FACE_OUTER_BOUND ( 'NONE', #682, .T. ) ;
#660 = ORIENTED_EDGE ( 'NONE', *, *, #69, .T. ) ;
#661 = DIRECTION ( 'NONE',  ( 0.000000000000000000, 1.000000000000000000, 0.000000000000000000 ) ) ;
#662 = DIRECTION ( 'NONE',  ( -0.000000000000000000, -0.000000000000000000, -1.000000000000000000 ) ) ;
#663 = CARTESIAN_POINT ( 'NONE',  ( 23.00000000000000711, 25.99999999999997868, 4.000000000000000000 ) ) ;
#664 = ORIENTED_EDGE ( 'NONE', *, *, #904, .T. ) ;
#665 = CYLINDRICAL_SURFACE ( 'NONE', #614, 12.60000000000000142 ) ;
#666 = DIRECTION ( 'NONE',  ( -1.000000000000000000, 0.000000000000000000, 0.000000000000000000 ) ) ;
#667 =( NAMED_UNIT ( * ) SI_UNIT ( $, .STERADIAN. ) SOLID_ANGLE_UNIT ( ) );
#668 = CARTESIAN_POINT ( 'NONE',  ( 32.99999999999997868, 27.99999999999999645, 4.000000000000000000 ) ) ;
#669 = EDGE_CURVE ( 'NONE', #776, #397, #37, .T. ) ;
#670 = CIRCLE ( 'NONE', #612, 2.000000000000001776 ) ;
#671 = ORIENTED_EDGE ( 'NONE', *, *, #15, .F. ) ;
#672 = FACE_OUTER_BOUND ( 'NONE', #184, .T. ) ;
#673 = AXIS2_PLACEMENT_3D ( 'NONE', #43, #609, #676 ) ;
#674 = AXIS2_PLACEMENT_3D ( 'NONE', #879, #572, #450 ) ;
#675 = CARTESIAN_POINT ( 'NONE',  ( 15.61483519286546162, 35.00000000000000000, 4.000000000000000000 ) ) ;
#676 = DIRECTION ( 'NONE',  ( 1.692413147294450654E-16, 1.000000000000000000, 0.000000000000000000 ) ) ;
#677 = EDGE_LOOP ( 'NONE', ( #759, #695 ) ) ;
#678 = VERTEX_POINT ( 'NONE', #234 ) ;
#679 = CARTESIAN_POINT ( 'NONE',  ( 34.99999999999999289, 34.99999999999998579, 0.000000000000000000 ) ) ;
#680 = DIRECTION ( 'NONE',  ( 1.000000000000000000, 0.000000000000000000, 0.000000000000000000 ) ) ;
#681 = VERTEX_POINT ( 'NONE', #797 ) ;
#682 = EDGE_LOOP ( 'NONE', ( #840, #398, #243, #909 ) ) ;
#683 = ADVANCED_FACE ( 'NONE', ( #42 ), #530, .F. ) ;
#684 = DIRECTION ( 'NONE',  ( -1.000000000000000000, 0.000000000000000000, 0.000000000000000000 ) ) ;
#685 = ADVANCED_FACE ( 'NONE', ( #737 ), #246, .T. ) ;
#686 = VERTEX_POINT ( 'NONE', #175 ) ;
#687 = EDGE_LOOP ( 'NONE', ( #254, #111 ) ) ;
#688 = AXIS2_PLACEMENT_3D ( 'NONE', #72, #701, #355 ) ;
#689 = AXIS2_PLACEMENT_3D ( 'NONE', #183, #462, #268 ) ;
#690 = AXIS2_PLACEMENT_3D ( 'NONE', #525, #792, #808 ) ;
#691 = EDGE_CURVE ( 'NONE', #871, #624, #455, .T. ) ;
#692 = DIRECTION ( 'NONE',  ( -0.000000000000000000, 0.000000000000000000, -1.000000000000000000 ) ) ;
#693 = ORIENTED_EDGE ( 'NONE', *, *, #356, .T. ) ;
#694 = DIRECTION ( 'NONE',  ( -0.000000000000000000, -0.000000000000000000, -1.000000000000000000 ) ) ;
#695 = ORIENTED_EDGE ( 'NONE', *, *, #120, .T. ) ;
#696 = SURFACE_STYLE_FILL_AREA ( #202 ) ;
#697 = ORIENTED_EDGE ( 'NONE', *, *, #616, .F. ) ;
#698 = EDGE_LOOP ( 'NONE', ( #410, #769 ) ) ;
#699 = EDGE_LOOP ( 'NONE', ( #626, #324, #59, #628 ) ) ;
#700 = DIRECTION ( 'NONE',  ( -0.000000000000000000, -0.000000000000000000, -1.000000000000000000 ) ) ;
#701 = DIRECTION ( 'NONE',  ( -0.000000000000000000, -0.000000000000000000, -1.000000000000000000 ) ) ;
#702 = EDGE_CURVE ( 'NONE', #686, #485, #813, .T. ) ;
#703 = VERTEX_POINT ( 'NONE', #180 ) ;
#704 = VECTOR ( 'NONE', #569, 1000.000000000000000 ) ;
#705 = AXIS2_PLACEMENT_3D ( 'NONE', #802, #796, #383 ) ;
#706 = CYLINDRICAL_SURFACE ( 'NONE', #564, 2.000000000000000000 ) ;
#707 = VERTEX_POINT ( 'NONE', #748 ) ;
#708 = DIRECTION ( 'NONE',  ( 1.000000000000000000, 0.000000000000000000, 0.000000000000000000 ) ) ;
#709 = ORIENTED_EDGE ( 'NONE', *, *, #28, .F. ) ;
#710 = EDGE_CURVE ( 'NONE', #584, #204, #514, .T. ) ;
#711 = EDGE_CURVE ( 'NONE', #102, #678, #553, .T. ) ;
#712 = PLANE ( 'NONE',  #371 ) ;
#713 = CARTESIAN_POINT ( 'NONE',  ( 20.64238345442629807, 36.85695338177051639, 0.000000000000000000 ) ) ;
#714 = CIRCLE ( 'NONE', #639, 3.000000000000002665 ) ;
#715 = CIRCLE ( 'NONE', #597, 2.000000000000000000 ) ;
#716 =( GEOMETRIC_REPRESENTATION_CONTEXT ( 3 ) GLOBAL_UNCERTAINTY_ASSIGNED_CONTEXT ( ( #461 ) ) GLOBAL_UNIT_ASSIGNED_CONTEXT ( ( #726, #738, #667 ) ) REPRESENTATION_CONTEXT ( 'NONE', 'WORKASPACE' ) );
#717 = CARTESIAN_POINT ( 'NONE',  ( 32.99999999999997868, 37.00000000000000000, 4.000000000000000000 ) ) ;
#718 = CARTESIAN_POINT ( 'NONE',  ( 16.35761654557367351, 35.14304661822948361, 0.000000000000000000 ) ) ;
#719 = CARTESIAN_POINT ( 'NONE',  ( -13.29999999999999893, 28.00000000000000000, 4.000000000000000000 ) ) ;
#720 = DIRECTION ( 'NONE',  ( 0.000000000000000000, 1.000000000000000000, 0.000000000000000000 ) ) ;
#721 = CARTESIAN_POINT ( 'NONE',  ( 34.99999999999999289, 34.99999999999998579, 4.000000000000000000 ) ) ;
#722 = CARTESIAN_POINT ( 'NONE',  ( 34.99999999999999289, 30.00000000000001776, 0.000000000000000000 ) ) ;
#723 = CARTESIAN_POINT ( 'NONE',  ( 21.00000000000000355, -10.99999999999991829, 0.000000000000000000 ) ) ;
#724 = ADVANCED_FACE ( 'NONE', ( #508 ), #793, .T. ) ;
#725 = CARTESIAN_POINT ( 'NONE',  ( -8.999999999999920064, -23.00000000000000355, 4.000000000000000000 ) ) ;
#726 =( LENGTH_UNIT ( ) NAMED_UNIT ( * ) SI_UNIT ( .MILLI., .METRE. ) );
#727 = CIRCLE ( 'NONE', #357, 3.000000000000002665 ) ;
#728 = AXIS2_PLACEMENT_3D ( 'NONE', #482, #364, #290 ) ;
#729 = PLANE ( 'NONE',  #105 ) ;
#730 = ORIENTED_EDGE ( 'NONE', *, *, #859, .T. ) ;
#731 = DIRECTION ( 'NONE',  ( 1.000000000000000000, 0.000000000000000000, 0.000000000000000000 ) ) ;
#732 = DIRECTION ( 'NONE',  ( 0.000000000000000000, 0.000000000000000000, 1.000000000000000000 ) ) ;
#733 =( NAMED_UNIT ( * ) SI_UNIT ( $, .STERADIAN. ) SOLID_ANGLE_UNIT ( ) );
#734 = CARTESIAN_POINT ( 'NONE',  ( 29.99999999999999645, 33.00000000000000000, 0.000000000000000000 ) ) ;
#735 = ORIENTED_EDGE ( 'NONE', *, *, #710, .F. ) ;
#736 = CARTESIAN_POINT ( 'NONE',  ( 9.000000000000007105, -11.00000000000000533, 4.000000000000000000 ) ) ;
#737 = FACE_OUTER_BOUND ( 'NONE', #140, .T. ) ;
#738 =( NAMED_UNIT ( * ) PLANE_ANGLE_UNIT ( ) SI_UNIT ( $, .RADIAN. ) );
#739 = EDGE_CURVE ( 'NONE', #262, #776, #820, .T. ) ;
#740 = FACE_BOUND ( 'NONE', #3, .T. ) ;
#741 = ORIENTED_EDGE ( 'NONE', *, *, #31, .T. ) ;
#742 = LINE ( 'NONE', #155, #488 ) ;
#743 = LINE ( 'NONE', #379, #745 ) ;
#744 = DIRECTION ( 'NONE',  ( -0.000000000000000000, -0.000000000000000000, -1.000000000000000000 ) ) ;
#745 = VECTOR ( 'NONE', #662, 1000.000000000000000 ) ;
#746 = VERTEX_POINT ( 'NONE', #255 ) ;
#747 = FACE_OUTER_BOUND ( 'NONE', #900, .T. ) ;
#748 = CARTESIAN_POINT ( 'NONE',  ( -16.30000000000000071, 28.00000000000000000, 4.000000000000000000 ) ) ;
#749 = CARTESIAN_POINT ( 'NONE',  ( 21.00000000000000355, -10.99999999999991829, 4.000000000000000000 ) ) ;
#750 = ORIENTED_EDGE ( 'NONE', *, *, #803, .T. ) ;
#751 = LINE ( 'NONE', #543, #651 ) ;
#752 = ADVANCED_FACE ( 'NONE', ( #186 ), #889, .F. ) ;
#753 = CARTESIAN_POINT ( 'NONE',  ( 26.99999999999999645, 28.00000000000000000, 4.000000000000000000 ) ) ;
#754 = VERTEX_POINT ( 'NONE', #862 ) ;
#755 = EDGE_LOOP ( 'NONE', ( #393, #894, #353, #765, #328, #529, #472, #143, #865, #135, #403, #382, #825, #265, #818, #550 ) ) ;
#756 = EDGE_CURVE ( 'NONE', #236, #204, #866, .T. ) ;
#757 = CYLINDRICAL_SURFACE ( 'NONE', #475, 12.60000000000000142 ) ;
#758 = ORIENTED_EDGE ( 'NONE', *, *, #803, .F. ) ;
#759 = ORIENTED_EDGE ( 'NONE', *, *, #445, .T. ) ;
#760 = ORIENTED_EDGE ( 'NONE', *, *, #176, .T. ) ;
#761 = VECTOR ( 'NONE', #58, 1000.000000000000000 ) ;
#762 = LINE ( 'NONE', #1, #123 ) ;
#763 = ORIENTED_EDGE ( 'NONE', *, *, #868, .F. ) ;
#764 = DIRECTION ( 'NONE',  ( -1.000000000000000000, 0.000000000000000000, 0.000000000000000000 ) ) ;
#765 = ORIENTED_EDGE ( 'NONE', *, *, #190, .F. ) ;
#766 = ADVANCED_FACE ( 'NONE', ( #647 ), #244, .F. ) ;
#767 = SURFACE_SIDE_STYLE ('',( #696 ) ) ;
#768 = FACE_OUTER_BOUND ( 'NONE', #292, .T. ) ;
#769 = ORIENTED_EDGE ( 'NONE', *, *, #642, .F. ) ;
#770 = CARTESIAN_POINT ( 'NONE',  ( -9.000000000000007105, -11.00000000000000533, 4.000000000000000000 ) ) ;
#771 = CARTESIAN_POINT ( 'NONE',  ( 21.38516480713451529, 37.00000000000000000, 0.000000000000000000 ) ) ;
#772 = EDGE_LOOP ( 'NONE', ( #905, #173, #458, #620 ) ) ;
#773 = VECTOR ( 'NONE', #570, 1000.000000000000000 ) ;
#774 = CIRCLE ( 'NONE', #576, 2.600000000000001421 ) ;
#775 = DIRECTION ( 'NONE',  ( 0.3713906763541000577, -0.9284766908852608580, 0.000000000000000000 ) ) ;
#776 = VERTEX_POINT ( 'NONE', #32 ) ;
#777 = EDGE_CURVE ( 'NONE', #6, #236, #200, .T. ) ;
#778 = DIRECTION ( 'NONE',  ( -0.000000000000000000, -0.000000000000000000, -1.000000000000000000 ) ) ;
#779 = EDGE_LOOP ( 'NONE', ( #801, #556 ) ) ;
#780 = LINE ( 'NONE', #419, #256 ) ;
#781 = VERTEX_POINT ( 'NONE', #164 ) ;
#782 = CARTESIAN_POINT ( 'NONE',  ( 29.99999999999999645, 33.00000000000000000, 4.000000000000000000 ) ) ;
#783 = VECTOR ( 'NONE', #350, 1000.000000000000000 ) ;
#784 = AXIS2_PLACEMENT_3D ( 'NONE', #804, #438, #451 ) ;
#785 = COLOUR_RGB ( '',0.7921568627450980005, 0.8196078431372548767, 0.9333333333333333481 ) ;
#786 = FACE_OUTER_BOUND ( 'NONE', #619, .T. ) ;
#787 = DIRECTION ( 'NONE',  ( -1.000000000000000000, 0.000000000000000000, 0.000000000000000000 ) ) ;
#788 = LINE ( 'NONE', #21, #704 ) ;
#789 = APPLICATION_PROTOCOL_DEFINITION ( 'draft international standard', 'automotive_design', 1998, #822 ) ;
#790 = ADVANCED_FACE ( 'NONE', ( #672 ), #665, .F. ) ;
#791 = LINE ( 'NONE', #84, #209 ) ;
#792 = DIRECTION ( 'NONE',  ( 0.000000000000000000, 0.000000000000000000, 1.000000000000000000 ) ) ;
#793 = CYLINDRICAL_SURFACE ( 'NONE', #360, 4.999999999999997335 ) ;
#794 = SURFACE_STYLE_USAGE ( .BOTH. , #247 ) ;
#795 = CARTESIAN_POINT ( 'NONE',  ( 29.99999999999999645, 33.00000000000000000, 4.000000000000000000 ) ) ;
#796 = DIRECTION ( 'NONE',  ( 0.000000000000000000, 0.000000000000000000, 1.000000000000000000 ) ) ;
#797 = CARTESIAN_POINT ( 'NONE',  ( 27.39999999999999858, 33.00000000000000000, 4.000000000000000000 ) ) ;
#798 = CIRCLE ( 'NONE', #295, 12.60000000000000142 ) ;
#799 = PLANE ( 'NONE',  #498 ) ;
#800 = AXIS2_PLACEMENT_3D ( 'NONE', #325, #863, #228 ) ;
#801 = ORIENTED_EDGE ( 'NONE', *, *, #15, .T. ) ;
#802 = CARTESIAN_POINT ( 'NONE',  ( 9.000000000000007105, -11.00000000000000533, 0.000000000000000000 ) ) ;
#803 = EDGE_CURVE ( 'NONE', #218, #899, #418, .T. ) ;
#804 = CARTESIAN_POINT ( 'NONE',  ( 13.29999999999999893, 28.00000000000000000, 4.000000000000000000 ) ) ;
#805 = DIRECTION ( 'NONE',  ( 0.000000000000000000, 0.000000000000000000, 1.000000000000000000 ) ) ;
#806 = DIRECTION ( 'NONE',  ( 1.000000000000000000, 0.000000000000000000, 0.000000000000000000 ) ) ;
#807 = VERTEX_POINT ( 'NONE', #367 ) ;
#808 = DIRECTION ( 'NONE',  ( 1.000000000000000000, 0.000000000000000000, 0.000000000000000000 ) ) ;
#809 = CYLINDRICAL_SURFACE ( 'NONE', #910, 3.000000000000002665 ) ;
#810 = LINE ( 'NONE', #327, #9 ) ;
#811 = ORIENTED_EDGE ( 'NONE', *, *, #490, .F. ) ;
#812 = CARTESIAN_POINT ( 'NONE',  ( -13.29999999999999893, 28.00000000000000000, 0.000000000000000000 ) ) ;
#813 = LINE ( 'NONE', #725, #77 ) ;
#814 = EDGE_CURVE ( 'NONE', #413, #819, #565, .T. ) ;
#815 = CARTESIAN_POINT ( 'NONE',  ( 23.00000000000000711, 25.99999999999997868, 0.000000000000000000 ) ) ;
#816 = CIRCLE ( 'NONE', #892, 2.000000000000001776 ) ;
#817 = AXIS2_PLACEMENT_3D ( 'NONE', #436, #376, #396 ) ;
#818 = ORIENTED_EDGE ( 'NONE', *, *, #69, .F. ) ;
#819 = VERTEX_POINT ( 'NONE', #313 ) ;
#820 = CIRCLE ( 'NONE', #578, 2.000000000000000000 ) ;
#821 = DIRECTION ( 'NONE',  ( 1.000000000000000000, 0.000000000000000000, 0.000000000000000000 ) ) ;
#822 = APPLICATION_CONTEXT ( 'automotive_design' ) ;
#823 = LINE ( 'NONE', #668, #333 ) ;
#824 = EDGE_CURVE ( 'NONE', #517, #189, #503, .T. ) ;
#825 = ORIENTED_EDGE ( 'NONE', *, *, #94, .F. ) ;
#826 = DIRECTION ( 'NONE',  ( 0.000000000000000000, 0.000000000000000000, 1.000000000000000000 ) ) ;
#827 = CARTESIAN_POINT ( 'NONE',  ( 8.999999999999923617, -23.00000000000000355, 4.000000000000000000 ) ) ;
#828 = VERTEX_POINT ( 'NONE', #19 ) ;
#829 = DIRECTION ( 'NONE',  ( -0.000000000000000000, -0.000000000000000000, -1.000000000000000000 ) ) ;
#830 = ORIENTED_EDGE ( 'NONE', *, *, #568, .F. ) ;
#831 = CARTESIAN_POINT ( 'NONE',  ( -8.999999999999920064, -23.00000000000000355, 0.000000000000000000 ) ) ;
#832 = ORIENTED_EDGE ( 'NONE', *, *, #158, .T. ) ;
#833 = ORIENTED_EDGE ( 'NONE', *, *, #7, .F. ) ;
#834 = ORIENTED_EDGE ( 'NONE', *, *, #119, .T. ) ;
#835 = VECTOR ( 'NONE', #309, 1000.000000000000000 ) ;
#836 = AXIS2_PLACEMENT_3D ( 'NONE', #513, #378, #174 ) ;
#837 = EDGE_CURVE ( 'NONE', #703, #269, #36, .T. ) ;
#838 = CARTESIAN_POINT ( 'NONE',  ( 15.61483519286546873, 37.00000000000000711, 0.000000000000000000 ) ) ;
#839 = LINE ( 'NONE', #636, #575 ) ;
#840 = ORIENTED_EDGE ( 'NONE', *, *, #443, .F. ) ;
#841 = SURFACE_STYLE_USAGE ( .BOTH. , #767 ) ;
#842 = DIRECTION ( 'NONE',  ( -0.000000000000000000, -0.000000000000000000, -1.000000000000000000 ) ) ;
#843 = ORIENTED_EDGE ( 'NONE', *, *, #642, .T. ) ;
#844 = ADVANCED_FACE ( 'NONE', ( #92 ), #656, .F. ) ;
#845 = FACE_OUTER_BOUND ( 'NONE', #493, .T. ) ;
#846 = EDGE_LOOP ( 'NONE', ( #68, #843, #198, #495 ) ) ;
#847 = VECTOR ( 'NONE', #806, 1000.000000000000000 ) ;
#848 = EDGE_CURVE ( 'NONE', #289, #73, #298, .T. ) ;
#849 = VECTOR ( 'NONE', #882, 1000.000000000000000 ) ;
#850 = VECTOR ( 'NONE', #604, 1000.000000000000000 ) ;
#851 = DIRECTION ( 'NONE',  ( -0.000000000000000000, -0.000000000000000000, -1.000000000000000000 ) ) ;
#852 = EDGE_CURVE ( 'NONE', #44, #595, #504, .T. ) ;
#853 = LINE ( 'NONE', #358, #629 ) ;
#854 = DIRECTION ( 'NONE',  ( 1.000000000000000000, 0.000000000000000000, 0.000000000000000000 ) ) ;
#855 = DIRECTION ( 'NONE',  ( -0.000000000000000000, -0.000000000000000000, -1.000000000000000000 ) ) ;
#856 = DIRECTION ( 'NONE',  ( 0.000000000000000000, -0.000000000000000000, -1.000000000000000000 ) ) ;
#857 = CIRCLE ( 'NONE', #20, 2.600000000000001421 ) ;
#858 = DIRECTION ( 'NONE',  ( -0.000000000000000000, -0.000000000000000000, -1.000000000000000000 ) ) ;
#859 = EDGE_CURVE ( 'NONE', #871, #878, #430, .T. ) ;
#860 = CIRCLE ( 'NONE', #197, 3.000000000000002665 ) ;
#861 = DIRECTION ( 'NONE',  ( 0.000000000000000000, 0.000000000000000000, 1.000000000000000000 ) ) ;
#862 = CARTESIAN_POINT ( 'NONE',  ( -12.60000000000000142, -3.469446951953614189E-15, 0.000000000000000000 ) ) ;
#863 = DIRECTION ( 'NONE',  ( 0.000000000000000000, 0.000000000000000000, 1.000000000000000000 ) ) ;
#864 = FACE_BOUND ( 'NONE', #129, .T. ) ;
#865 = ORIENTED_EDGE ( 'NONE', *, *, #534, .F. ) ;
#866 = LINE ( 'NONE', #723, #374 ) ;
#867 = LINE ( 'NONE', #885, #835 ) ;
#868 = EDGE_CURVE ( 'NONE', #595, #44, #141, .T. ) ;
#869 = CARTESIAN_POINT ( 'NONE',  ( -8.999999999999920064, -23.00000000000000355, 4.000000000000000000 ) ) ;
#870 = EDGE_CURVE ( 'NONE', #545, #703, #742, .T. ) ;
#871 = VERTEX_POINT ( 'NONE', #721 ) ;
#872 = CARTESIAN_POINT ( 'NONE',  ( -13.29999999999999893, 28.00000000000000000, 4.000000000000000000 ) ) ;
#873 = PRODUCT ( 'patte barre traction et ressort M12 V5avec détrompeur4mm', 'patte barre traction et ressort M12 V5avec détrompeur4mm', '', ( #229 ) ) ;
#874 = CYLINDRICAL_SURFACE ( 'NONE', #893, 11.99999999999999822 ) ;
#875 = VECTOR ( 'NONE', #162, 1000.000000000000000 ) ;
#876 = CARTESIAN_POINT ( 'NONE',  ( 29.99999999999999645, 33.00000000000000000, 4.000000000000000000 ) ) ;
#877 = VECTOR ( 'NONE', #731, 1000.000000000000000 ) ;
#878 = VERTEX_POINT ( 'NONE', #437 ) ;
#879 = CARTESIAN_POINT ( 'NONE',  ( 32.99999999999999289, 34.99999999999999289, 4.000000000000000000 ) ) ;
#880 = DIRECTION ( 'NONE',  ( -1.000000000000000000, 0.000000000000000000, 0.000000000000000000 ) ) ;
#881 = DIRECTION ( 'NONE',  ( -1.000000000000000000, 0.000000000000000000, 0.000000000000000000 ) ) ;
#882 = DIRECTION ( 'NONE',  ( 1.000000000000000000, 6.071532165918840608E-15, -0.000000000000000000 ) ) ;
#883 = EDGE_LOOP ( 'NONE', ( #637, #830 ) ) ;
#884 = ORIENTED_EDGE ( 'NONE', *, *, #346, .F. ) ;
#885 = CARTESIAN_POINT ( 'NONE',  ( 15.61483519286546162, 35.00000000000000000, 4.000000000000000000 ) ) ;
#886 = DIRECTION ( 'NONE',  ( -1.000000000000000000, 0.000000000000000000, 0.000000000000000000 ) ) ;
#887 = VERTEX_POINT ( 'NONE', #233 ) ;
#888 = PLANE ( 'NONE',  #348 ) ;
#889 = CYLINDRICAL_SURFACE ( 'NONE', #836, 3.000000000000000888 ) ;
#890 = ADVANCED_FACE ( 'NONE', ( #85 ), #372, .F. ) ;
#891 = CARTESIAN_POINT ( 'NONE',  ( -21.00000000000000355, -10.99999999999991829, 4.000000000000000000 ) ) ;
#892 = AXIS2_PLACEMENT_3D ( 'NONE', #566, #67, #5 ) ;
#893 = AXIS2_PLACEMENT_3D ( 'NONE', #522, #104, #171 ) ;
#894 = ORIENTED_EDGE ( 'NONE', *, *, #756, .F. ) ;
#895 = ORIENTED_EDGE ( 'NONE', *, *, #394, .T. ) ;
#896 = AXIS2_PLACEMENT_3D ( 'NONE', #736, #590, #387 ) ;
#897 = CARTESIAN_POINT ( 'NONE',  ( -15.99999999999996270, 35.00000000000000000, 4.000000000000000000 ) ) ;
#898 = ORIENTED_EDGE ( 'NONE', *, *, #848, .T. ) ;
#899 = VERTEX_POINT ( 'NONE', #241 ) ;
#900 = EDGE_LOOP ( 'NONE', ( #363, #571, #307, #464 ) ) ;
#901 = CARTESIAN_POINT ( 'NONE',  ( -9.000000000000007105, -11.00000000000000533, 0.000000000000000000 ) ) ;
#902 = ORIENTED_EDGE ( 'NONE', *, *, #658, .T. ) ;
#903 = VERTEX_POINT ( 'NONE', #592 ) ;
#904 = EDGE_CURVE ( 'NONE', #707, #746, #654, .T. ) ;
#905 = ORIENTED_EDGE ( 'NONE', *, *, #89, .T. ) ;
#906 = DIRECTION ( 'NONE',  ( -1.000000000000000000, 0.000000000000000000, 0.000000000000000000 ) ) ;
#907 = VECTOR ( 'NONE', #231, 1000.000000000000227 ) ;
#908 = DIRECTION ( 'NONE',  ( 0.000000000000000000, 0.000000000000000000, 1.000000000000000000 ) ) ;
#909 = ORIENTED_EDGE ( 'NONE', *, *, #4, .F. ) ;
#910 = AXIS2_PLACEMENT_3D ( 'NONE', #389, #304, #586 ) ;
ENDSEC;
END-ISO-10303-21;
